%!PS-Adobe-2.0 EPSF-1.2
%%Creator: MATLAB, The MathWorks, Inc. Version 8.3.0.532 (R2014a). Operating System: Linux 3.13.0-35-generic #62-Ubuntu SMP Fri Aug 15 01:58:42 UTC 2014 x86_64.
%%Title: ../img/lowkY_MCC.eps
%%CreationDate: 09/08/2014  14:11:06
%%DocumentNeededFonts: Helvetica
%%DocumentProcessColors: Cyan Magenta Yellow Black
%%Extensions: CMYK
%%Pages: 1
%%BoundingBox:    58   214   545   590
%%EndComments

%%BeginProlog
% MathWorks dictionary
/MathWorks 160 dict begin
% definition operators
/bdef {bind def} bind def
/ldef {load def} bind def
/xdef {exch def} bdef
/xstore {exch store} bdef
% operator abbreviations
/c  /clip ldef
/cc /concat ldef
/cp /closepath ldef
/gr /grestore ldef
/gs /gsave ldef
/mt /moveto ldef
/np /newpath ldef
/cm /currentmatrix ldef
/sm /setmatrix ldef
/rm /rmoveto ldef
/rl /rlineto ldef
/s {show newpath} bdef
/sc {setcmykcolor} bdef
/sr /setrgbcolor ldef
/sg /setgray ldef
/w /setlinewidth ldef
/j /setlinejoin ldef
/cap /setlinecap ldef
/rc {rectclip} bdef
/rf {rectfill} bdef
% page state control
/pgsv () def
/bpage {/pgsv save def} bdef
/epage {pgsv restore} bdef
/bplot /gsave ldef
/eplot {stroke grestore} bdef
% orientation switch
/portraitMode 0 def /landscapeMode 1 def /rotateMode 2 def
% coordinate system mappings
/dpi2point 0 def
% font control
/FontSize 0 def
/FMS {/FontSize xstore findfont [FontSize 0 0 FontSize neg 0 0]
  makefont setfont} bdef
/reencode {exch dup where {pop load} {pop StandardEncoding} ifelse
  exch dup 3 1 roll findfont dup length dict begin
  { 1 index /FID ne {def}{pop pop} ifelse } forall
  /Encoding exch def currentdict end definefont pop} bdef
/isroman {findfont /CharStrings get /Agrave known} bdef
/FMSR {3 1 roll 1 index dup isroman {reencode} {pop pop} ifelse
  exch FMS} bdef
/csm {1 dpi2point div -1 dpi2point div scale neg translate
 dup landscapeMode eq {pop -90 rotate}
  {rotateMode eq {90 rotate} if} ifelse} bdef
% line types: solid, dotted, dashed, dotdash
/SO { [] 0 setdash } bdef
/DO { [.5 dpi2point mul 4 dpi2point mul] 0 setdash } bdef
/DA { [6 dpi2point mul] 0 setdash } bdef
/DD { [.5 dpi2point mul 4 dpi2point mul 6 dpi2point mul 4
  dpi2point mul] 0 setdash } bdef
% macros for lines and objects
/L {lineto stroke} bdef
/MP {3 1 roll moveto 1 sub {rlineto} repeat} bdef
/AP {{rlineto} repeat} bdef
/PDlw -1 def
/W {/PDlw currentlinewidth def setlinewidth} def
/PP {closepath eofill} bdef
/DP {closepath stroke} bdef
/MR {4 -2 roll moveto dup  0 exch rlineto exch 0 rlineto
  neg 0 exch rlineto closepath} bdef
/FR {MR stroke} bdef
/PR {MR fill} bdef
/L1i {{currentfile picstr readhexstring pop} image} bdef
/tMatrix matrix def
/MakeOval {newpath tMatrix currentmatrix pop translate scale
0 0 1 0 360 arc tMatrix setmatrix} bdef
/FO {MakeOval stroke} bdef
/PO {MakeOval fill} bdef
/PD {currentlinewidth 2 div 0 360 arc fill
   PDlw -1 eq not {PDlw w /PDlw -1 def} if} def
/FA {newpath tMatrix currentmatrix pop translate scale
  0 0 1 5 -2 roll arc tMatrix setmatrix stroke} bdef
/PA {newpath tMatrix currentmatrix pop	translate 0 0 moveto scale
  0 0 1 5 -2 roll arc closepath tMatrix setmatrix fill} bdef
/FAn {newpath tMatrix currentmatrix pop translate scale
  0 0 1 5 -2 roll arcn tMatrix setmatrix stroke} bdef
/PAn {newpath tMatrix currentmatrix pop translate 0 0 moveto scale
  0 0 1 5 -2 roll arcn closepath tMatrix setmatrix fill} bdef
/vradius 0 def /hradius 0 def /lry 0 def
/lrx 0 def /uly 0 def /ulx 0 def /rad 0 def
/MRR {/vradius xdef /hradius xdef /lry xdef /lrx xdef /uly xdef
  /ulx xdef newpath tMatrix currentmatrix pop ulx hradius add uly
  vradius add translate hradius vradius scale 0 0 1 180 270 arc 
  tMatrix setmatrix lrx hradius sub uly vradius add translate
  hradius vradius scale 0 0 1 270 360 arc tMatrix setmatrix
  lrx hradius sub lry vradius sub translate hradius vradius scale
  0 0 1 0 90 arc tMatrix setmatrix ulx hradius add lry vradius sub
  translate hradius vradius scale 0 0 1 90 180 arc tMatrix setmatrix
  closepath} bdef
/FRR {MRR stroke } bdef
/PRR {MRR fill } bdef
/MlrRR {/lry xdef /lrx xdef /uly xdef /ulx xdef /rad lry uly sub 2 div def
  newpath tMatrix currentmatrix pop ulx rad add uly rad add translate
  rad rad scale 0 0 1 90 270 arc tMatrix setmatrix lrx rad sub lry rad
  sub translate rad rad scale 0 0 1 270 90 arc tMatrix setmatrix
  closepath} bdef
/FlrRR {MlrRR stroke } bdef
/PlrRR {MlrRR fill } bdef
/MtbRR {/lry xdef /lrx xdef /uly xdef /ulx xdef /rad lrx ulx sub 2 div def
  newpath tMatrix currentmatrix pop ulx rad add uly rad add translate
  rad rad scale 0 0 1 180 360 arc tMatrix setmatrix lrx rad sub lry rad
  sub translate rad rad scale 0 0 1 0 180 arc tMatrix setmatrix
  closepath} bdef
/FtbRR {MtbRR stroke } bdef
/PtbRR {MtbRR fill } bdef
/stri 6 array def /dtri 6 array def
/smat 6 array def /dmat 6 array def
/tmat1 6 array def /tmat2 6 array def /dif 3 array def
/asub {/ind2 exch def /ind1 exch def dup dup
  ind1 get exch ind2 get sub exch } bdef
/tri_to_matrix {
  2 0 asub 3 1 asub 4 0 asub 5 1 asub
  dup 0 get exch 1 get 7 -1 roll astore } bdef
/compute_transform {
  dmat dtri tri_to_matrix tmat1 invertmatrix 
  smat stri tri_to_matrix tmat2 concatmatrix } bdef
/ds {stri astore pop} bdef
/dt {dtri astore pop} bdef
/db {2 copy /cols xdef /rows xdef mul dup 3 mul string
  currentfile exch readhexstring pop
  dup 0 3 index getinterval /rbmap xdef
  dup 2 index dup getinterval /gbmap xdef
  1 index dup 2 mul exch getinterval /bbmap xdef pop pop}bdef
/it {gs np dtri aload pop moveto lineto lineto cp c
  cols rows 8 compute_transform 
  rbmap gbmap bbmap true 3 colorimage gr}bdef
/il {newpath moveto lineto stroke}bdef
currentdict end def
%%EndProlog

%%BeginSetup
MathWorks begin

0 cap

end
%%EndSetup

%%Page: 1 1
%%BeginPageSetup
%%PageBoundingBox:    58   214   545   590
MathWorks begin
bpage
%%EndPageSetup

%%BeginObject: obj1
bplot

/dpi2point 12 def
portraitMode 0216 7344 csm

  480   258  5853  4510 MR c np
86 dict begin %Colortable dictionary
/c0 { 0.000000 0.000000 0.000000 sr} bdef
/c1 { 1.000000 1.000000 1.000000 sr} bdef
/c2 { 0.900000 0.000000 0.000000 sr} bdef
/c3 { 0.000000 0.820000 0.000000 sr} bdef
/c4 { 0.000000 0.000000 0.800000 sr} bdef
/c5 { 0.910000 0.820000 0.320000 sr} bdef
/c6 { 1.000000 0.260000 0.820000 sr} bdef
/c7 { 0.000000 0.820000 0.820000 sr} bdef
c0
1 j
1 sg
   0    0 6913 5186 PR
6 w
0 4087 5355 0 0 -4087 899 4475 4 MP
PP
-5355 0 0 4087 5355 0 0 -4087 899 4475 5 MP stroke
4 w
DO
0 sg
 899 4289 mt 6255 4289 L
6255 4289 mt 6255 4289 L
 899 3918 mt 6255 3918 L
6255 3918 mt 6255 3918 L
 899 3547 mt 6255 3547 L
6255 3547 mt 6255 3547 L
 899 3175 mt 6255 3175 L
6255 3175 mt 6255 3175 L
 899 2804 mt 6255 2804 L
6255 2804 mt 6255 2804 L
 899 2433 mt 6255 2433 L
6255 2433 mt 6255 2433 L
 899 2062 mt 6255 2062 L
6255 2062 mt 6255 2062 L
 899 1691 mt 6255 1691 L
6255 1691 mt 6255 1691 L
 899 1320 mt 6255 1320 L
6255 1320 mt 6255 1320 L
 899  949 mt 6255  949 L
6255  949 mt 6255  949 L
 899  578 mt 6255  578 L
6255  578 mt 6255  578 L
SO
6 w
 899 4475 mt 6254 4475 L
 899  388 mt 6254  388 L
 899 4475 mt  899  388 L
6254 4475 mt 6254  388 L
 899 4475 mt 6254 4475 L
 899 4475 mt  899  388 L
1287 4475 mt 1287 4421 L
1287  389 mt 1287  442 L
%%IncludeResource: font Helvetica
/Helvetica /ISOLatin1Encoding 120 FMSR

1204 4620 mt 
(0.1) s
2432 4475 mt 2432 4421 L
2432  389 mt 2432  442 L
2399 4620 mt 
(1) s
3577 4475 mt 3577 4421 L
3577  389 mt 3577  442 L
3511 4620 mt 
(10) s
4721 4475 mt 4721 4421 L
4721  389 mt 4721  442 L
4621 4620 mt 
(100) s
5866 4475 mt 5866 4421 L
5866  389 mt 5866  442 L
5733 4620 mt 
(1000) s
 899 4289 mt  952 4289 L
6255 4289 mt 6201 4289 L
 798 4333 mt 
(0) s
 899 3918 mt  952 3918 L
6255 3918 mt 6201 3918 L
 698 3962 mt 
(0.1) s
 899 3547 mt  952 3547 L
6255 3547 mt 6201 3547 L
 698 3591 mt 
(0.2) s
 899 3175 mt  952 3175 L
6255 3175 mt 6201 3175 L
 698 3219 mt 
(0.3) s
 899 2804 mt  952 2804 L
6255 2804 mt 6201 2804 L
 698 2848 mt 
(0.4) s
 899 2433 mt  952 2433 L
6255 2433 mt 6201 2433 L
 698 2477 mt 
(0.5) s
 899 2062 mt  952 2062 L
6255 2062 mt 6201 2062 L
 698 2106 mt 
(0.6) s
 899 1691 mt  952 1691 L
6255 1691 mt 6201 1691 L
 698 1735 mt 
(0.7) s
 899 1320 mt  952 1320 L
6255 1320 mt 6201 1320 L
 698 1364 mt 
(0.8) s
 899  949 mt  952  949 L
6255  949 mt 6201  949 L
 698  993 mt 
(0.9) s
 899  578 mt  952  578 L
6255  578 mt 6201  578 L
 798  622 mt 
(1) s
 899 4475 mt 6254 4475 L
 899  388 mt 6254  388 L
 899 4475 mt  899  388 L
6254 4475 mt 6254  388 L
gs 899 388 5357 4088 MR c np
DA
/c8 { 0.000000 1.000000 0.000000 sr} bdef
c8
0 -711 996 3025 2 MP stroke
/c9 { 0.000000 0.000000 1.000000 sr} bdef
c9
1190 4289 PD
/c10 { 1.000000 0.000000 0.000000 sr} bdef
c10
0 -747 1384 2789 2 MP stroke
0 sg
0 -791 1578 2789 2 MP stroke
c8
0 -297 2140 875 2 MP stroke
c9
0 -948 2335 2977 2 MP stroke
c10
0 -396 2529 974 2 MP stroke
0 sg
0 -397 2723 975 2 MP stroke
c8
0 -96 3285 674 2 MP stroke
c9
0 -99 3479 776 2 MP stroke
c10
0 -99 3674 677 2 MP stroke
0 sg
0 -99 3868 677 2 MP stroke
c8
4430 578 PD
c9
4624 578 PD
c10
4818 578 PD
0 sg
5013 578 PD
c8
5575 578 PD
c9
5769 578 PD
c10
5963 578 PD
0 sg
6157 578 PD
c8
0 -663 996 4163 2 MP stroke
c9
1190 4289 PD
c10
0 -764 1384 4073 2 MP stroke
0 sg
0 -757 1578 4073 2 MP stroke
c8
0 -722 2140 2116 2 MP stroke
c9
2335 4289 PD
c10
0 -546 2529 1942 2 MP stroke
0 sg
0 -633 2723 2059 2 MP stroke
c8
0 -101 3285 877 2 MP stroke
c9
0 -100 3479 975 2 MP stroke
c10
0 -101 3674 877 2 MP stroke
0 sg
0 -101 3868 877 2 MP stroke
c8
4430 677 PD
c9
0 -99 4624 776 2 MP stroke
c10
4818 677 PD
0 sg
5013 677 PD
c8
5575 578 PD
c9
5769 578 PD
c10
5963 578 PD
0 sg
6157 578 PD
SO
c8
49 0 971 2314 2 MP stroke
c9
49 0 1165 4289 2 MP stroke
c10
49 0 1359 2042 2 MP stroke
0 sg
49 0 1553 1998 2 MP stroke
c8
49 0 2116 578 2 MP stroke
c9
49 0 2310 2029 2 MP stroke
c10
49 0 2504 578 2 MP stroke
0 sg
49 0 2698 578 2 MP stroke
c8
49 0 3261 578 2 MP stroke
c9
49 0 3455 677 2 MP stroke
c10
49 0 3649 578 2 MP stroke
0 sg
49 0 3843 578 2 MP stroke
c8
49 0 4406 578 2 MP stroke
c9
49 0 4600 578 2 MP stroke
c10
49 0 4794 578 2 MP stroke
0 sg
49 0 4988 578 2 MP stroke
c8
49 0 5551 578 2 MP stroke
c9
49 0 5745 578 2 MP stroke
c10
49 0 5939 578 2 MP stroke
0 sg
49 0 6133 578 2 MP stroke
c8
49 0 971 4163 2 MP stroke
c9
49 0 1165 4289 2 MP stroke
c10
49 0 1359 4073 2 MP stroke
0 sg
49 0 1553 4073 2 MP stroke
c8
49 0 2116 2116 2 MP stroke
c9
49 0 2310 4289 2 MP stroke
c10
49 0 2504 1942 2 MP stroke
0 sg
49 0 2698 2059 2 MP stroke
c8
49 0 3261 877 2 MP stroke
c9
49 0 3455 975 2 MP stroke
c10
49 0 3649 877 2 MP stroke
0 sg
49 0 3843 877 2 MP stroke
c8
49 0 4406 677 2 MP stroke
c9
49 0 4600 776 2 MP stroke
c10
49 0 4794 677 2 MP stroke
0 sg
49 0 4988 677 2 MP stroke
c8
49 0 5551 578 2 MP stroke
c9
49 0 5745 578 2 MP stroke
c10
49 0 5939 578 2 MP stroke
0 sg
49 0 6133 578 2 MP stroke
c8
-97 0 0 475 97 0 0 -475 947 3500 5 MP stroke
c9
-97 0 97 0 1141 4289 3 MP stroke
c10
-97 0 0 520 97 0 0 -520 1335 3309 5 MP stroke
0 sg
-97 0 0 527 97 0 0 -527 1529 3316 5 MP stroke
c8
-97 0 0 519 97 0 0 -519 2092 1394 5 MP stroke
c9
-97 0 0 1312 97 0 0 -1312 2286 4289 5 MP stroke
c10
-97 0 0 422 97 0 0 -422 2480 1396 5 MP stroke
0 sg
-97 0 0 451 97 0 0 -451 2674 1426 5 MP stroke
c8
-97 0 0 102 97 0 0 -102 3237 776 5 MP stroke
c9
-97 0 0 99 97 0 0 -99 3431 875 5 MP stroke
c10
-97 0 0 99 97 0 0 -99 3625 776 5 MP stroke
0 sg
-97 0 0 99 97 0 0 -99 3819 776 5 MP stroke
c8
-97 0 0 99 97 0 0 -99 4382 677 5 MP stroke
c9
-97 0 0 99 97 0 0 -99 4576 677 5 MP stroke
c10
-97 0 0 99 97 0 0 -99 4770 677 5 MP stroke
0 sg
-97 0 0 99 97 0 0 -99 4964 677 5 MP stroke
c8
-97 0 97 0 5527 578 3 MP stroke
c9
-97 0 97 0 5721 578 3 MP stroke
c10
-97 0 97 0 5915 578 3 MP stroke
0 sg
-97 0 97 0 6109 578 3 MP stroke
c8
97 0 947 3285 2 MP stroke
c9
97 0 1141 4289 2 MP stroke
c10
97 0 1335 3029 2 MP stroke
0 sg
97 0 1529 3042 2 MP stroke
c8
97 0 2092 1176 2 MP stroke
c9
97 0 2286 3643 2 MP stroke
c10
97 0 2480 1176 2 MP stroke
0 sg
97 0 2674 1183 2 MP stroke
c8
97 0 3237 677 2 MP stroke
c9
97 0 3431 776 2 MP stroke
c10
97 0 3625 677 2 MP stroke
0 sg
97 0 3819 677 2 MP stroke
c8
97 0 4382 578 2 MP stroke
c9
97 0 4576 578 2 MP stroke
c10
97 0 4770 578 2 MP stroke
0 sg
97 0 4964 578 2 MP stroke
c8
97 0 5527 578 2 MP stroke
c9
97 0 5721 578 2 MP stroke
c10
97 0 5915 578 2 MP stroke
0 sg
97 0 6109 578 2 MP stroke
gs 923 2008 147 2355 MR c np
c8
 960 4289 mt 1032 4289 L
 996 4253 mt  996 4325 L
 960 2310 mt 1032 2310 L
 996 2274 mt  996 2346 L
 960 2309 mt 1032 2309 L
 996 2273 mt  996 2345 L
 960 2282 mt 1032 2282 L
 996 2246 mt  996 2318 L
 960 2268 mt 1032 2268 L
 996 2232 mt  996 2304 L
 960 2267 mt 1032 2267 L
 996 2231 mt  996 2303 L
 960 2265 mt 1032 2265 L
 996 2229 mt  996 2301 L
 960 2170 mt 1032 2170 L
 996 2134 mt  996 2206 L
 960 2146 mt 1032 2146 L
 996 2110 mt  996 2182 L
 960 2138 mt 1032 2138 L
 996 2102 mt  996 2174 L
 960 2088 mt 1032 2088 L
 996 2052 mt  996 2124 L
 960 2081 mt 1032 2081 L
 996 2045 mt  996 2117 L
gr

c8
gs 1311 1721 147 304 MR c np
c10
1348 1951 mt 1420 1951 L
1384 1915 mt 1384 1987 L
1348 1946 mt 1420 1946 L
1384 1910 mt 1384 1982 L
1348 1932 mt 1420 1932 L
1384 1896 mt 1384 1968 L
1348 1915 mt 1420 1915 L
1384 1879 mt 1384 1951 L
1348 1831 mt 1420 1831 L
1384 1795 mt 1384 1867 L
1348 1794 mt 1420 1794 L
1384 1758 mt 1384 1830 L
gr

c10
gs 1505 1645 147 375 MR c np
0 sg
1542 1946 mt 1614 1946 L
1578 1910 mt 1578 1982 L
1542 1932 mt 1614 1932 L
1578 1896 mt 1578 1968 L
1542 1915 mt 1614 1915 L
1578 1879 mt 1578 1951 L
1542 1794 mt 1614 1794 L
1578 1758 mt 1578 1830 L
1542 1718 mt 1614 1718 L
1578 1682 mt 1578 1754 L
gr

0 sg
gs 2456 1986 147 205 MR c np
c10
2493 2117 mt 2565 2117 L
2529 2081 mt 2529 2153 L
2493 2116 mt 2565 2116 L
2529 2080 mt 2529 2152 L
2493 2059 mt 2565 2059 L
2529 2023 mt 2529 2095 L
gr

c10
gs 2650 2043 147 177 MR c np
0 sg
2687 2146 mt 2759 2146 L
2723 2110 mt 2723 2182 L
2687 2116 mt 2759 2116 L
2723 2080 mt 2723 2152 L
gr

0 sg
gs 3212 863 147 286 MR c np
c8
3249 1075 mt 3321 1075 L
3285 1039 mt 3285 1111 L
3249 1044 mt 3321 1044 L
3285 1008 mt 3285 1080 L
3249  975 mt 3321  975 L
3285  939 mt 3285 1011 L
3249  974 mt 3321  974 L
3285  938 mt 3285 1010 L
3249  959 mt 3321  959 L
3285  923 mt 3285  995 L
3249  936 mt 3321  936 L
3285  900 mt 3285  972 L
gr

c8
gs 3406 1002 147 147 MR c np
c9
3443 1075 mt 3515 1075 L
3479 1039 mt 3479 1111 L
gr

c9
gs 3601 863 147 286 MR c np
c10
3638 1075 mt 3710 1075 L
3674 1039 mt 3674 1111 L
3638 1065 mt 3710 1065 L
3674 1029 mt 3674 1101 L
3638  979 mt 3710  979 L
3674  943 mt 3674 1015 L
3638  975 mt 3710  975 L
3674  939 mt 3674 1011 L
3638  974 mt 3710  974 L
3674  938 mt 3674 1010 L
3638  959 mt 3710  959 L
3674  923 mt 3674  995 L
3638  936 mt 3710  936 L
3674  900 mt 3674  972 L
gr

c10
gs 3795 886 147 263 MR c np
0 sg
3832 1075 mt 3904 1075 L
3868 1039 mt 3868 1111 L
3832 1044 mt 3904 1044 L
3868 1008 mt 3868 1080 L
3832  975 mt 3904  975 L
3868  939 mt 3868 1011 L
3832  974 mt 3904  974 L
3868  938 mt 3868 1010 L
3832  959 mt 3904  959 L
3868  923 mt 3868  995 L
gr

0 sg
gr

3450 4716 mt 
(SNR) s
 616 2570 mt  -90 rotate
(MCC) s
90 rotate
 870 4530 mt 
( ) s
6227  442 mt 
( ) s
gs 899 388 5357 4088 MR c np
DA
5355 0 899 4289 2 MP stroke
SO
gr

1 sg
0 642 1157 0 0 -642 4619 2338 4 MP
PP
-1157 0 0 642 1157 0 0 -642 4619 2338 5 MP stroke
4 w
DO
SO
6 w
0 sg
4619 2338 mt 5776 2338 L
4619 1696 mt 5776 1696 L
4619 2338 mt 4619 1696 L
5776 2338 mt 5776 1696 L
4619 2338 mt 5776 2338 L
4619 2338 mt 4619 1696 L
4619 2338 mt 5776 2338 L
4619 1696 mt 5776 1696 L
4619 2338 mt 4619 1696 L
5776 2338 mt 5776 1696 L
5087 1834 mt 
(Elastic net) s
gs 4619 1696 1158 643 MR c np
360 0 4691 1792 2 MP stroke
gr

5087 1984 mt 
(LASSO) s
gs 4619 1696 1158 643 MR c np
c10
360 0 4691 1942 2 MP stroke
gr

c10
0 sg
5087 2135 mt 
(RNI) s
gs 4619 1696 1158 643 MR c np
c9
360 0 4691 2092 2 MP stroke
gr

c9
0 sg
5087 2285 mt 
(LSCO) s
gs 4619 1696 1158 643 MR c np
c8
360 0 4691 2242 2 MP stroke
gr

c8

end %%Color Dict

eplot
%%EndObject

epage
end

showpage

%%Trailer
%%EOF
