%!PS-Adobe-2.0 EPSF-1.2
%%Creator: MATLAB, The MathWorks, Inc. Version 8.3.0.532 (R2014a). Operating System: Linux 3.13.0-30-generic #55-Ubuntu SMP Fri Jul 4 21:40:53 UTC 2014 x86_64.
%%Title: ../junk/highkY_45_MCC.eps
%%CreationDate: 07/18/2014  12:17:59
%%DocumentNeededFonts: Helvetica
%%DocumentProcessColors: Cyan Magenta Yellow Black
%%Extensions: CMYK
%%Pages: 1
%%BoundingBox:    58   214   545   590
%%EndComments

%%BeginProlog
% MathWorks dictionary
/MathWorks 160 dict begin
% definition operators
/bdef {bind def} bind def
/ldef {load def} bind def
/xdef {exch def} bdef
/xstore {exch store} bdef
% operator abbreviations
/c  /clip ldef
/cc /concat ldef
/cp /closepath ldef
/gr /grestore ldef
/gs /gsave ldef
/mt /moveto ldef
/np /newpath ldef
/cm /currentmatrix ldef
/sm /setmatrix ldef
/rm /rmoveto ldef
/rl /rlineto ldef
/s {show newpath} bdef
/sc {setcmykcolor} bdef
/sr /setrgbcolor ldef
/sg /setgray ldef
/w /setlinewidth ldef
/j /setlinejoin ldef
/cap /setlinecap ldef
/rc {rectclip} bdef
/rf {rectfill} bdef
% page state control
/pgsv () def
/bpage {/pgsv save def} bdef
/epage {pgsv restore} bdef
/bplot /gsave ldef
/eplot {stroke grestore} bdef
% orientation switch
/portraitMode 0 def /landscapeMode 1 def /rotateMode 2 def
% coordinate system mappings
/dpi2point 0 def
% font control
/FontSize 0 def
/FMS {/FontSize xstore findfont [FontSize 0 0 FontSize neg 0 0]
  makefont setfont} bdef
/reencode {exch dup where {pop load} {pop StandardEncoding} ifelse
  exch dup 3 1 roll findfont dup length dict begin
  { 1 index /FID ne {def}{pop pop} ifelse } forall
  /Encoding exch def currentdict end definefont pop} bdef
/isroman {findfont /CharStrings get /Agrave known} bdef
/FMSR {3 1 roll 1 index dup isroman {reencode} {pop pop} ifelse
  exch FMS} bdef
/csm {1 dpi2point div -1 dpi2point div scale neg translate
 dup landscapeMode eq {pop -90 rotate}
  {rotateMode eq {90 rotate} if} ifelse} bdef
% line types: solid, dotted, dashed, dotdash
/SO { [] 0 setdash } bdef
/DO { [.5 dpi2point mul 4 dpi2point mul] 0 setdash } bdef
/DA { [6 dpi2point mul] 0 setdash } bdef
/DD { [.5 dpi2point mul 4 dpi2point mul 6 dpi2point mul 4
  dpi2point mul] 0 setdash } bdef
% macros for lines and objects
/L {lineto stroke} bdef
/MP {3 1 roll moveto 1 sub {rlineto} repeat} bdef
/AP {{rlineto} repeat} bdef
/PDlw -1 def
/W {/PDlw currentlinewidth def setlinewidth} def
/PP {closepath eofill} bdef
/DP {closepath stroke} bdef
/MR {4 -2 roll moveto dup  0 exch rlineto exch 0 rlineto
  neg 0 exch rlineto closepath} bdef
/FR {MR stroke} bdef
/PR {MR fill} bdef
/L1i {{currentfile picstr readhexstring pop} image} bdef
/tMatrix matrix def
/MakeOval {newpath tMatrix currentmatrix pop translate scale
0 0 1 0 360 arc tMatrix setmatrix} bdef
/FO {MakeOval stroke} bdef
/PO {MakeOval fill} bdef
/PD {currentlinewidth 2 div 0 360 arc fill
   PDlw -1 eq not {PDlw w /PDlw -1 def} if} def
/FA {newpath tMatrix currentmatrix pop translate scale
  0 0 1 5 -2 roll arc tMatrix setmatrix stroke} bdef
/PA {newpath tMatrix currentmatrix pop	translate 0 0 moveto scale
  0 0 1 5 -2 roll arc closepath tMatrix setmatrix fill} bdef
/FAn {newpath tMatrix currentmatrix pop translate scale
  0 0 1 5 -2 roll arcn tMatrix setmatrix stroke} bdef
/PAn {newpath tMatrix currentmatrix pop translate 0 0 moveto scale
  0 0 1 5 -2 roll arcn closepath tMatrix setmatrix fill} bdef
/vradius 0 def /hradius 0 def /lry 0 def
/lrx 0 def /uly 0 def /ulx 0 def /rad 0 def
/MRR {/vradius xdef /hradius xdef /lry xdef /lrx xdef /uly xdef
  /ulx xdef newpath tMatrix currentmatrix pop ulx hradius add uly
  vradius add translate hradius vradius scale 0 0 1 180 270 arc 
  tMatrix setmatrix lrx hradius sub uly vradius add translate
  hradius vradius scale 0 0 1 270 360 arc tMatrix setmatrix
  lrx hradius sub lry vradius sub translate hradius vradius scale
  0 0 1 0 90 arc tMatrix setmatrix ulx hradius add lry vradius sub
  translate hradius vradius scale 0 0 1 90 180 arc tMatrix setmatrix
  closepath} bdef
/FRR {MRR stroke } bdef
/PRR {MRR fill } bdef
/MlrRR {/lry xdef /lrx xdef /uly xdef /ulx xdef /rad lry uly sub 2 div def
  newpath tMatrix currentmatrix pop ulx rad add uly rad add translate
  rad rad scale 0 0 1 90 270 arc tMatrix setmatrix lrx rad sub lry rad
  sub translate rad rad scale 0 0 1 270 90 arc tMatrix setmatrix
  closepath} bdef
/FlrRR {MlrRR stroke } bdef
/PlrRR {MlrRR fill } bdef
/MtbRR {/lry xdef /lrx xdef /uly xdef /ulx xdef /rad lrx ulx sub 2 div def
  newpath tMatrix currentmatrix pop ulx rad add uly rad add translate
  rad rad scale 0 0 1 180 360 arc tMatrix setmatrix lrx rad sub lry rad
  sub translate rad rad scale 0 0 1 0 180 arc tMatrix setmatrix
  closepath} bdef
/FtbRR {MtbRR stroke } bdef
/PtbRR {MtbRR fill } bdef
/stri 6 array def /dtri 6 array def
/smat 6 array def /dmat 6 array def
/tmat1 6 array def /tmat2 6 array def /dif 3 array def
/asub {/ind2 exch def /ind1 exch def dup dup
  ind1 get exch ind2 get sub exch } bdef
/tri_to_matrix {
  2 0 asub 3 1 asub 4 0 asub 5 1 asub
  dup 0 get exch 1 get 7 -1 roll astore } bdef
/compute_transform {
  dmat dtri tri_to_matrix tmat1 invertmatrix 
  smat stri tri_to_matrix tmat2 concatmatrix } bdef
/ds {stri astore pop} bdef
/dt {dtri astore pop} bdef
/db {2 copy /cols xdef /rows xdef mul dup 3 mul string
  currentfile exch readhexstring pop
  dup 0 3 index getinterval /rbmap xdef
  dup 2 index dup getinterval /gbmap xdef
  1 index dup 2 mul exch getinterval /bbmap xdef pop pop}bdef
/it {gs np dtri aload pop moveto lineto lineto cp c
  cols rows 8 compute_transform 
  rbmap gbmap bbmap true 3 colorimage gr}bdef
/il {newpath moveto lineto stroke}bdef
currentdict end def
%%EndProlog

%%BeginSetup
MathWorks begin

0 cap

end
%%EndSetup

%%Page: 1 1
%%BeginPageSetup
%%PageBoundingBox:    58   214   545   590
MathWorks begin
bpage
%%EndPageSetup

%%BeginObject: obj1
bplot

/dpi2point 12 def
portraitMode 0216 7344 csm

  480   261  5852  4507 MR c np
87 dict begin %Colortable dictionary
/c0 { 0.000000 0.000000 0.000000 sr} bdef
/c1 { 1.000000 1.000000 1.000000 sr} bdef
/c2 { 0.900000 0.000000 0.000000 sr} bdef
/c3 { 0.000000 0.820000 0.000000 sr} bdef
/c4 { 0.000000 0.000000 0.800000 sr} bdef
/c5 { 0.910000 0.820000 0.320000 sr} bdef
/c6 { 1.000000 0.260000 0.820000 sr} bdef
/c7 { 0.000000 0.820000 0.820000 sr} bdef
c0
1 j
1 sg
   0    0 6913 5186 PR
6 w
0 4086 5356 0 0 -4086 899 4475 4 MP
PP
-5356 0 0 4086 5356 0 0 -4086 899 4475 5 MP stroke
4 w
DO
0 sg
 899 4475 mt 6255 4475 L
6255 4475 mt 6255 4475 L
 899 4066 mt 6255 4066 L
6255 4066 mt 6255 4066 L
 899 3657 mt 6255 3657 L
6255 3657 mt 6255 3657 L
 899 3249 mt 6255 3249 L
6255 3249 mt 6255 3249 L
 899 2840 mt 6255 2840 L
6255 2840 mt 6255 2840 L
 899 2432 mt 6255 2432 L
6255 2432 mt 6255 2432 L
 899 2023 mt 6255 2023 L
6255 2023 mt 6255 2023 L
 899 1614 mt 6255 1614 L
6255 1614 mt 6255 1614 L
 899 1206 mt 6255 1206 L
6255 1206 mt 6255 1206 L
 899  797 mt 6255  797 L
6255  797 mt 6255  797 L
 899  389 mt 6255  389 L
6255  389 mt 6255  389 L
SO
6 w
 899 4475 mt 6255 4475 L
 899  389 mt 6255  389 L
 899 4475 mt  899  389 L
6255 4475 mt 6255  389 L
 899 4475 mt 6255 4475 L
 899 4475 mt  899  389 L
1102 4475 mt 1102 4421 L
1102  389 mt 1102  442 L
%%IncludeResource: font Helvetica
/Helvetica /ISOLatin1Encoding 120 FMSR

 919 4620 mt 
(0.0128) s
1597 4475 mt 1597 4421 L
1597  389 mt 1597  442 L
1414 4620 mt 
(0.0405) s
2092 4475 mt 2092 4421 L
2092  389 mt 2092  442 L
1942 4620 mt 
(0.128) s
2587 4475 mt 2587 4421 L
2587  389 mt 2587  442 L
2437 4620 mt 
(0.405) s
3082 4475 mt 3082 4421 L
3082  389 mt 3082  442 L
2966 4620 mt 
(1.28) s
3577 4475 mt 3577 4421 L
3577  389 mt 3577  442 L
3461 4620 mt 
(4.05) s
4071 4475 mt 4071 4421 L
4071  389 mt 4071  442 L
3955 4620 mt 
(12.8) s
4566 4475 mt 4566 4421 L
4566  389 mt 4566  442 L
4450 4620 mt 
(40.5) s
5061 4475 mt 5061 4421 L
5061  389 mt 5061  442 L
4961 4620 mt 
(128) s
5556 4475 mt 5556 4421 L
5556  389 mt 5556  442 L
5456 4620 mt 
(405) s
6051 4475 mt 6051 4421 L
6051  389 mt 6051  442 L
5918 4620 mt 
(1280) s
 899 4475 mt  952 4475 L
6255 4475 mt 6201 4475 L
 798 4519 mt 
(0) s
 899 4066 mt  952 4066 L
6255 4066 mt 6201 4066 L
 698 4110 mt 
(0.1) s
 899 3657 mt  952 3657 L
6255 3657 mt 6201 3657 L
 698 3701 mt 
(0.2) s
 899 3249 mt  952 3249 L
6255 3249 mt 6201 3249 L
 698 3293 mt 
(0.3) s
 899 2840 mt  952 2840 L
6255 2840 mt 6201 2840 L
 698 2884 mt 
(0.4) s
 899 2432 mt  952 2432 L
6255 2432 mt 6201 2432 L
 698 2476 mt 
(0.5) s
 899 2023 mt  952 2023 L
6255 2023 mt 6201 2023 L
 698 2067 mt 
(0.6) s
 899 1614 mt  952 1614 L
6255 1614 mt 6201 1614 L
 698 1658 mt 
(0.7) s
 899 1206 mt  952 1206 L
6255 1206 mt 6201 1206 L
 698 1250 mt 
(0.8) s
 899  797 mt  952  797 L
6255  797 mt 6201  797 L
 698  841 mt 
(0.9) s
 899  389 mt  952  389 L
6255  389 mt 6201  389 L
 798  433 mt 
(1) s
 899 4475 mt 6255 4475 L
 899  389 mt 6255  389 L
 899 4475 mt  899  389 L
6255 4475 mt 6255  389 L
gs 899 389 5357 4087 MR c np
DA
/c8 { 0.000000 1.000000 0.000000 sr} bdef
c8
0 -290 939 3111 2 MP stroke
/c9 { 0.000000 0.000000 1.000000 sr} bdef
c9
1021 4475 PD
/c10 { 0.000000 1.000000 1.000000 sr} bdef
c10
0 -224 1102 3094 2 MP stroke
/c11 { 1.000000 0.000000 0.000000 sr} bdef
c11
0 -143 1183 3026 2 MP stroke
0 sg
0 -127 1265 3066 2 MP stroke
c8
0 -290 1434 2057 2 MP stroke
c9
1515 4475 PD
c10
0 -267 1597 2311 2 MP stroke
c11
0 -235 1678 2374 2 MP stroke
0 sg
0 -218 1760 2461 2 MP stroke
c8
0 -255 1929 1303 2 MP stroke
c9
2010 4475 PD
c10
0 -223 2092 1354 2 MP stroke
c11
0 -203 2173 1622 2 MP stroke
0 sg
0 -205 2255 1818 2 MP stroke
c8
0 -138 2424 862 2 MP stroke
c9
2505 4475 PD
c10
0 -116 2587 720 2 MP stroke
c11
0 -101 2668 1072 2 MP stroke
0 sg
0 -110 2749 1492 2 MP stroke
c8
0 -140 2919 638 2 MP stroke
c9
0 -151 3000 1295 2 MP stroke
c10
0 -62 3082 497 2 MP stroke
c11
0 -111 3163 903 2 MP stroke
0 sg
0 -76 3244 1388 2 MP stroke
c8
0 -30 3414 480 2 MP stroke
c9
0 -150 3495 837 2 MP stroke
c10
0 -68 3577 457 2 MP stroke
c11
0 -107 3658 851 2 MP stroke
0 sg
0 -78 3739 1363 2 MP stroke
c8
0 -15 3909 404 2 MP stroke
c9
0 -76 3990 541 2 MP stroke
c10
0 -45 4071 434 2 MP stroke
c11
0 -86 4153 781 2 MP stroke
0 sg
0 -85 4234 1362 2 MP stroke
c8
0 -15 4404 404 2 MP stroke
c9
0 -31 4485 435 2 MP stroke
c10
0 -45 4566 434 2 MP stroke
c11
0 -71 4648 766 2 MP stroke
0 sg
0 -85 4729 1362 2 MP stroke
c8
4898 389 PD
c9
0 -30 4980 419 2 MP stroke
c10
0 -59 5061 448 2 MP stroke
c11
0 -59 5143 766 2 MP stroke
0 sg
0 -69 5224 1362 2 MP stroke
c8
5393 389 PD
c9
5475 389 PD
c10
0 -45 5556 449 2 MP stroke
c11
0 -71 5638 778 2 MP stroke
0 sg
0 -69 5719 1362 2 MP stroke
c8
5888 389 PD
c9
5970 389 PD
c10
0 -45 6051 449 2 MP stroke
c11
0 -72 6132 779 2 MP stroke
0 sg
0 -69 6214 1362 2 MP stroke
c8
0 -356 939 3789 2 MP stroke
c9
1021 4475 PD
c10
0 -462 1102 3876 2 MP stroke
c11
0 -296 1183 3530 2 MP stroke
0 sg
0 -241 1265 3472 2 MP stroke
c8
0 -435 1434 3032 2 MP stroke
c9
1515 4475 PD
c10
0 -308 1597 2847 2 MP stroke
c11
0 -190 1678 2857 2 MP stroke
0 sg
0 -162 1760 2902 2 MP stroke
c8
0 -642 1929 2516 2 MP stroke
c9
2010 4475 PD
c10
0 -318 2092 1915 2 MP stroke
c11
0 -192 2173 2177 2 MP stroke
0 sg
0 -224 2255 2379 2 MP stroke
c8
0 -340 2424 1768 2 MP stroke
c9
2505 4475 PD
c10
0 -323 2587 1290 2 MP stroke
c11
0 -308 2668 1758 2 MP stroke
0 sg
0 -300 2749 2104 2 MP stroke
c8
0 -203 2919 1242 2 MP stroke
c9
0 -38 3000 1452 2 MP stroke
c10
0 -116 3082 835 2 MP stroke
c11
0 -372 3163 1523 2 MP stroke
0 sg
0 -339 3244 2014 2 MP stroke
c8
0 -117 3414 888 2 MP stroke
c9
0 -161 3495 1130 2 MP stroke
c10
0 -77 3577 677 2 MP stroke
c11
0 -100 3658 1157 2 MP stroke
0 sg
0 -346 3739 2005 2 MP stroke
c8
0 -45 3909 624 2 MP stroke
c9
0 -115 3990 864 2 MP stroke
c10
0 -70 4071 624 2 MP stroke
c11
0 -129 4153 1124 2 MP stroke
0 sg
0 -353 4234 2005 2 MP stroke
c8
0 -46 4404 512 2 MP stroke
c9
0 -70 4485 712 2 MP stroke
c10
0 -115 4566 638 2 MP stroke
c11
0 -106 4648 1081 2 MP stroke
0 sg
0 -355 4729 2005 2 MP stroke
c8
0 -31 4898 450 2 MP stroke
c9
0 -99 4980 596 2 MP stroke
c10
0 -129 5061 665 2 MP stroke
c11
0 -68 5143 1052 2 MP stroke
0 sg
0 -335 5224 1985 2 MP stroke
c8
5393 404 PD
c9
0 -31 5475 466 2 MP stroke
c10
0 -131 5556 681 2 MP stroke
c11
0 -69 5638 1052 2 MP stroke
0 sg
0 -335 5719 1985 2 MP stroke
c8
5888 389 PD
c9
5970 404 PD
c10
0 -115 6051 678 2 MP stroke
c11
0 -60 6132 1042 2 MP stroke
0 sg
0 -335 6214 1985 2 MP stroke
SO
c8
20 0 929 2821 2 MP stroke
c9
21 0 1010 4475 2 MP stroke
c10
20 0 1092 2870 2 MP stroke
c11
21 0 1173 2883 2 MP stroke
0 sg
20 0 1255 2939 2 MP stroke
c8
20 0 1424 1767 2 MP stroke
c9
21 0 1505 4475 2 MP stroke
c10
20 0 1587 2044 2 MP stroke
c11
20 0 1668 2139 2 MP stroke
0 sg
20 0 1750 2243 2 MP stroke
c8
20 0 1919 1048 2 MP stroke
c9
21 0 2000 4475 2 MP stroke
c10
20 0 2082 1131 2 MP stroke
c11
20 0 2163 1419 2 MP stroke
0 sg
21 0 2244 1613 2 MP stroke
c8
20 0 2414 724 2 MP stroke
c9
20 0 2495 4475 2 MP stroke
c10
20 0 2577 604 2 MP stroke
c11
20 0 2658 971 2 MP stroke
0 sg
21 0 2739 1382 2 MP stroke
c8
20 0 2909 498 2 MP stroke
c9
20 0 2990 1144 2 MP stroke
c10
21 0 3071 435 2 MP stroke
c11
20 0 3153 792 2 MP stroke
0 sg
21 0 3234 1312 2 MP stroke
c8
20 0 3404 450 2 MP stroke
c9
20 0 3485 687 2 MP stroke
c10
21 0 3566 389 2 MP stroke
c11
20 0 3648 744 2 MP stroke
0 sg
20 0 3729 1285 2 MP stroke
c8
21 0 3898 389 2 MP stroke
c9
20 0 3980 465 2 MP stroke
c10
21 0 4061 389 2 MP stroke
c11
20 0 4143 695 2 MP stroke
0 sg
20 0 4224 1277 2 MP stroke
c8
21 0 4393 389 2 MP stroke
c9
20 0 4475 404 2 MP stroke
c10
20 0 4556 389 2 MP stroke
c11
20 0 4638 695 2 MP stroke
0 sg
20 0 4719 1277 2 MP stroke
c8
21 0 4888 389 2 MP stroke
c9
20 0 4970 389 2 MP stroke
c10
20 0 5051 389 2 MP stroke
c11
21 0 5132 707 2 MP stroke
0 sg
20 0 5214 1293 2 MP stroke
c8
20 0 5383 389 2 MP stroke
c9
20 0 5465 389 2 MP stroke
c10
20 0 5546 404 2 MP stroke
c11
21 0 5627 707 2 MP stroke
0 sg
20 0 5709 1293 2 MP stroke
c8
20 0 5878 389 2 MP stroke
c9
21 0 5959 389 2 MP stroke
c10
20 0 6041 404 2 MP stroke
c11
21 0 6122 707 2 MP stroke
0 sg
20 0 6204 1293 2 MP stroke
c8
20 0 929 3789 2 MP stroke
c9
21 0 1010 4475 2 MP stroke
c10
20 0 1092 3876 2 MP stroke
c11
21 0 1173 3530 2 MP stroke
0 sg
20 0 1255 3472 2 MP stroke
c8
20 0 1424 3032 2 MP stroke
c9
21 0 1505 4475 2 MP stroke
c10
20 0 1587 2847 2 MP stroke
c11
20 0 1668 2857 2 MP stroke
0 sg
20 0 1750 2902 2 MP stroke
c8
20 0 1919 2516 2 MP stroke
c9
21 0 2000 4475 2 MP stroke
c10
20 0 2082 1915 2 MP stroke
c11
20 0 2163 2177 2 MP stroke
0 sg
21 0 2244 2379 2 MP stroke
c8
20 0 2414 1768 2 MP stroke
c9
20 0 2495 4475 2 MP stroke
c10
20 0 2577 1290 2 MP stroke
c11
20 0 2658 1758 2 MP stroke
0 sg
21 0 2739 2104 2 MP stroke
c8
20 0 2909 1242 2 MP stroke
c9
20 0 2990 1452 2 MP stroke
c10
21 0 3071 835 2 MP stroke
c11
20 0 3153 1523 2 MP stroke
0 sg
21 0 3234 2014 2 MP stroke
c8
20 0 3404 888 2 MP stroke
c9
20 0 3485 1130 2 MP stroke
c10
21 0 3566 677 2 MP stroke
c11
20 0 3648 1157 2 MP stroke
0 sg
20 0 3729 2005 2 MP stroke
c8
21 0 3898 624 2 MP stroke
c9
20 0 3980 864 2 MP stroke
c10
21 0 4061 624 2 MP stroke
c11
20 0 4143 1124 2 MP stroke
0 sg
20 0 4224 2005 2 MP stroke
c8
21 0 4393 512 2 MP stroke
c9
20 0 4475 712 2 MP stroke
c10
20 0 4556 638 2 MP stroke
c11
20 0 4638 1081 2 MP stroke
0 sg
20 0 4719 2005 2 MP stroke
c8
21 0 4888 450 2 MP stroke
c9
20 0 4970 596 2 MP stroke
c10
20 0 5051 665 2 MP stroke
c11
21 0 5132 1052 2 MP stroke
0 sg
20 0 5214 1985 2 MP stroke
c8
20 0 5383 404 2 MP stroke
c9
20 0 5465 466 2 MP stroke
c10
20 0 5546 681 2 MP stroke
c11
21 0 5627 1052 2 MP stroke
0 sg
20 0 5709 1985 2 MP stroke
c8
20 0 5878 389 2 MP stroke
c9
21 0 5959 404 2 MP stroke
c10
20 0 6041 678 2 MP stroke
c11
21 0 6122 1042 2 MP stroke
0 sg
20 0 6204 1985 2 MP stroke
c8
-41 0 0 322 41 0 0 -322 919 3433 5 MP stroke
c9
-41 0 41 0 1000 4475 3 MP stroke
c10
-40 0 0 320 40 0 0 -320 1082 3414 5 MP stroke
c11
-41 0 0 208 41 0 0 -208 1163 3234 5 MP stroke
0 sg
-41 0 0 165 41 0 0 -165 1244 3231 5 MP stroke
c8
-40 0 0 540 40 0 0 -540 1414 2597 5 MP stroke
c9
-41 0 41 0 1495 4475 3 MP stroke
c10
-40 0 0 228 40 0 0 -228 1577 2539 5 MP stroke
c11
-41 0 0 293 41 0 0 -293 1658 2667 5 MP stroke
0 sg
-41 0 0 279 41 0 0 -279 1739 2740 5 MP stroke
c8
-40 0 0 571 40 0 0 -571 1909 1874 5 MP stroke
c9
-41 0 41 0 1990 4475 3 MP stroke
c10
-41 0 0 243 41 0 0 -243 2071 1597 5 MP stroke
c11
-41 0 0 363 41 0 0 -363 2153 1985 5 MP stroke
0 sg
-41 0 0 337 41 0 0 -337 2234 2155 5 MP stroke
c8
-40 0 0 566 40 0 0 -566 2404 1428 5 MP stroke
c9
-41 0 41 0 2485 4475 3 MP stroke
c10
-41 0 0 247 41 0 0 -247 2566 967 5 MP stroke
c11
-40 0 0 378 40 0 0 -378 2648 1450 5 MP stroke
0 sg
-41 0 0 312 41 0 0 -312 2729 1804 5 MP stroke
c8
-41 0 0 401 41 0 0 -401 2898 1039 5 MP stroke
c9
-41 0 0 119 41 0 0 -119 2980 1414 5 MP stroke
c10
-41 0 0 222 41 0 0 -222 3061 719 5 MP stroke
c11
-40 0 0 248 40 0 0 -248 3143 1151 5 MP stroke
0 sg
-41 0 0 287 41 0 0 -287 3224 1675 5 MP stroke
c8
-41 0 0 291 41 0 0 -291 3393 771 5 MP stroke
c9
-40 0 0 132 40 0 0 -132 3475 969 5 MP stroke
c10
-41 0 0 143 41 0 0 -143 3556 600 5 MP stroke
c11
-40 0 0 206 40 0 0 -206 3638 1057 5 MP stroke
0 sg
-41 0 0 296 41 0 0 -296 3719 1659 5 MP stroke
c8
-41 0 0 175 41 0 0 -175 3888 579 5 MP stroke
c9
-40 0 0 208 40 0 0 -208 3970 749 5 MP stroke
c10
-41 0 0 120 41 0 0 -120 4051 554 5 MP stroke
c11
-41 0 0 214 41 0 0 -214 4132 995 5 MP stroke
0 sg
-41 0 0 290 41 0 0 -290 4214 1652 5 MP stroke
c8
-41 0 0 62 41 0 0 -62 4383 466 5 MP stroke
c9
-40 0 0 207 40 0 0 -207 4465 642 5 MP stroke
c10
-41 0 0 89 41 0 0 -89 4546 523 5 MP stroke
c11
-41 0 0 209 41 0 0 -209 4627 975 5 MP stroke
0 sg
-40 0 0 288 40 0 0 -288 4709 1650 5 MP stroke
c8
-41 0 0 30 41 0 0 -30 4878 419 5 MP stroke
c9
-41 0 0 78 41 0 0 -78 4959 497 5 MP stroke
c10
-41 0 0 88 41 0 0 -88 5041 536 5 MP stroke
c11
-41 0 0 218 41 0 0 -218 5122 984 5 MP stroke
0 sg
-40 0 0 288 40 0 0 -288 5204 1650 5 MP stroke
c8
-41 0 0 15 41 0 0 -15 5373 404 5 MP stroke
c9
-41 0 0 46 41 0 0 -46 5454 435 5 MP stroke
c10
-40 0 0 101 40 0 0 -101 5536 550 5 MP stroke
c11
-41 0 0 205 41 0 0 -205 5617 983 5 MP stroke
0 sg
-40 0 0 288 40 0 0 -288 5699 1650 5 MP stroke
c8
-41 0 41 0 5868 389 3 MP stroke
c9
-41 0 0 15 41 0 0 -15 5949 404 5 MP stroke
c10
-40 0 0 114 40 0 0 -114 6031 563 5 MP stroke
c11
-41 0 0 203 41 0 0 -203 6112 982 5 MP stroke
0 sg
-41 0 0 288 41 0 0 -288 6193 1650 5 MP stroke
c8
41 0 919 3282 2 MP stroke
c9
41 0 1000 4475 2 MP stroke
c10
40 0 1082 3214 2 MP stroke
c11
41 0 1163 3121 2 MP stroke
0 sg
41 0 1244 3153 2 MP stroke
c8
40 0 1414 2317 2 MP stroke
c9
41 0 1495 4475 2 MP stroke
c10
40 0 1577 2419 2 MP stroke
c11
41 0 1658 2543 2 MP stroke
0 sg
41 0 1739 2626 2 MP stroke
c8
40 0 1909 1450 2 MP stroke
c9
41 0 1990 4475 2 MP stroke
c10
41 0 2071 1479 2 MP stroke
c11
41 0 2153 1816 2 MP stroke
0 sg
41 0 2234 2009 2 MP stroke
c8
40 0 2404 1064 2 MP stroke
c9
41 0 2485 4475 2 MP stroke
c10
41 0 2566 855 2 MP stroke
c11
40 0 2648 1237 2 MP stroke
0 sg
41 0 2729 1658 2 MP stroke
c8
41 0 2898 782 2 MP stroke
c9
41 0 2980 1372 2 MP stroke
c10
41 0 3061 612 2 MP stroke
c11
40 0 3143 995 2 MP stroke
0 sg
41 0 3224 1588 2 MP stroke
c8
41 0 3393 633 2 MP stroke
c9
40 0 3475 871 2 MP stroke
c10
41 0 3556 525 2 MP stroke
c11
40 0 3638 939 2 MP stroke
0 sg
41 0 3719 1587 2 MP stroke
c8
41 0 3888 488 2 MP stroke
c9
40 0 3970 607 2 MP stroke
c10
41 0 4051 471 2 MP stroke
c11
41 0 4132 887 2 MP stroke
0 sg
41 0 4214 1582 2 MP stroke
c8
41 0 4383 434 2 MP stroke
c9
40 0 4465 520 2 MP stroke
c10
41 0 4546 450 2 MP stroke
c11
41 0 4627 885 2 MP stroke
0 sg
40 0 4709 1586 2 MP stroke
c8
41 0 4878 404 2 MP stroke
c9
41 0 4959 458 2 MP stroke
c10
41 0 5041 464 2 MP stroke
c11
41 0 5122 893 2 MP stroke
0 sg
40 0 5204 1586 2 MP stroke
c8
41 0 5373 389 2 MP stroke
c9
41 0 5454 411 2 MP stroke
c10
40 0 5536 479 2 MP stroke
c11
41 0 5617 895 2 MP stroke
0 sg
40 0 5699 1586 2 MP stroke
c8
41 0 5868 389 2 MP stroke
c9
41 0 5949 396 2 MP stroke
c10
40 0 6031 478 2 MP stroke
c11
41 0 6112 890 2 MP stroke
0 sg
41 0 6193 1586 2 MP stroke
gs 1110 3483 147 197 MR c np
c11
1147 3606 mt 1219 3606 L
1183 3570 mt 1183 3642 L
1147 3556 mt 1219 3556 L
1183 3520 mt 1183 3592 L
gr

c11
gs 1192 3411 147 272 MR c np
0 sg
1229 3609 mt 1301 3609 L
1265 3573 mt 1265 3645 L
1229 3562 mt 1301 3562 L
1265 3526 mt 1265 3598 L
1229 3556 mt 1301 3556 L
1265 3520 mt 1265 3592 L
1229 3547 mt 1301 3547 L
1265 3511 mt 1265 3583 L
1229 3484 mt 1301 3484 L
1265 3448 mt 1265 3520 L
gr

0 sg
gs 3090 1450 147 176 MR c np
c11
3127 1552 mt 3199 1552 L
3163 1516 mt 3163 1588 L
3127 1551 mt 3199 1551 L
3163 1515 mt 3163 1587 L
3127 1529 mt 3199 1529 L
3163 1493 mt 3163 1565 L
3127 1523 mt 3199 1523 L
3163 1487 mt 3163 1559 L
gr

c11
gs 3585 1327 147 186 MR c np
3622 1439 mt 3694 1439 L
3658 1403 mt 3658 1475 L
3622 1432 mt 3694 1432 L
3658 1396 mt 3658 1468 L
3622 1424 mt 3694 1424 L
3658 1388 mt 3658 1460 L
3622 1416 mt 3694 1416 L
3658 1380 mt 3658 1452 L
3622 1400 mt 3694 1400 L
3658 1364 mt 3658 1436 L
gr

gs 4080 1316 147 182 MR c np
4117 1424 mt 4189 1424 L
4153 1388 mt 4153 1460 L
4117 1416 mt 4189 1416 L
4153 1380 mt 4153 1452 L
4117 1412 mt 4189 1412 L
4153 1376 mt 4153 1448 L
4117 1408 mt 4189 1408 L
4153 1372 mt 4153 1444 L
4117 1406 mt 4189 1406 L
4153 1370 mt 4153 1442 L
4117 1399 mt 4189 1399 L
4153 1363 mt 4153 1435 L
4117 1397 mt 4189 1397 L
4153 1361 mt 4153 1433 L
4117 1389 mt 4189 1389 L
4153 1353 mt 4153 1425 L
gr

gs 4331 507 147 147 MR c np
c8
4368  580 mt 4440  580 L
4404  544 mt 4404  616 L
gr

c8
gs 4575 1314 147 172 MR c np
c11
4612 1412 mt 4684 1412 L
4648 1376 mt 4648 1448 L
4612 1410 mt 4684 1410 L
4648 1374 mt 4648 1446 L
4612 1408 mt 4684 1408 L
4648 1372 mt 4648 1444 L
4612 1395 mt 4684 1395 L
4648 1359 mt 4648 1431 L
4612 1389 mt 4684 1389 L
4648 1353 mt 4648 1425 L
4612 1387 mt 4684 1387 L
4648 1351 mt 4648 1423 L
gr

c11
gs 4825 491 147 163 MR c np
c8
4862  580 mt 4934  580 L
4898  544 mt 4898  616 L
4862  564 mt 4934  564 L
4898  528 mt 4898  600 L
gr

c8
gs 5070 1307 147 172 MR c np
c11
5107 1405 mt 5179 1405 L
5143 1369 mt 5143 1441 L
5107 1402 mt 5179 1402 L
5143 1366 mt 5143 1438 L
5107 1397 mt 5179 1397 L
5143 1361 mt 5143 1433 L
5107 1389 mt 5179 1389 L
5143 1353 mt 5143 1425 L
5107 1380 mt 5179 1380 L
5143 1344 mt 5143 1416 L
gr

c11
gs 5320 475 147 163 MR c np
c8
5357  564 mt 5429  564 L
5393  528 mt 5393  600 L
5357  548 mt 5429  548 L
5393  512 mt 5393  584 L
gr

c8
gs 5402 507 147 147 MR c np
c9
5439  580 mt 5511  580 L
5475  544 mt 5475  616 L
gr

c9
gs 5565 1314 147 162 MR c np
c11
5602 1402 mt 5674 1402 L
5638 1366 mt 5638 1438 L
5602 1397 mt 5674 1397 L
5638 1361 mt 5638 1433 L
5602 1395 mt 5674 1395 L
5638 1359 mt 5638 1431 L
5602 1387 mt 5674 1387 L
5638 1351 mt 5638 1423 L
gr

c11
gr

c11
gs 5815 331 147 210 MR c np
c8
5852  467 mt 5924  467 L
5888  431 mt 5888  503 L
5852  452 mt 5924  452 L
5888  416 mt 5888  488 L
5852  451 mt 5924  451 L
5888  415 mt 5888  487 L
5852  436 mt 5924  436 L
5888  400 mt 5888  472 L
5852  435 mt 5924  435 L
5888  399 mt 5888  471 L
5852  420 mt 5924  420 L
5888  384 mt 5888  456 L
5852  404 mt 5924  404 L
5888  368 mt 5888  440 L
gr

c8
gs 899 389 5357 4087 MR c np
gr

gs 5897 362 147 292 MR c np
c9
5934  580 mt 6006  580 L
5970  544 mt 5970  616 L
5934  435 mt 6006  435 L
5970  399 mt 5970  471 L
gr

c9
gs 899 389 5357 4087 MR c np
gs 6059 1314 147 157 MR c np
c11
6096 1397 mt 6168 1397 L
6132 1361 mt 6132 1433 L
6096 1395 mt 6168 1395 L
6132 1359 mt 6132 1431 L
6096 1387 mt 6168 1387 L
6132 1351 mt 6132 1423 L
gr

c11
gr

c11
0 sg
3450 4716 mt 
(SNR) s
 616 2570 mt  -90 rotate
(MCC) s
90 rotate
 869 4532 mt 
( ) s
6226  445 mt 
( ) s
gs 899 389 5357 4087 MR c np
5356 0 899 4475 2 MP stroke
gr

1 sg
0 792 1157 0 0 -792 4103 4359 4 MP
PP
-1157 0 0 792 1157 0 0 -792 4103 4359 5 MP stroke
4 w
DO
SO
6 w
0 sg
4103 4359 mt 5260 4359 L
4103 3567 mt 5260 3567 L
4103 4359 mt 4103 3567 L
5260 4359 mt 5260 3567 L
4103 4359 mt 5260 4359 L
4103 4359 mt 4103 3567 L
4103 4359 mt 5260 4359 L
4103 3567 mt 5260 3567 L
4103 4359 mt 4103 3567 L
5260 4359 mt 5260 3567 L
4571 3705 mt 
(Elastic Net) s
gs 4103 3567 1158 793 MR c np
360 0 4175 3663 2 MP stroke
gr

4571 3855 mt 
(LASSO) s
gs 4103 3567 1158 793 MR c np
c11
360 0 4175 3813 2 MP stroke
gr

c11
0 sg
4571 4006 mt 
(Bolasso) s
gs 4103 3567 1158 793 MR c np
c10
360 0 4175 3963 2 MP stroke
gr

c10
0 sg
4571 4156 mt 
(RNI) s
gs 4103 3567 1158 793 MR c np
c9
360 0 4175 4113 2 MP stroke
gr

c9
0 sg
4571 4306 mt 
(LSCO) s
gs 4103 3567 1158 793 MR c np
c8
360 0 4175 4263 2 MP stroke
gr

c8

end %%Color Dict

eplot
%%EndObject

epage
end

showpage

%%Trailer
%%EOF
