%!PS-Adobe-2.0 EPSF-1.2
%%Creator: MATLAB, The MathWorks, Inc. Version 8.3.0.532 (R2014a). Operating System: Linux 3.13.0-30-generic #55-Ubuntu SMP Fri Jul 4 21:40:53 UTC 2014 x86_64.
%%Title: ../junk/lowkY_45_MCC.eps
%%CreationDate: 07/18/2014  12:18:01
%%DocumentNeededFonts: Helvetica
%%DocumentProcessColors: Cyan Magenta Yellow Black
%%Extensions: CMYK
%%Pages: 1
%%BoundingBox:    58   214   545   590
%%EndComments

%%BeginProlog
% MathWorks dictionary
/MathWorks 160 dict begin
% definition operators
/bdef {bind def} bind def
/ldef {load def} bind def
/xdef {exch def} bdef
/xstore {exch store} bdef
% operator abbreviations
/c  /clip ldef
/cc /concat ldef
/cp /closepath ldef
/gr /grestore ldef
/gs /gsave ldef
/mt /moveto ldef
/np /newpath ldef
/cm /currentmatrix ldef
/sm /setmatrix ldef
/rm /rmoveto ldef
/rl /rlineto ldef
/s {show newpath} bdef
/sc {setcmykcolor} bdef
/sr /setrgbcolor ldef
/sg /setgray ldef
/w /setlinewidth ldef
/j /setlinejoin ldef
/cap /setlinecap ldef
/rc {rectclip} bdef
/rf {rectfill} bdef
% page state control
/pgsv () def
/bpage {/pgsv save def} bdef
/epage {pgsv restore} bdef
/bplot /gsave ldef
/eplot {stroke grestore} bdef
% orientation switch
/portraitMode 0 def /landscapeMode 1 def /rotateMode 2 def
% coordinate system mappings
/dpi2point 0 def
% font control
/FontSize 0 def
/FMS {/FontSize xstore findfont [FontSize 0 0 FontSize neg 0 0]
  makefont setfont} bdef
/reencode {exch dup where {pop load} {pop StandardEncoding} ifelse
  exch dup 3 1 roll findfont dup length dict begin
  { 1 index /FID ne {def}{pop pop} ifelse } forall
  /Encoding exch def currentdict end definefont pop} bdef
/isroman {findfont /CharStrings get /Agrave known} bdef
/FMSR {3 1 roll 1 index dup isroman {reencode} {pop pop} ifelse
  exch FMS} bdef
/csm {1 dpi2point div -1 dpi2point div scale neg translate
 dup landscapeMode eq {pop -90 rotate}
  {rotateMode eq {90 rotate} if} ifelse} bdef
% line types: solid, dotted, dashed, dotdash
/SO { [] 0 setdash } bdef
/DO { [.5 dpi2point mul 4 dpi2point mul] 0 setdash } bdef
/DA { [6 dpi2point mul] 0 setdash } bdef
/DD { [.5 dpi2point mul 4 dpi2point mul 6 dpi2point mul 4
  dpi2point mul] 0 setdash } bdef
% macros for lines and objects
/L {lineto stroke} bdef
/MP {3 1 roll moveto 1 sub {rlineto} repeat} bdef
/AP {{rlineto} repeat} bdef
/PDlw -1 def
/W {/PDlw currentlinewidth def setlinewidth} def
/PP {closepath eofill} bdef
/DP {closepath stroke} bdef
/MR {4 -2 roll moveto dup  0 exch rlineto exch 0 rlineto
  neg 0 exch rlineto closepath} bdef
/FR {MR stroke} bdef
/PR {MR fill} bdef
/L1i {{currentfile picstr readhexstring pop} image} bdef
/tMatrix matrix def
/MakeOval {newpath tMatrix currentmatrix pop translate scale
0 0 1 0 360 arc tMatrix setmatrix} bdef
/FO {MakeOval stroke} bdef
/PO {MakeOval fill} bdef
/PD {currentlinewidth 2 div 0 360 arc fill
   PDlw -1 eq not {PDlw w /PDlw -1 def} if} def
/FA {newpath tMatrix currentmatrix pop translate scale
  0 0 1 5 -2 roll arc tMatrix setmatrix stroke} bdef
/PA {newpath tMatrix currentmatrix pop	translate 0 0 moveto scale
  0 0 1 5 -2 roll arc closepath tMatrix setmatrix fill} bdef
/FAn {newpath tMatrix currentmatrix pop translate scale
  0 0 1 5 -2 roll arcn tMatrix setmatrix stroke} bdef
/PAn {newpath tMatrix currentmatrix pop translate 0 0 moveto scale
  0 0 1 5 -2 roll arcn closepath tMatrix setmatrix fill} bdef
/vradius 0 def /hradius 0 def /lry 0 def
/lrx 0 def /uly 0 def /ulx 0 def /rad 0 def
/MRR {/vradius xdef /hradius xdef /lry xdef /lrx xdef /uly xdef
  /ulx xdef newpath tMatrix currentmatrix pop ulx hradius add uly
  vradius add translate hradius vradius scale 0 0 1 180 270 arc 
  tMatrix setmatrix lrx hradius sub uly vradius add translate
  hradius vradius scale 0 0 1 270 360 arc tMatrix setmatrix
  lrx hradius sub lry vradius sub translate hradius vradius scale
  0 0 1 0 90 arc tMatrix setmatrix ulx hradius add lry vradius sub
  translate hradius vradius scale 0 0 1 90 180 arc tMatrix setmatrix
  closepath} bdef
/FRR {MRR stroke } bdef
/PRR {MRR fill } bdef
/MlrRR {/lry xdef /lrx xdef /uly xdef /ulx xdef /rad lry uly sub 2 div def
  newpath tMatrix currentmatrix pop ulx rad add uly rad add translate
  rad rad scale 0 0 1 90 270 arc tMatrix setmatrix lrx rad sub lry rad
  sub translate rad rad scale 0 0 1 270 90 arc tMatrix setmatrix
  closepath} bdef
/FlrRR {MlrRR stroke } bdef
/PlrRR {MlrRR fill } bdef
/MtbRR {/lry xdef /lrx xdef /uly xdef /ulx xdef /rad lrx ulx sub 2 div def
  newpath tMatrix currentmatrix pop ulx rad add uly rad add translate
  rad rad scale 0 0 1 180 360 arc tMatrix setmatrix lrx rad sub lry rad
  sub translate rad rad scale 0 0 1 0 180 arc tMatrix setmatrix
  closepath} bdef
/FtbRR {MtbRR stroke } bdef
/PtbRR {MtbRR fill } bdef
/stri 6 array def /dtri 6 array def
/smat 6 array def /dmat 6 array def
/tmat1 6 array def /tmat2 6 array def /dif 3 array def
/asub {/ind2 exch def /ind1 exch def dup dup
  ind1 get exch ind2 get sub exch } bdef
/tri_to_matrix {
  2 0 asub 3 1 asub 4 0 asub 5 1 asub
  dup 0 get exch 1 get 7 -1 roll astore } bdef
/compute_transform {
  dmat dtri tri_to_matrix tmat1 invertmatrix 
  smat stri tri_to_matrix tmat2 concatmatrix } bdef
/ds {stri astore pop} bdef
/dt {dtri astore pop} bdef
/db {2 copy /cols xdef /rows xdef mul dup 3 mul string
  currentfile exch readhexstring pop
  dup 0 3 index getinterval /rbmap xdef
  dup 2 index dup getinterval /gbmap xdef
  1 index dup 2 mul exch getinterval /bbmap xdef pop pop}bdef
/it {gs np dtri aload pop moveto lineto lineto cp c
  cols rows 8 compute_transform 
  rbmap gbmap bbmap true 3 colorimage gr}bdef
/il {newpath moveto lineto stroke}bdef
currentdict end def
%%EndProlog

%%BeginSetup
MathWorks begin

0 cap

end
%%EndSetup

%%Page: 1 1
%%BeginPageSetup
%%PageBoundingBox:    58   214   545   590
MathWorks begin
bpage
%%EndPageSetup

%%BeginObject: obj1
bplot

/dpi2point 12 def
portraitMode 0216 7344 csm

  480   261  5852  4507 MR c np
87 dict begin %Colortable dictionary
/c0 { 0.000000 0.000000 0.000000 sr} bdef
/c1 { 1.000000 1.000000 1.000000 sr} bdef
/c2 { 0.900000 0.000000 0.000000 sr} bdef
/c3 { 0.000000 0.820000 0.000000 sr} bdef
/c4 { 0.000000 0.000000 0.800000 sr} bdef
/c5 { 0.910000 0.820000 0.320000 sr} bdef
/c6 { 1.000000 0.260000 0.820000 sr} bdef
/c7 { 0.000000 0.820000 0.820000 sr} bdef
c0
1 j
1 sg
   0    0 6913 5186 PR
6 w
0 4086 5356 0 0 -4086 899 4475 4 MP
PP
-5356 0 0 4086 5356 0 0 -4086 899 4475 5 MP stroke
4 w
DO
0 sg
 899 4475 mt 6255 4475 L
6255 4475 mt 6255 4475 L
 899 4066 mt 6255 4066 L
6255 4066 mt 6255 4066 L
 899 3657 mt 6255 3657 L
6255 3657 mt 6255 3657 L
 899 3249 mt 6255 3249 L
6255 3249 mt 6255 3249 L
 899 2840 mt 6255 2840 L
6255 2840 mt 6255 2840 L
 899 2432 mt 6255 2432 L
6255 2432 mt 6255 2432 L
 899 2023 mt 6255 2023 L
6255 2023 mt 6255 2023 L
 899 1614 mt 6255 1614 L
6255 1614 mt 6255 1614 L
 899 1206 mt 6255 1206 L
6255 1206 mt 6255 1206 L
 899  797 mt 6255  797 L
6255  797 mt 6255  797 L
 899  389 mt 6255  389 L
6255  389 mt 6255  389 L
SO
6 w
 899 4475 mt 6255 4475 L
 899  389 mt 6255  389 L
 899 4475 mt  899  389 L
6255 4475 mt 6255  389 L
 899 4475 mt 6255 4475 L
 899 4475 mt  899  389 L
1102 4475 mt 1102 4421 L
1102  389 mt 1102  442 L
%%IncludeResource: font Helvetica
/Helvetica /ISOLatin1Encoding 120 FMSR

 919 4620 mt 
(0.0128) s
1597 4475 mt 1597 4421 L
1597  389 mt 1597  442 L
1414 4620 mt 
(0.0405) s
2092 4475 mt 2092 4421 L
2092  389 mt 2092  442 L
1942 4620 mt 
(0.128) s
2587 4475 mt 2587 4421 L
2587  389 mt 2587  442 L
2437 4620 mt 
(0.405) s
3082 4475 mt 3082 4421 L
3082  389 mt 3082  442 L
2966 4620 mt 
(1.28) s
3577 4475 mt 3577 4421 L
3577  389 mt 3577  442 L
3461 4620 mt 
(4.05) s
4071 4475 mt 4071 4421 L
4071  389 mt 4071  442 L
3955 4620 mt 
(12.8) s
4566 4475 mt 4566 4421 L
4566  389 mt 4566  442 L
4450 4620 mt 
(40.5) s
5061 4475 mt 5061 4421 L
5061  389 mt 5061  442 L
4961 4620 mt 
(128) s
5556 4475 mt 5556 4421 L
5556  389 mt 5556  442 L
5456 4620 mt 
(405) s
6051 4475 mt 6051 4421 L
6051  389 mt 6051  442 L
5918 4620 mt 
(1280) s
 899 4475 mt  952 4475 L
6255 4475 mt 6201 4475 L
 798 4519 mt 
(0) s
 899 4066 mt  952 4066 L
6255 4066 mt 6201 4066 L
 698 4110 mt 
(0.1) s
 899 3657 mt  952 3657 L
6255 3657 mt 6201 3657 L
 698 3701 mt 
(0.2) s
 899 3249 mt  952 3249 L
6255 3249 mt 6201 3249 L
 698 3293 mt 
(0.3) s
 899 2840 mt  952 2840 L
6255 2840 mt 6201 2840 L
 698 2884 mt 
(0.4) s
 899 2432 mt  952 2432 L
6255 2432 mt 6201 2432 L
 698 2476 mt 
(0.5) s
 899 2023 mt  952 2023 L
6255 2023 mt 6201 2023 L
 698 2067 mt 
(0.6) s
 899 1614 mt  952 1614 L
6255 1614 mt 6201 1614 L
 698 1658 mt 
(0.7) s
 899 1206 mt  952 1206 L
6255 1206 mt 6201 1206 L
 698 1250 mt 
(0.8) s
 899  797 mt  952  797 L
6255  797 mt 6201  797 L
 698  841 mt 
(0.9) s
 899  389 mt  952  389 L
6255  389 mt 6201  389 L
 798  433 mt 
(1) s
 899 4475 mt 6255 4475 L
 899  389 mt 6255  389 L
 899 4475 mt  899  389 L
6255 4475 mt 6255  389 L
gs 899 389 5357 4087 MR c np
DA
/c8 { 0.000000 1.000000 0.000000 sr} bdef
c8
0 -209 939 895 2 MP stroke
/c9 { 0.000000 0.000000 1.000000 sr} bdef
c9
1021 4475 PD
/c10 { 0.000000 1.000000 1.000000 sr} bdef
c10
0 -125 1102 929 2 MP stroke
/c11 { 1.000000 0.000000 0.000000 sr} bdef
c11
0 -231 1183 1173 2 MP stroke
0 sg
0 -210 1265 1439 2 MP stroke
c8
0 -154 1434 619 2 MP stroke
c9
1515 4475 PD
c10
0 -97 1597 562 2 MP stroke
c11
0 -212 1678 835 2 MP stroke
0 sg
0 -242 1760 1224 2 MP stroke
c8
0 -60 1929 464 2 MP stroke
c9
0 -30 2010 948 2 MP stroke
c10
0 -60 2092 449 2 MP stroke
c11
0 -123 2173 704 2 MP stroke
0 sg
0 -239 2255 1109 2 MP stroke
c8
0 -15 2424 404 2 MP stroke
c9
0 -60 2505 635 2 MP stroke
c10
0 -15 2587 419 2 MP stroke
c11
0 -91 2668 657 2 MP stroke
0 sg
0 -219 2749 1089 2 MP stroke
c8
2919 389 PD
c9
0 -61 3000 495 2 MP stroke
c10
0 -29 3082 418 2 MP stroke
c11
0 -78 3163 628 2 MP stroke
0 sg
0 -206 3244 1076 2 MP stroke
c8
3414 389 PD
c9
0 -30 3495 419 2 MP stroke
c10
0 -15 3577 404 2 MP stroke
c11
0 -55 3658 605 2 MP stroke
0 sg
0 -187 3739 1080 2 MP stroke
c8
3909 389 PD
c9
3990 389 PD
c10
0 -15 4071 404 2 MP stroke
c11
0 -42 4153 592 2 MP stroke
0 sg
0 -190 4234 1083 2 MP stroke
c8
4404 389 PD
c9
4485 389 PD
c10
0 -30 4566 419 2 MP stroke
c11
0 -42 4648 592 2 MP stroke
0 sg
0 -193 4729 1086 2 MP stroke
c8
4898 389 PD
c9
4980 389 PD
c10
0 -30 5061 419 2 MP stroke
c11
0 -42 5143 592 2 MP stroke
0 sg
0 -193 5224 1086 2 MP stroke
c8
5393 389 PD
c9
5475 389 PD
c10
0 -15 5556 404 2 MP stroke
c11
0 -42 5638 592 2 MP stroke
0 sg
0 -193 5719 1086 2 MP stroke
c8
5888 389 PD
c9
5970 389 PD
c10
0 -15 6051 404 2 MP stroke
c11
0 -42 6132 592 2 MP stroke
0 sg
0 -193 6214 1086 2 MP stroke
c8
0 -370 939 1520 2 MP stroke
c9
1021 4475 PD
c10
0 -318 1102 1652 2 MP stroke
c11
0 -214 1183 1774 2 MP stroke
0 sg
0 -188 1265 1912 2 MP stroke
c8
0 -82 1434 854 2 MP stroke
c9
1515 4475 PD
c10
0 -223 1597 983 2 MP stroke
c11
0 -158 1678 1180 2 MP stroke
0 sg
0 -138 1760 1530 2 MP stroke
c8
0 -127 1929 687 2 MP stroke
c9
0 -194 2010 1465 2 MP stroke
c10
0 -137 2092 681 2 MP stroke
c11
0 -154 2173 976 2 MP stroke
0 sg
0 -116 2255 1457 2 MP stroke
c8
0 -107 2424 590 2 MP stroke
c9
0 -64 2505 935 2 MP stroke
c10
0 -94 2587 590 2 MP stroke
c11
0 -153 2668 916 2 MP stroke
0 sg
0 -132 2749 1457 2 MP stroke
c8
0 -46 2919 496 2 MP stroke
c9
0 -59 3000 703 2 MP stroke
c10
0 -33 3082 498 2 MP stroke
c11
0 -150 3163 888 2 MP stroke
0 sg
0 -118 3244 1439 2 MP stroke
c8
0 -16 3414 420 2 MP stroke
c9
0 -46 3495 543 2 MP stroke
c10
0 -43 3577 493 2 MP stroke
c11
0 -177 3658 915 2 MP stroke
0 sg
0 -112 3739 1430 2 MP stroke
c8
3909 389 PD
c9
0 -15 3990 496 2 MP stroke
c10
0 -66 4071 522 2 MP stroke
c11
0 -172 4153 910 2 MP stroke
0 sg
0 -112 4234 1430 2 MP stroke
c8
4404 389 PD
c9
0 -30 4485 450 2 MP stroke
c10
0 -45 4566 507 2 MP stroke
c11
0 -172 4648 910 2 MP stroke
0 sg
0 -112 4729 1430 2 MP stroke
c8
4898 389 PD
c9
4980 389 PD
c10
0 -31 5061 493 2 MP stroke
c11
0 -172 5143 910 2 MP stroke
0 sg
0 -112 5224 1430 2 MP stroke
c8
5393 389 PD
c9
5475 389 PD
c10
0 -43 5556 507 2 MP stroke
c11
0 -172 5638 910 2 MP stroke
0 sg
0 -112 5719 1430 2 MP stroke
c8
5888 389 PD
c9
5970 389 PD
c10
0 -44 6051 507 2 MP stroke
c11
0 -172 6132 910 2 MP stroke
0 sg
0 -112 6214 1430 2 MP stroke
SO
c8
20 0 929 686 2 MP stroke
c9
21 0 1010 4475 2 MP stroke
c10
20 0 1092 804 2 MP stroke
c11
21 0 1173 942 2 MP stroke
0 sg
20 0 1255 1229 2 MP stroke
c8
20 0 1424 465 2 MP stroke
c9
21 0 1505 4475 2 MP stroke
c10
20 0 1587 465 2 MP stroke
c11
20 0 1668 623 2 MP stroke
0 sg
20 0 1750 982 2 MP stroke
c8
20 0 1919 404 2 MP stroke
c9
21 0 2000 918 2 MP stroke
c10
20 0 2082 389 2 MP stroke
c11
20 0 2163 581 2 MP stroke
0 sg
21 0 2244 870 2 MP stroke
c8
20 0 2414 389 2 MP stroke
c9
20 0 2495 575 2 MP stroke
c10
20 0 2577 404 2 MP stroke
c11
20 0 2658 566 2 MP stroke
0 sg
21 0 2739 870 2 MP stroke
c8
20 0 2909 389 2 MP stroke
c9
20 0 2990 434 2 MP stroke
c10
21 0 3071 389 2 MP stroke
c11
20 0 3153 550 2 MP stroke
0 sg
21 0 3234 870 2 MP stroke
c8
20 0 3404 389 2 MP stroke
c9
20 0 3485 389 2 MP stroke
c10
21 0 3566 389 2 MP stroke
c11
20 0 3648 550 2 MP stroke
0 sg
20 0 3729 893 2 MP stroke
c8
21 0 3898 389 2 MP stroke
c9
20 0 3980 389 2 MP stroke
c10
21 0 4061 389 2 MP stroke
c11
20 0 4143 550 2 MP stroke
0 sg
20 0 4224 893 2 MP stroke
c8
21 0 4393 389 2 MP stroke
c9
20 0 4475 389 2 MP stroke
c10
20 0 4556 389 2 MP stroke
c11
20 0 4638 550 2 MP stroke
0 sg
20 0 4719 893 2 MP stroke
c8
21 0 4888 389 2 MP stroke
c9
20 0 4970 389 2 MP stroke
c10
20 0 5051 389 2 MP stroke
c11
21 0 5132 550 2 MP stroke
0 sg
20 0 5214 893 2 MP stroke
c8
20 0 5383 389 2 MP stroke
c9
20 0 5465 389 2 MP stroke
c10
20 0 5546 389 2 MP stroke
c11
21 0 5627 550 2 MP stroke
0 sg
20 0 5709 893 2 MP stroke
c8
20 0 5878 389 2 MP stroke
c9
21 0 5959 389 2 MP stroke
c10
20 0 6041 389 2 MP stroke
c11
21 0 6122 550 2 MP stroke
0 sg
20 0 6204 893 2 MP stroke
c8
20 0 929 1520 2 MP stroke
c9
21 0 1010 4475 2 MP stroke
c10
20 0 1092 1652 2 MP stroke
c11
21 0 1173 1774 2 MP stroke
0 sg
20 0 1255 1912 2 MP stroke
c8
20 0 1424 854 2 MP stroke
c9
21 0 1505 4475 2 MP stroke
c10
20 0 1587 983 2 MP stroke
c11
20 0 1668 1180 2 MP stroke
0 sg
20 0 1750 1530 2 MP stroke
c8
20 0 1919 687 2 MP stroke
c9
21 0 2000 1465 2 MP stroke
c10
20 0 2082 681 2 MP stroke
c11
20 0 2163 976 2 MP stroke
0 sg
21 0 2244 1457 2 MP stroke
c8
20 0 2414 590 2 MP stroke
c9
20 0 2495 935 2 MP stroke
c10
20 0 2577 590 2 MP stroke
c11
20 0 2658 916 2 MP stroke
0 sg
21 0 2739 1457 2 MP stroke
c8
20 0 2909 496 2 MP stroke
c9
20 0 2990 703 2 MP stroke
c10
21 0 3071 498 2 MP stroke
c11
20 0 3153 888 2 MP stroke
0 sg
21 0 3234 1439 2 MP stroke
c8
20 0 3404 420 2 MP stroke
c9
20 0 3485 543 2 MP stroke
c10
21 0 3566 493 2 MP stroke
c11
20 0 3648 915 2 MP stroke
0 sg
20 0 3729 1430 2 MP stroke
c8
21 0 3898 389 2 MP stroke
c9
20 0 3980 496 2 MP stroke
c10
21 0 4061 522 2 MP stroke
c11
20 0 4143 910 2 MP stroke
0 sg
20 0 4224 1430 2 MP stroke
c8
21 0 4393 389 2 MP stroke
c9
20 0 4475 450 2 MP stroke
c10
20 0 4556 507 2 MP stroke
c11
20 0 4638 910 2 MP stroke
0 sg
20 0 4719 1430 2 MP stroke
c8
21 0 4888 389 2 MP stroke
c9
20 0 4970 389 2 MP stroke
c10
20 0 5051 493 2 MP stroke
c11
21 0 5132 910 2 MP stroke
0 sg
20 0 5214 1430 2 MP stroke
c8
20 0 5383 389 2 MP stroke
c9
20 0 5465 389 2 MP stroke
c10
20 0 5546 507 2 MP stroke
c11
21 0 5627 910 2 MP stroke
0 sg
20 0 5709 1430 2 MP stroke
c8
20 0 5878 389 2 MP stroke
c9
21 0 5959 389 2 MP stroke
c10
20 0 6041 507 2 MP stroke
c11
21 0 6122 910 2 MP stroke
0 sg
20 0 6204 1430 2 MP stroke
c8
-41 0 0 255 41 0 0 -255 919 1150 5 MP stroke
c9
-41 0 41 0 1000 4475 3 MP stroke
c10
-40 0 0 405 40 0 0 -405 1082 1334 5 MP stroke
c11
-41 0 0 387 41 0 0 -387 1163 1560 5 MP stroke
0 sg
-41 0 0 285 41 0 0 -285 1244 1724 5 MP stroke
c8
-40 0 0 153 40 0 0 -153 1414 772 5 MP stroke
c9
-41 0 41 0 1495 4475 3 MP stroke
c10
-40 0 0 198 40 0 0 -198 1577 760 5 MP stroke
c11
-41 0 0 187 41 0 0 -187 1658 1022 5 MP stroke
0 sg
-41 0 0 168 41 0 0 -168 1739 1392 5 MP stroke
c8
-40 0 0 96 40 0 0 -96 1909 560 5 MP stroke
c9
-41 0 0 323 41 0 0 -323 1990 1271 5 MP stroke
c10
-41 0 0 95 41 0 0 -95 2071 544 5 MP stroke
c11
-41 0 0 118 41 0 0 -118 2153 822 5 MP stroke
0 sg
-41 0 0 232 41 0 0 -232 2234 1341 5 MP stroke
c8
-40 0 0 79 40 0 0 -79 2404 483 5 MP stroke
c9
-41 0 0 236 41 0 0 -236 2485 871 5 MP stroke
c10
-41 0 0 77 41 0 0 -77 2566 496 5 MP stroke
c11
-40 0 0 106 40 0 0 -106 2648 763 5 MP stroke
0 sg
-41 0 0 236 41 0 0 -236 2729 1325 5 MP stroke
c8
-41 0 0 61 41 0 0 -61 2898 450 5 MP stroke
c9
-41 0 0 149 41 0 0 -149 2980 644 5 MP stroke
c10
-41 0 0 47 41 0 0 -47 3061 465 5 MP stroke
c11
-40 0 0 110 40 0 0 -110 3143 738 5 MP stroke
0 sg
-41 0 0 245 41 0 0 -245 3224 1321 5 MP stroke
c8
-41 0 0 15 41 0 0 -15 3393 404 5 MP stroke
c9
-40 0 0 78 40 0 0 -78 3475 497 5 MP stroke
c10
-41 0 0 46 41 0 0 -46 3556 450 5 MP stroke
c11
-40 0 0 133 40 0 0 -133 3638 738 5 MP stroke
0 sg
-41 0 0 238 41 0 0 -238 3719 1318 5 MP stroke
c8
-41 0 41 0 3888 389 3 MP stroke
c9
-40 0 0 92 40 0 0 -92 3970 481 5 MP stroke
c10
-41 0 0 52 41 0 0 -52 4051 456 5 MP stroke
c11
-41 0 0 146 41 0 0 -146 4132 738 5 MP stroke
0 sg
-41 0 0 235 41 0 0 -235 4214 1318 5 MP stroke
c8
-41 0 41 0 4383 389 3 MP stroke
c9
-40 0 0 31 40 0 0 -31 4465 420 5 MP stroke
c10
-41 0 0 43 41 0 0 -43 4546 462 5 MP stroke
c11
-41 0 0 146 41 0 0 -146 4627 738 5 MP stroke
0 sg
-40 0 0 232 40 0 0 -232 4709 1318 5 MP stroke
c8
-41 0 41 0 4878 389 3 MP stroke
c9
-41 0 41 0 4959 389 3 MP stroke
c10
-41 0 0 43 41 0 0 -43 5041 462 5 MP stroke
c11
-41 0 0 146 41 0 0 -146 5122 738 5 MP stroke
0 sg
-40 0 0 232 40 0 0 -232 5204 1318 5 MP stroke
c8
-41 0 41 0 5373 389 3 MP stroke
c9
-41 0 41 0 5454 389 3 MP stroke
c10
-40 0 0 60 40 0 0 -60 5536 464 5 MP stroke
c11
-41 0 0 146 41 0 0 -146 5617 738 5 MP stroke
0 sg
-40 0 0 232 40 0 0 -232 5699 1318 5 MP stroke
c8
-41 0 41 0 5868 389 3 MP stroke
c9
-41 0 41 0 5949 389 3 MP stroke
c10
-40 0 0 59 40 0 0 -59 6031 463 5 MP stroke
c11
-41 0 0 146 41 0 0 -146 6112 738 5 MP stroke
0 sg
-41 0 0 232 41 0 0 -232 6193 1318 5 MP stroke
c8
41 0 919 978 2 MP stroke
c9
41 0 1000 4475 2 MP stroke
c10
40 0 1082 1047 2 MP stroke
c11
41 0 1163 1272 2 MP stroke
0 sg
41 0 1244 1553 2 MP stroke
c8
40 0 1414 684 2 MP stroke
c9
41 0 1495 4475 2 MP stroke
c10
40 0 1577 660 2 MP stroke
c11
41 0 1658 928 2 MP stroke
0 sg
41 0 1739 1334 2 MP stroke
c8
40 0 1909 530 2 MP stroke
c9
41 0 1990 1097 2 MP stroke
c10
41 0 2071 512 2 MP stroke
c11
41 0 2153 777 2 MP stroke
0 sg
41 0 2234 1253 2 MP stroke
c8
40 0 2404 443 2 MP stroke
c9
41 0 2485 726 2 MP stroke
c10
41 0 2566 450 2 MP stroke
c11
40 0 2648 717 2 MP stroke
0 sg
41 0 2729 1243 2 MP stroke
c8
41 0 2898 404 2 MP stroke
c9
41 0 2980 562 2 MP stroke
c10
41 0 3061 435 2 MP stroke
c11
40 0 3143 678 2 MP stroke
0 sg
41 0 3224 1235 2 MP stroke
c8
41 0 3393 389 2 MP stroke
c9
40 0 3475 483 2 MP stroke
c10
41 0 3556 434 2 MP stroke
c11
40 0 3638 676 2 MP stroke
0 sg
41 0 3719 1235 2 MP stroke
c8
41 0 3888 389 2 MP stroke
c9
40 0 3970 412 2 MP stroke
c10
41 0 4051 434 2 MP stroke
c11
41 0 4132 680 2 MP stroke
0 sg
41 0 4214 1233 2 MP stroke
c8
41 0 4383 389 2 MP stroke
c9
40 0 4465 389 2 MP stroke
c10
41 0 4546 434 2 MP stroke
c11
41 0 4627 674 2 MP stroke
0 sg
40 0 4709 1233 2 MP stroke
c8
41 0 4878 389 2 MP stroke
c9
41 0 4959 389 2 MP stroke
c10
41 0 5041 435 2 MP stroke
c11
41 0 5122 676 2 MP stroke
0 sg
40 0 5204 1229 2 MP stroke
c8
41 0 5373 389 2 MP stroke
c9
41 0 5454 389 2 MP stroke
c10
40 0 5536 433 2 MP stroke
c11
41 0 5617 674 2 MP stroke
0 sg
40 0 5699 1229 2 MP stroke
c8
41 0 5868 389 2 MP stroke
c9
41 0 5949 389 2 MP stroke
c10
40 0 6031 434 2 MP stroke
c11
41 0 6112 674 2 MP stroke
0 sg
41 0 6193 1229 2 MP stroke
gr

gs 866 1485 147 187 MR c np
c8
 903 1598 mt  975 1598 L
 939 1562 mt  939 1634 L
 903 1579 mt  975 1579 L
 939 1543 mt  939 1615 L
 903 1578 mt  975 1578 L
 939 1542 mt  939 1614 L
 903 1558 mt  975 1558 L
 939 1522 mt  939 1594 L
gr

c8
gs 899 389 5357 4087 MR c np
gs 1361 984 147 235 MR c np
1398 1145 mt 1470 1145 L
1434 1109 mt 1434 1181 L
1398 1140 mt 1470 1140 L
1434 1104 mt 1434 1176 L
1398 1091 mt 1470 1091 L
1434 1055 mt 1434 1127 L
1398 1088 mt 1470 1088 L
1434 1052 mt 1434 1124 L
1398 1074 mt 1470 1074 L
1434 1038 mt 1434 1110 L
1398 1073 mt 1470 1073 L
1434 1037 mt 1434 1109 L
1398 1057 mt 1470 1057 L
1434 1021 mt 1434 1093 L
gr

gs 1442 3835 147 147 MR c np
c9
1479 3908 mt 1551 3908 L
1515 3872 mt 1515 3944 L
gr

c9
gs 1687 865 147 180 MR c np
0 sg
1724  971 mt 1796  971 L
1760  935 mt 1760 1007 L
1724  960 mt 1796  960 L
1760  924 mt 1760  996 L
1724  949 mt 1796  949 L
1760  913 mt 1760  985 L
1724  944 mt 1796  944 L
1760  908 mt 1760  980 L
1724  938 mt 1796  938 L
1760  902 mt 1760  974 L
gr

0 sg
gs 1856 646 147 213 MR c np
c8
1893  785 mt 1965  785 L
1929  749 mt 1929  821 L
1893  768 mt 1965  768 L
1929  732 mt 1929  804 L
1893  767 mt 1965  767 L
1929  731 mt 1929  803 L
1893  766 mt 1965  766 L
1929  730 mt 1929  802 L
1893  752 mt 1965  752 L
1929  716 mt 1929  788 L
1893  751 mt 1965  751 L
1929  715 mt 1929  787 L
1893  750 mt 1965  750 L
1929  714 mt 1929  786 L
1893  734 mt 1965  734 L
1929  698 mt 1929  770 L
1893  719 mt 1965  719 L
1929  683 mt 1929  755 L
gr

c8
gs 2100 937 147 196 MR c np
c11
2137 1059 mt 2209 1059 L
2173 1023 mt 2173 1095 L
2137 1035 mt 2209 1035 L
2173  999 mt 2173 1071 L
2137 1029 mt 2209 1029 L
2173  993 mt 2173 1065 L
2137 1025 mt 2209 1025 L
2173  989 mt 2173 1061 L
2137 1017 mt 2209 1017 L
2173  981 mt 2173 1053 L
2137 1012 mt 2209 1012 L
2173  976 mt 2173 1048 L
2137 1010 mt 2209 1010 L
2173  974 mt 2173 1046 L
gr

c11
gs 2351 532 147 147 MR c np
c8
2388  605 mt 2460  605 L
2424  569 mt 2424  641 L
gr

c8
gs 2595 854 147 183 MR c np
c11
2632  963 mt 2704  963 L
2668  927 mt 2668  999 L
2632  959 mt 2704  959 L
2668  923 mt 2668  995 L
2632  957 mt 2704  957 L
2668  921 mt 2668  993 L
2632  948 mt 2704  948 L
2668  912 mt 2668  984 L
2632  944 mt 2704  944 L
2668  908 mt 2668  980 L
2632  933 mt 2704  933 L
2668  897 mt 2668  969 L
2632  932 mt 2704  932 L
2668  896 mt 2668  968 L
2632  927 mt 2704  927 L
2668  891 mt 2668  963 L
gr

c11
gs 3090 837 147 169 MR c np
3127  932 mt 3199  932 L
3163  896 mt 3163  968 L
3127  927 mt 3199  927 L
3163  891 mt 3163  963 L
3127  921 mt 3199  921 L
3163  885 mt 3163  957 L
3127  915 mt 3199  915 L
3163  879 mt 3163  951 L
3127  910 mt 3199  910 L
3163  874 mt 3163  946 L
gr

gr

c11
gs 3341 362 147 177 MR c np
c8
3378  465 mt 3450  465 L
3414  429 mt 3414  501 L
3378  450 mt 3450  450 L
3414  414 mt 3414  486 L
3378  435 mt 3450  435 L
3414  399 mt 3414  471 L
gr

c8
gs 899 389 5357 4087 MR c np
gr

gs 3836 347 147 177 MR c np
3873  450 mt 3945  450 L
3909  414 mt 3909  486 L
3873  420 mt 3945  420 L
3909  384 mt 3909  456 L
gr

gs 899 389 5357 4087 MR c np
gr

gs 4331 331 147 193 MR c np
4368  450 mt 4440  450 L
4404  414 mt 4404  486 L
4368  449 mt 4440  449 L
4404  413 mt 4404  485 L
4368  435 mt 4440  435 L
4404  399 mt 4404  471 L
4368  434 mt 4440  434 L
4404  398 mt 4404  470 L
4368  420 mt 4440  420 L
4404  384 mt 4404  456 L
4368  419 mt 4440  419 L
4404  383 mt 4404  455 L
4368  404 mt 4440  404 L
4404  368 mt 4404  440 L
gr

gs 899 389 5357 4087 MR c np
gr

gs 4825 331 147 162 MR c np
4862  419 mt 4934  419 L
4898  383 mt 4898  455 L
4862  404 mt 4934  404 L
4898  368 mt 4898  440 L
gr

gs 899 389 5357 4087 MR c np
gr

gs 4907 347 147 177 MR c np
c9
4944  450 mt 5016  450 L
4980  414 mt 4980  486 L
4944  420 mt 5016  420 L
4980  384 mt 4980  456 L
gr

c9
gs 899 389 5357 4087 MR c np
gr

gs 5402 346 147 148 MR c np
5439  420 mt 5511  420 L
5475  384 mt 5475  456 L
5439  419 mt 5511  419 L
5475  383 mt 5475  455 L
gr

gs 899 389 5357 4087 MR c np
gr

gs 5897 331 147 147 MR c np
5934  404 mt 6006  404 L
5970  368 mt 5970  440 L
gr

gs 899 389 5357 4087 MR c np
gr

0 sg
3450 4716 mt 
(SNR) s
 616 2570 mt  -90 rotate
(MCC) s
90 rotate
 869 4532 mt 
( ) s
6226  445 mt 
( ) s
gs 899 389 5357 4087 MR c np
5356 0 899 4475 2 MP stroke
gr

1 sg
0 792 1157 0 0 -792 4103 2997 4 MP
PP
-1157 0 0 792 1157 0 0 -792 4103 2997 5 MP stroke
4 w
DO
SO
6 w
0 sg
4103 2997 mt 5260 2997 L
4103 2205 mt 5260 2205 L
4103 2997 mt 4103 2205 L
5260 2997 mt 5260 2205 L
4103 2997 mt 5260 2997 L
4103 2997 mt 4103 2205 L
4103 2997 mt 5260 2997 L
4103 2205 mt 5260 2205 L
4103 2997 mt 4103 2205 L
5260 2997 mt 5260 2205 L
4571 2343 mt 
(Elastic Net) s
gs 4103 2205 1158 793 MR c np
360 0 4175 2301 2 MP stroke
gr

4571 2493 mt 
(LASSO) s
gs 4103 2205 1158 793 MR c np
c11
360 0 4175 2451 2 MP stroke
gr

c11
0 sg
4571 2644 mt 
(Bolasso) s
gs 4103 2205 1158 793 MR c np
c10
360 0 4175 2601 2 MP stroke
gr

c10
0 sg
4571 2794 mt 
(RNI) s
gs 4103 2205 1158 793 MR c np
c9
360 0 4175 2751 2 MP stroke
gr

c9
0 sg
4571 2944 mt 
(LSCO) s
gs 4103 2205 1158 793 MR c np
c8
360 0 4175 2901 2 MP stroke
gr

c8

end %%Color Dict

eplot
%%EndObject

epage
end

showpage

%%Trailer
%%EOF
