%!PS-Adobe-2.0 EPSF-1.2
%%Creator: MATLAB, The MathWorks, Inc. Version 8.3.0.532 (R2014a). Operating System: Linux 3.13.0-35-generic #62-Ubuntu SMP Fri Aug 15 01:58:42 UTC 2014 x86_64.
%%Title: ../img/highkY_MCC.eps
%%CreationDate: 09/08/2014  14:11:05
%%DocumentNeededFonts: Helvetica
%%DocumentProcessColors: Cyan Magenta Yellow Black
%%Extensions: CMYK
%%Pages: 1
%%BoundingBox:    58   214   545   590
%%EndComments

%%BeginProlog
% MathWorks dictionary
/MathWorks 160 dict begin
% definition operators
/bdef {bind def} bind def
/ldef {load def} bind def
/xdef {exch def} bdef
/xstore {exch store} bdef
% operator abbreviations
/c  /clip ldef
/cc /concat ldef
/cp /closepath ldef
/gr /grestore ldef
/gs /gsave ldef
/mt /moveto ldef
/np /newpath ldef
/cm /currentmatrix ldef
/sm /setmatrix ldef
/rm /rmoveto ldef
/rl /rlineto ldef
/s {show newpath} bdef
/sc {setcmykcolor} bdef
/sr /setrgbcolor ldef
/sg /setgray ldef
/w /setlinewidth ldef
/j /setlinejoin ldef
/cap /setlinecap ldef
/rc {rectclip} bdef
/rf {rectfill} bdef
% page state control
/pgsv () def
/bpage {/pgsv save def} bdef
/epage {pgsv restore} bdef
/bplot /gsave ldef
/eplot {stroke grestore} bdef
% orientation switch
/portraitMode 0 def /landscapeMode 1 def /rotateMode 2 def
% coordinate system mappings
/dpi2point 0 def
% font control
/FontSize 0 def
/FMS {/FontSize xstore findfont [FontSize 0 0 FontSize neg 0 0]
  makefont setfont} bdef
/reencode {exch dup where {pop load} {pop StandardEncoding} ifelse
  exch dup 3 1 roll findfont dup length dict begin
  { 1 index /FID ne {def}{pop pop} ifelse } forall
  /Encoding exch def currentdict end definefont pop} bdef
/isroman {findfont /CharStrings get /Agrave known} bdef
/FMSR {3 1 roll 1 index dup isroman {reencode} {pop pop} ifelse
  exch FMS} bdef
/csm {1 dpi2point div -1 dpi2point div scale neg translate
 dup landscapeMode eq {pop -90 rotate}
  {rotateMode eq {90 rotate} if} ifelse} bdef
% line types: solid, dotted, dashed, dotdash
/SO { [] 0 setdash } bdef
/DO { [.5 dpi2point mul 4 dpi2point mul] 0 setdash } bdef
/DA { [6 dpi2point mul] 0 setdash } bdef
/DD { [.5 dpi2point mul 4 dpi2point mul 6 dpi2point mul 4
  dpi2point mul] 0 setdash } bdef
% macros for lines and objects
/L {lineto stroke} bdef
/MP {3 1 roll moveto 1 sub {rlineto} repeat} bdef
/AP {{rlineto} repeat} bdef
/PDlw -1 def
/W {/PDlw currentlinewidth def setlinewidth} def
/PP {closepath eofill} bdef
/DP {closepath stroke} bdef
/MR {4 -2 roll moveto dup  0 exch rlineto exch 0 rlineto
  neg 0 exch rlineto closepath} bdef
/FR {MR stroke} bdef
/PR {MR fill} bdef
/L1i {{currentfile picstr readhexstring pop} image} bdef
/tMatrix matrix def
/MakeOval {newpath tMatrix currentmatrix pop translate scale
0 0 1 0 360 arc tMatrix setmatrix} bdef
/FO {MakeOval stroke} bdef
/PO {MakeOval fill} bdef
/PD {currentlinewidth 2 div 0 360 arc fill
   PDlw -1 eq not {PDlw w /PDlw -1 def} if} def
/FA {newpath tMatrix currentmatrix pop translate scale
  0 0 1 5 -2 roll arc tMatrix setmatrix stroke} bdef
/PA {newpath tMatrix currentmatrix pop	translate 0 0 moveto scale
  0 0 1 5 -2 roll arc closepath tMatrix setmatrix fill} bdef
/FAn {newpath tMatrix currentmatrix pop translate scale
  0 0 1 5 -2 roll arcn tMatrix setmatrix stroke} bdef
/PAn {newpath tMatrix currentmatrix pop translate 0 0 moveto scale
  0 0 1 5 -2 roll arcn closepath tMatrix setmatrix fill} bdef
/vradius 0 def /hradius 0 def /lry 0 def
/lrx 0 def /uly 0 def /ulx 0 def /rad 0 def
/MRR {/vradius xdef /hradius xdef /lry xdef /lrx xdef /uly xdef
  /ulx xdef newpath tMatrix currentmatrix pop ulx hradius add uly
  vradius add translate hradius vradius scale 0 0 1 180 270 arc 
  tMatrix setmatrix lrx hradius sub uly vradius add translate
  hradius vradius scale 0 0 1 270 360 arc tMatrix setmatrix
  lrx hradius sub lry vradius sub translate hradius vradius scale
  0 0 1 0 90 arc tMatrix setmatrix ulx hradius add lry vradius sub
  translate hradius vradius scale 0 0 1 90 180 arc tMatrix setmatrix
  closepath} bdef
/FRR {MRR stroke } bdef
/PRR {MRR fill } bdef
/MlrRR {/lry xdef /lrx xdef /uly xdef /ulx xdef /rad lry uly sub 2 div def
  newpath tMatrix currentmatrix pop ulx rad add uly rad add translate
  rad rad scale 0 0 1 90 270 arc tMatrix setmatrix lrx rad sub lry rad
  sub translate rad rad scale 0 0 1 270 90 arc tMatrix setmatrix
  closepath} bdef
/FlrRR {MlrRR stroke } bdef
/PlrRR {MlrRR fill } bdef
/MtbRR {/lry xdef /lrx xdef /uly xdef /ulx xdef /rad lrx ulx sub 2 div def
  newpath tMatrix currentmatrix pop ulx rad add uly rad add translate
  rad rad scale 0 0 1 180 360 arc tMatrix setmatrix lrx rad sub lry rad
  sub translate rad rad scale 0 0 1 0 180 arc tMatrix setmatrix
  closepath} bdef
/FtbRR {MtbRR stroke } bdef
/PtbRR {MtbRR fill } bdef
/stri 6 array def /dtri 6 array def
/smat 6 array def /dmat 6 array def
/tmat1 6 array def /tmat2 6 array def /dif 3 array def
/asub {/ind2 exch def /ind1 exch def dup dup
  ind1 get exch ind2 get sub exch } bdef
/tri_to_matrix {
  2 0 asub 3 1 asub 4 0 asub 5 1 asub
  dup 0 get exch 1 get 7 -1 roll astore } bdef
/compute_transform {
  dmat dtri tri_to_matrix tmat1 invertmatrix 
  smat stri tri_to_matrix tmat2 concatmatrix } bdef
/ds {stri astore pop} bdef
/dt {dtri astore pop} bdef
/db {2 copy /cols xdef /rows xdef mul dup 3 mul string
  currentfile exch readhexstring pop
  dup 0 3 index getinterval /rbmap xdef
  dup 2 index dup getinterval /gbmap xdef
  1 index dup 2 mul exch getinterval /bbmap xdef pop pop}bdef
/it {gs np dtri aload pop moveto lineto lineto cp c
  cols rows 8 compute_transform 
  rbmap gbmap bbmap true 3 colorimage gr}bdef
/il {newpath moveto lineto stroke}bdef
currentdict end def
%%EndProlog

%%BeginSetup
MathWorks begin

0 cap

end
%%EndSetup

%%Page: 1 1
%%BeginPageSetup
%%PageBoundingBox:    58   214   545   590
MathWorks begin
bpage
%%EndPageSetup

%%BeginObject: obj1
bplot

/dpi2point 12 def
portraitMode 0216 7344 csm

  480   258  5853  4510 MR c np
86 dict begin %Colortable dictionary
/c0 { 0.000000 0.000000 0.000000 sr} bdef
/c1 { 1.000000 1.000000 1.000000 sr} bdef
/c2 { 0.900000 0.000000 0.000000 sr} bdef
/c3 { 0.000000 0.820000 0.000000 sr} bdef
/c4 { 0.000000 0.000000 0.800000 sr} bdef
/c5 { 0.910000 0.820000 0.320000 sr} bdef
/c6 { 1.000000 0.260000 0.820000 sr} bdef
/c7 { 0.000000 0.820000 0.820000 sr} bdef
c0
1 j
1 sg
   0    0 6913 5186 PR
6 w
0 4087 5355 0 0 -4087 899 4475 4 MP
PP
-5355 0 0 4087 5355 0 0 -4087 899 4475 5 MP stroke
4 w
DO
0 sg
 899 4289 mt 6255 4289 L
6255 4289 mt 6255 4289 L
 899 3918 mt 6255 3918 L
6255 3918 mt 6255 3918 L
 899 3547 mt 6255 3547 L
6255 3547 mt 6255 3547 L
 899 3175 mt 6255 3175 L
6255 3175 mt 6255 3175 L
 899 2804 mt 6255 2804 L
6255 2804 mt 6255 2804 L
 899 2433 mt 6255 2433 L
6255 2433 mt 6255 2433 L
 899 2062 mt 6255 2062 L
6255 2062 mt 6255 2062 L
 899 1691 mt 6255 1691 L
6255 1691 mt 6255 1691 L
 899 1320 mt 6255 1320 L
6255 1320 mt 6255 1320 L
 899  949 mt 6255  949 L
6255  949 mt 6255  949 L
 899  578 mt 6255  578 L
6255  578 mt 6255  578 L
SO
6 w
 899 4475 mt 6254 4475 L
 899  388 mt 6254  388 L
 899 4475 mt  899  388 L
6254 4475 mt 6254  388 L
 899 4475 mt 6254 4475 L
 899 4475 mt  899  388 L
1287 4475 mt 1287 4421 L
1287  389 mt 1287  442 L
%%IncludeResource: font Helvetica
/Helvetica /ISOLatin1Encoding 120 FMSR

1204 4620 mt 
(0.1) s
2432 4475 mt 2432 4421 L
2432  389 mt 2432  442 L
2399 4620 mt 
(1) s
3577 4475 mt 3577 4421 L
3577  389 mt 3577  442 L
3511 4620 mt 
(10) s
4721 4475 mt 4721 4421 L
4721  389 mt 4721  442 L
4621 4620 mt 
(100) s
5866 4475 mt 5866 4421 L
5866  389 mt 5866  442 L
5733 4620 mt 
(1000) s
 899 4289 mt  952 4289 L
6255 4289 mt 6201 4289 L
 798 4333 mt 
(0) s
 899 3918 mt  952 3918 L
6255 3918 mt 6201 3918 L
 698 3962 mt 
(0.1) s
 899 3547 mt  952 3547 L
6255 3547 mt 6201 3547 L
 698 3591 mt 
(0.2) s
 899 3175 mt  952 3175 L
6255 3175 mt 6201 3175 L
 698 3219 mt 
(0.3) s
 899 2804 mt  952 2804 L
6255 2804 mt 6201 2804 L
 698 2848 mt 
(0.4) s
 899 2433 mt  952 2433 L
6255 2433 mt 6201 2433 L
 698 2477 mt 
(0.5) s
 899 2062 mt  952 2062 L
6255 2062 mt 6201 2062 L
 698 2106 mt 
(0.6) s
 899 1691 mt  952 1691 L
6255 1691 mt 6201 1691 L
 698 1735 mt 
(0.7) s
 899 1320 mt  952 1320 L
6255 1320 mt 6201 1320 L
 698 1364 mt 
(0.8) s
 899  949 mt  952  949 L
6255  949 mt 6201  949 L
 698  993 mt 
(0.9) s
 899  578 mt  952  578 L
6255  578 mt 6201  578 L
 798  622 mt 
(1) s
 899 4475 mt 6254 4475 L
 899  388 mt 6254  388 L
 899 4475 mt  899  388 L
6254 4475 mt 6254  388 L
gs 899 388 5357 4088 MR c np
DA
/c8 { 0.000000 1.000000 0.000000 sr} bdef
c8
0 -836 996 2185 2 MP stroke
/c9 { 0.000000 0.000000 1.000000 sr} bdef
c9
1190 4289 PD
/c10 { 1.000000 0.000000 0.000000 sr} bdef
c10
0 -550 1384 2609 2 MP stroke
0 sg
0 -438 1578 2705 2 MP stroke
c8
0 -297 2140 875 2 MP stroke
c9
0 -413 2335 1589 2 MP stroke
c10
0 -525 2529 1785 2 MP stroke
0 sg
0 -495 2723 2044 2 MP stroke
c8
3285 578 PD
c9
0 -99 3479 677 2 MP stroke
c10
0 -508 3674 1552 2 MP stroke
0 sg
0 -412 3868 1961 2 MP stroke
c8
4430 578 PD
c9
4624 578 PD
c10
0 -536 4818 1552 2 MP stroke
0 sg
0 -313 5013 1961 2 MP stroke
c8
5575 578 PD
c9
5769 578 PD
c10
0 -460 5963 1552 2 MP stroke
0 sg
0 -316 6157 1964 2 MP stroke
c8
0 -839 996 3601 2 MP stroke
c9
1190 4289 PD
c10
0 -531 1384 3508 2 MP stroke
0 sg
0 -459 1578 3475 2 MP stroke
c8
0 -488 2140 1765 2 MP stroke
c9
0 -1475 2335 4289 2 MP stroke
c10
0 -509 2529 2655 2 MP stroke
0 sg
0 -437 2723 2839 2 MP stroke
c8
0 -99 3285 776 2 MP stroke
c9
0 -99 3479 875 2 MP stroke
c10
0 -337 3674 2282 2 MP stroke
0 sg
0 -419 3868 2660 2 MP stroke
c8
4430 578 PD
c9
4624 677 PD
c10
0 -310 4818 2230 2 MP stroke
0 sg
0 -387 5013 2617 2 MP stroke
c8
5575 578 PD
c9
5769 578 PD
c10
0 -265 5963 2185 2 MP stroke
0 sg
0 -381 6157 2611 2 MP stroke
SO
c8
49 0 971 1349 2 MP stroke
c9
49 0 1165 4289 2 MP stroke
c10
49 0 1359 2059 2 MP stroke
0 sg
49 0 1553 2267 2 MP stroke
c8
49 0 2116 578 2 MP stroke
c9
49 0 2310 1176 2 MP stroke
c10
49 0 2504 1260 2 MP stroke
0 sg
49 0 2698 1549 2 MP stroke
c8
49 0 3261 578 2 MP stroke
c9
49 0 3455 578 2 MP stroke
c10
49 0 3649 1044 2 MP stroke
0 sg
49 0 3843 1549 2 MP stroke
c8
49 0 4406 578 2 MP stroke
c9
49 0 4600 578 2 MP stroke
c10
49 0 4794 1016 2 MP stroke
0 sg
49 0 4988 1648 2 MP stroke
c8
49 0 5551 578 2 MP stroke
c9
49 0 5745 578 2 MP stroke
c10
49 0 5939 1092 2 MP stroke
0 sg
49 0 6133 1648 2 MP stroke
c8
49 0 971 3601 2 MP stroke
c9
49 0 1165 4289 2 MP stroke
c10
49 0 1359 3508 2 MP stroke
0 sg
49 0 1553 3475 2 MP stroke
c8
49 0 2116 1765 2 MP stroke
c9
49 0 2310 4289 2 MP stroke
c10
49 0 2504 2655 2 MP stroke
0 sg
49 0 2698 2839 2 MP stroke
c8
49 0 3261 776 2 MP stroke
c9
49 0 3455 875 2 MP stroke
c10
49 0 3649 2282 2 MP stroke
0 sg
49 0 3843 2660 2 MP stroke
c8
49 0 4406 578 2 MP stroke
c9
49 0 4600 677 2 MP stroke
c10
49 0 4794 2230 2 MP stroke
0 sg
49 0 4988 2617 2 MP stroke
c8
49 0 5551 578 2 MP stroke
c9
49 0 5745 578 2 MP stroke
c10
49 0 5939 2185 2 MP stroke
0 sg
49 0 6133 2611 2 MP stroke
c8
-97 0 0 577 97 0 0 -577 947 2762 5 MP stroke
c9
-97 0 97 0 1141 4289 3 MP stroke
c10
-97 0 0 368 97 0 0 -368 1335 2977 5 MP stroke
0 sg
-97 0 0 311 97 0 0 -311 1529 3016 5 MP stroke
c8
-97 0 0 402 97 0 0 -402 2092 1277 5 MP stroke
c9
-97 0 0 1225 97 0 0 -1225 2286 2814 5 MP stroke
c10
-97 0 0 361 97 0 0 -361 2480 2146 5 MP stroke
0 sg
-97 0 0 358 97 0 0 -358 2674 2402 5 MP stroke
c8
-97 0 0 99 97 0 0 -99 3237 677 5 MP stroke
c9
-97 0 0 99 97 0 0 -99 3431 776 5 MP stroke
c10
-97 0 0 393 97 0 0 -393 3625 1945 5 MP stroke
0 sg
-97 0 0 280 97 0 0 -280 3819 2241 5 MP stroke
c8
-97 0 97 0 4382 578 3 MP stroke
c9
-97 0 0 99 97 0 0 -99 4576 677 5 MP stroke
c10
-97 0 0 368 97 0 0 -368 4770 1920 5 MP stroke
0 sg
-97 0 0 269 97 0 0 -269 4964 2230 5 MP stroke
c8
-97 0 97 0 5527 578 3 MP stroke
c9
-97 0 97 0 5721 578 3 MP stroke
c10
-97 0 0 368 97 0 0 -368 5915 1920 5 MP stroke
0 sg
-97 0 0 266 97 0 0 -266 6109 2230 5 MP stroke
c8
97 0 947 2486 2 MP stroke
c9
97 0 1141 4289 2 MP stroke
c10
97 0 1335 2813 2 MP stroke
0 sg
97 0 1529 2861 2 MP stroke
c8
97 0 2092 1075 2 MP stroke
c9
97 0 2286 2029 2 MP stroke
c10
97 0 2480 1967 2 MP stroke
0 sg
97 0 2674 2230 2 MP stroke
c8
97 0 3237 677 2 MP stroke
c9
97 0 3431 677 2 MP stroke
c10
97 0 3625 1670 2 MP stroke
0 sg
97 0 3819 2067 2 MP stroke
c8
97 0 4382 578 2 MP stroke
c9
97 0 4576 578 2 MP stroke
c10
97 0 4770 1665 2 MP stroke
0 sg
97 0 4964 2059 2 MP stroke
c8
97 0 5527 578 2 MP stroke
c9
97 0 5721 578 2 MP stroke
c10
97 0 5915 1665 2 MP stroke
0 sg
97 0 6109 2059 2 MP stroke
gs 923 1112 147 2723 MR c np
c8
 960 3761 mt 1032 3761 L
 996 3725 mt  996 3797 L
 960 3656 mt 1032 3656 L
 996 3620 mt  996 3692 L
 960 1289 mt 1032 1289 L
 996 1253 mt  996 1325 L
 960 1277 mt 1032 1277 L
 996 1241 mt  996 1313 L
 960 1185 mt 1032 1185 L
 996 1149 mt  996 1221 L
gr

c8
gs 1311 1954 147 1777 MR c np
c10
1348 3657 mt 1420 3657 L
1384 3621 mt 1384 3693 L
1348 3643 mt 1420 3643 L
1384 3607 mt 1384 3679 L
1348 3601 mt 1420 3601 L
1384 3565 mt 1384 3637 L
1348 3598 mt 1420 3598 L
1384 3562 mt 1384 3634 L
1348 3589 mt 1420 3589 L
1384 3553 mt 1384 3625 L
1348 3588 mt 1420 3588 L
1384 3552 mt 1384 3624 L
1348 3587 mt 1420 3587 L
1384 3551 mt 1384 3623 L
1348 3579 mt 1420 3579 L
1384 3543 mt 1384 3615 L
1348 3565 mt 1420 3565 L
1384 3529 mt 1384 3601 L
1348 3533 mt 1420 3533 L
1384 3497 mt 1384 3569 L
1348 2042 mt 1420 2042 L
1384 2006 mt 1384 2078 L
1348 2029 mt 1420 2029 L
1384 1993 mt 1384 2065 L
1348 2027 mt 1420 2027 L
1384 1991 mt 1384 2063 L
gr

c10
gs 1505 1969 147 1780 MR c np
0 sg
1542 3675 mt 1614 3675 L
1578 3639 mt 1578 3711 L
1542 3672 mt 1614 3672 L
1578 3636 mt 1578 3708 L
1542 3671 mt 1614 3671 L
1578 3635 mt 1578 3707 L
1542 3661 mt 1614 3661 L
1578 3625 mt 1578 3697 L
1542 3657 mt 1614 3657 L
1578 3621 mt 1578 3693 L
1542 3605 mt 1614 3605 L
1578 3569 mt 1578 3641 L
1542 3601 mt 1614 3601 L
1578 3565 mt 1578 3637 L
1542 3598 mt 1614 3598 L
1578 3562 mt 1578 3634 L
1542 3587 mt 1614 3587 L
1578 3551 mt 1578 3623 L
1542 3579 mt 1614 3579 L
1578 3543 mt 1578 3615 L
1542 3575 mt 1614 3575 L
1578 3539 mt 1578 3611 L
1542 3553 mt 1614 3553 L
1578 3517 mt 1578 3589 L
1542 3542 mt 1614 3542 L
1578 3506 mt 1578 3578 L
1542 3533 mt 1614 3533 L
1578 3497 mt 1578 3569 L
1542 3525 mt 1614 3525 L
1578 3489 mt 1578 3561 L
1542 3514 mt 1614 3514 L
1578 3478 mt 1578 3550 L
1542 3509 mt 1614 3509 L
1578 3473 mt 1578 3545 L
1542 3508 mt 1614 3508 L
1578 3472 mt 1578 3544 L
1542 3498 mt 1614 3498 L
1578 3462 mt 1578 3534 L
1542 3494 mt 1614 3494 L
1578 3458 mt 1578 3530 L
1542 2237 mt 1614 2237 L
1578 2201 mt 1578 2273 L
1542 2204 mt 1614 2204 L
1578 2168 mt 1578 2240 L
1542 2185 mt 1614 2185 L
1578 2149 mt 1578 2221 L
1542 2161 mt 1614 2161 L
1578 2125 mt 1578 2197 L
1542 2116 mt 1614 2116 L
1578 2080 mt 1578 2152 L
1542 2042 mt 1614 2042 L
1578 2006 mt 1578 2078 L
gr

0 sg
gs 2650 1430 147 147 MR c np
2687 1503 mt 2759 1503 L
2723 1467 mt 2723 1539 L
gr

gs 3212 780 147 269 MR c np
c8
3249  975 mt 3321  975 L
3285  939 mt 3285 1011 L
3249  974 mt 3321  974 L
3285  938 mt 3285 1010 L
3249  959 mt 3321  959 L
3285  923 mt 3285  995 L
3249  877 mt 3321  877 L
3285  841 mt 3285  913 L
3249  875 mt 3321  875 L
3285  839 mt 3285  911 L
3249  869 mt 3321  869 L
3285  833 mt 3285  905 L
3249  853 mt 3321  853 L
3285  817 mt 3285  889 L
gr

c8
gs 3406 902 147 147 MR c np
c9
3443  975 mt 3515  975 L
3479  939 mt 3479 1011 L
gr

c9
gs 3601 886 147 147 MR c np
c10
3638  959 mt 3710  959 L
3674  923 mt 3674  995 L
gr

c10
gs 4357 601 147 150 MR c np
c8
4394  677 mt 4466  677 L
4430  641 mt 4430  713 L
4394  674 mt 4466  674 L
4430  638 mt 4430  710 L
gr

c8
gs 4745 780 147 147 MR c np
c10
4782  853 mt 4854  853 L
4818  817 mt 4818  889 L
gr

c10
gs 4940 1476 147 147 MR c np
0 sg
4977 1549 mt 5049 1549 L
5013 1513 mt 5013 1585 L
gr

0 sg
gs 6084 1476 147 147 MR c np
6121 1549 mt 6193 1549 L
6157 1513 mt 6157 1585 L
gr

gr

3450 4716 mt 
(SNR) s
 616 2570 mt  -90 rotate
(MCC) s
90 rotate
 870 4530 mt 
( ) s
6227  442 mt 
( ) s
gs 899 388 5357 4088 MR c np
DA
5355 0 899 4289 2 MP stroke
SO
gr

1 sg
0 642 1157 0 0 -642 2833 4381 4 MP
PP
-1157 0 0 642 1157 0 0 -642 2833 4381 5 MP stroke
4 w
DO
SO
6 w
0 sg
2833 4381 mt 3990 4381 L
2833 3739 mt 3990 3739 L
2833 4381 mt 2833 3739 L
3990 4381 mt 3990 3739 L
2833 4381 mt 3990 4381 L
2833 4381 mt 2833 3739 L
2833 4381 mt 3990 4381 L
2833 3739 mt 3990 3739 L
2833 4381 mt 2833 3739 L
3990 4381 mt 3990 3739 L
3301 3877 mt 
(Elastic net) s
gs 2833 3739 1158 643 MR c np
360 0 2905 3835 2 MP stroke
gr

3301 4027 mt 
(LASSO) s
gs 2833 3739 1158 643 MR c np
c10
360 0 2905 3985 2 MP stroke
gr

c10
0 sg
3301 4178 mt 
(RNI) s
gs 2833 3739 1158 643 MR c np
c9
360 0 2905 4135 2 MP stroke
gr

c9
0 sg
3301 4328 mt 
(LSCO) s
gs 2833 3739 1158 643 MR c np
c8
360 0 2905 4285 2 MP stroke
gr

c8

end %%Color Dict

eplot
%%EndObject

epage
end

showpage

%%Trailer
%%EOF
