%!PS-Adobe-2.0 EPSF-1.2
%%Creator: MATLAB, The MathWorks, Inc. Version 8.2.0.701 (R2013b). Operating System: Linux 3.11.0-20-generic #35-Ubuntu SMP Fri May 2 21:32:49 UTC 2014 x86_64.
%%Title: ../img/SIC-mu.eps
%%CreationDate: 05/23/2014  15:47:47
%%DocumentNeededFonts: Helvetica
%%DocumentProcessColors: Cyan Magenta Yellow Black
%%Extensions: CMYK
%%Pages: 1
%%BoundingBox:    58   195   550   590
%%EndComments

%%BeginProlog
% MathWorks dictionary
/MathWorks 160 dict begin
% definition operators
/bdef {bind def} bind def
/ldef {load def} bind def
/xdef {exch def} bdef
/xstore {exch store} bdef
% operator abbreviations
/c  /clip ldef
/cc /concat ldef
/cp /closepath ldef
/gr /grestore ldef
/gs /gsave ldef
/mt /moveto ldef
/np /newpath ldef
/cm /currentmatrix ldef
/sm /setmatrix ldef
/rm /rmoveto ldef
/rl /rlineto ldef
/s {show newpath} bdef
/sc {setcmykcolor} bdef
/sr /setrgbcolor ldef
/sg /setgray ldef
/w /setlinewidth ldef
/j /setlinejoin ldef
/cap /setlinecap ldef
/rc {rectclip} bdef
/rf {rectfill} bdef
% page state control
/pgsv () def
/bpage {/pgsv save def} bdef
/epage {pgsv restore} bdef
/bplot /gsave ldef
/eplot {stroke grestore} bdef
% orientation switch
/portraitMode 0 def /landscapeMode 1 def /rotateMode 2 def
% coordinate system mappings
/dpi2point 0 def
% font control
/FontSize 0 def
/FMS {/FontSize xstore findfont [FontSize 0 0 FontSize neg 0 0]
  makefont setfont} bdef
/reencode {exch dup where {pop load} {pop StandardEncoding} ifelse
  exch dup 3 1 roll findfont dup length dict begin
  { 1 index /FID ne {def}{pop pop} ifelse } forall
  /Encoding exch def currentdict end definefont pop} bdef
/isroman {findfont /CharStrings get /Agrave known} bdef
/FMSR {3 1 roll 1 index dup isroman {reencode} {pop pop} ifelse
  exch FMS} bdef
/csm {1 dpi2point div -1 dpi2point div scale neg translate
 dup landscapeMode eq {pop -90 rotate}
  {rotateMode eq {90 rotate} if} ifelse} bdef
% line types: solid, dotted, dashed, dotdash
/SO { [] 0 setdash } bdef
/DO { [.5 dpi2point mul 4 dpi2point mul] 0 setdash } bdef
/DA { [6 dpi2point mul] 0 setdash } bdef
/DD { [.5 dpi2point mul 4 dpi2point mul 6 dpi2point mul 4
  dpi2point mul] 0 setdash } bdef
% macros for lines and objects
/L {lineto stroke} bdef
/MP {3 1 roll moveto 1 sub {rlineto} repeat} bdef
/AP {{rlineto} repeat} bdef
/PDlw -1 def
/W {/PDlw currentlinewidth def setlinewidth} def
/PP {closepath eofill} bdef
/DP {closepath stroke} bdef
/MR {4 -2 roll moveto dup  0 exch rlineto exch 0 rlineto
  neg 0 exch rlineto closepath} bdef
/FR {MR stroke} bdef
/PR {MR fill} bdef
/L1i {{currentfile picstr readhexstring pop} image} bdef
/tMatrix matrix def
/MakeOval {newpath tMatrix currentmatrix pop translate scale
0 0 1 0 360 arc tMatrix setmatrix} bdef
/FO {MakeOval stroke} bdef
/PO {MakeOval fill} bdef
/PD {currentlinewidth 2 div 0 360 arc fill
   PDlw -1 eq not {PDlw w /PDlw -1 def} if} def
/FA {newpath tMatrix currentmatrix pop translate scale
  0 0 1 5 -2 roll arc tMatrix setmatrix stroke} bdef
/PA {newpath tMatrix currentmatrix pop	translate 0 0 moveto scale
  0 0 1 5 -2 roll arc closepath tMatrix setmatrix fill} bdef
/FAn {newpath tMatrix currentmatrix pop translate scale
  0 0 1 5 -2 roll arcn tMatrix setmatrix stroke} bdef
/PAn {newpath tMatrix currentmatrix pop translate 0 0 moveto scale
  0 0 1 5 -2 roll arcn closepath tMatrix setmatrix fill} bdef
/vradius 0 def /hradius 0 def /lry 0 def
/lrx 0 def /uly 0 def /ulx 0 def /rad 0 def
/MRR {/vradius xdef /hradius xdef /lry xdef /lrx xdef /uly xdef
  /ulx xdef newpath tMatrix currentmatrix pop ulx hradius add uly
  vradius add translate hradius vradius scale 0 0 1 180 270 arc 
  tMatrix setmatrix lrx hradius sub uly vradius add translate
  hradius vradius scale 0 0 1 270 360 arc tMatrix setmatrix
  lrx hradius sub lry vradius sub translate hradius vradius scale
  0 0 1 0 90 arc tMatrix setmatrix ulx hradius add lry vradius sub
  translate hradius vradius scale 0 0 1 90 180 arc tMatrix setmatrix
  closepath} bdef
/FRR {MRR stroke } bdef
/PRR {MRR fill } bdef
/MlrRR {/lry xdef /lrx xdef /uly xdef /ulx xdef /rad lry uly sub 2 div def
  newpath tMatrix currentmatrix pop ulx rad add uly rad add translate
  rad rad scale 0 0 1 90 270 arc tMatrix setmatrix lrx rad sub lry rad
  sub translate rad rad scale 0 0 1 270 90 arc tMatrix setmatrix
  closepath} bdef
/FlrRR {MlrRR stroke } bdef
/PlrRR {MlrRR fill } bdef
/MtbRR {/lry xdef /lrx xdef /uly xdef /ulx xdef /rad lrx ulx sub 2 div def
  newpath tMatrix currentmatrix pop ulx rad add uly rad add translate
  rad rad scale 0 0 1 180 360 arc tMatrix setmatrix lrx rad sub lry rad
  sub translate rad rad scale 0 0 1 0 180 arc tMatrix setmatrix
  closepath} bdef
/FtbRR {MtbRR stroke } bdef
/PtbRR {MtbRR fill } bdef
/stri 6 array def /dtri 6 array def
/smat 6 array def /dmat 6 array def
/tmat1 6 array def /tmat2 6 array def /dif 3 array def
/asub {/ind2 exch def /ind1 exch def dup dup
  ind1 get exch ind2 get sub exch } bdef
/tri_to_matrix {
  2 0 asub 3 1 asub 4 0 asub 5 1 asub
  dup 0 get exch 1 get 7 -1 roll astore } bdef
/compute_transform {
  dmat dtri tri_to_matrix tmat1 invertmatrix 
  smat stri tri_to_matrix tmat2 concatmatrix } bdef
/ds {stri astore pop} bdef
/dt {dtri astore pop} bdef
/db {2 copy /cols xdef /rows xdef mul dup 3 mul string
  currentfile exch readhexstring pop
  dup 0 3 index getinterval /rbmap xdef
  dup 2 index dup getinterval /gbmap xdef
  1 index dup 2 mul exch getinterval /bbmap xdef pop pop}bdef
/it {gs np dtri aload pop moveto lineto lineto cp c
  cols rows 8 compute_transform 
  rbmap gbmap bbmap true 3 colorimage gr}bdef
/il {newpath moveto lineto stroke}bdef
currentdict end def
%%EndProlog

%%BeginSetup
MathWorks begin

0 cap

end
%%EndSetup

%%Page: 1 1
%%BeginPageSetup
%%PageBoundingBox:    58   195   550   590
MathWorks begin
bpage
%%EndPageSetup

%%BeginObject: obj1
bplot

/dpi2point 12 def
portraitMode 0216 7344 csm

  480   259  5913  4735 MR c np
85 dict begin %Colortable dictionary
/c0 { 0.000000 0.000000 0.000000 sr} bdef
/c1 { 1.000000 1.000000 1.000000 sr} bdef
/c2 { 0.900000 0.000000 0.000000 sr} bdef
/c3 { 0.000000 0.820000 0.000000 sr} bdef
/c4 { 0.000000 0.000000 0.800000 sr} bdef
/c5 { 0.910000 0.820000 0.320000 sr} bdef
/c6 { 1.000000 0.260000 0.820000 sr} bdef
/c7 { 0.000000 0.820000 0.820000 sr} bdef
c0
1 j
1 sg
   0    0 6913 5186 PR
6 w
0 4226 5356 0 0 -4226 899 4615 4 MP
PP
-5356 0 0 4226 5356 0 0 -4226 899 4615 5 MP stroke
4 w
DO
0 sg
 899 4615 mt  899  389 L
 899  389 mt  899  389 L
2684 4615 mt 2684  389 L
2684  389 mt 2684  389 L
4469 4615 mt 4469  389 L
4469  389 mt 4469  389 L
6255 4615 mt 6255  389 L
6255  389 mt 6255  389 L
 899 4615 mt 6255 4615 L
6255 4615 mt 6255 4615 L
 899 4145 mt 6255 4145 L
6255 4145 mt 6255 4145 L
 899 3675 mt 6255 3675 L
6255 3675 mt 6255 3675 L
 899 3206 mt 6255 3206 L
6255 3206 mt 6255 3206 L
 899 2736 mt 6255 2736 L
6255 2736 mt 6255 2736 L
 899 2267 mt 6255 2267 L
6255 2267 mt 6255 2267 L
 899 1797 mt 6255 1797 L
6255 1797 mt 6255 1797 L
 899 1328 mt 6255 1328 L
6255 1328 mt 6255 1328 L
 899  858 mt 6255  858 L
6255  858 mt 6255  858 L
 899  389 mt 6255  389 L
6255  389 mt 6255  389 L
SO
6 w
 899 4615 mt 6255 4615 L
 899 4615 mt  899  389 L
 899 4615 mt  899 4588 L
DO
 899 4615 mt  899  389 L
 899  389 mt  899  389 L
SO
 899 4615 mt  899 4561 L
%%IncludeResource: font Helvetica
/Helvetica /ISOLatin1Encoding 120 FMSR

 787 4797 mt 
(10) s
%%IncludeResource: font Helvetica
/Helvetica /ISOLatin1Encoding 80 FMSR

 920 4723 mt 
(-1) s
1436 4615 mt 1436 4588 L
DO
1436 4615 mt 1436  389 L
1436  389 mt 1436  389 L
SO
1750 4615 mt 1750 4588 L
DO
1750 4615 mt 1750  389 L
1750  389 mt 1750  389 L
SO
1973 4615 mt 1973 4588 L
DO
1973 4615 mt 1973  389 L
1973  389 mt 1973  389 L
SO
2146 4615 mt 2146 4588 L
DO
2146 4615 mt 2146  389 L
2146  389 mt 2146  389 L
SO
2288 4615 mt 2288 4588 L
DO
2288 4615 mt 2288  389 L
2288  389 mt 2288  389 L
SO
2407 4615 mt 2407 4588 L
DO
2407 4615 mt 2407  389 L
2407  389 mt 2407  389 L
SO
2511 4615 mt 2511 4588 L
DO
2511 4615 mt 2511  389 L
2511  389 mt 2511  389 L
SO
2602 4615 mt 2602 4588 L
DO
2602 4615 mt 2602  389 L
2602  389 mt 2602  389 L
SO
2684 4615 mt 2684 4588 L
DO
2684 4615 mt 2684  389 L
2684  389 mt 2684  389 L
SO
2684 4615 mt 2684 4561 L
%%IncludeResource: font Helvetica
/Helvetica /ISOLatin1Encoding 120 FMSR

2596 4797 mt 
(10) s
%%IncludeResource: font Helvetica
/Helvetica /ISOLatin1Encoding 80 FMSR

2729 4723 mt 
(0) s
3221 4615 mt 3221 4588 L
DO
3221 4615 mt 3221  389 L
3221  389 mt 3221  389 L
SO
3536 4615 mt 3536 4588 L
DO
3536 4615 mt 3536  389 L
3536  389 mt 3536  389 L
SO
3759 4615 mt 3759 4588 L
DO
3759 4615 mt 3759  389 L
3759  389 mt 3759  389 L
SO
3932 4615 mt 3932 4588 L
DO
3932 4615 mt 3932  389 L
3932  389 mt 3932  389 L
SO
4073 4615 mt 4073 4588 L
DO
4073 4615 mt 4073  389 L
4073  389 mt 4073  389 L
SO
4193 4615 mt 4193 4588 L
DO
4193 4615 mt 4193  389 L
4193  389 mt 4193  389 L
SO
4296 4615 mt 4296 4588 L
DO
4296 4615 mt 4296  389 L
4296  389 mt 4296  389 L
SO
4387 4615 mt 4387 4588 L
DO
4387 4615 mt 4387  389 L
4387  389 mt 4387  389 L
SO
4469 4615 mt 4469 4588 L
DO
4469 4615 mt 4469  389 L
4469  389 mt 4469  389 L
SO
4469 4615 mt 4469 4561 L
%%IncludeResource: font Helvetica
/Helvetica /ISOLatin1Encoding 120 FMSR

4381 4797 mt 
(10) s
%%IncludeResource: font Helvetica
/Helvetica /ISOLatin1Encoding 80 FMSR

4514 4723 mt 
(1) s
5007 4615 mt 5007 4588 L
DO
5007 4615 mt 5007  389 L
5007  389 mt 5007  389 L
SO
5321 4615 mt 5321 4588 L
DO
5321 4615 mt 5321  389 L
5321  389 mt 5321  389 L
SO
5544 4615 mt 5544 4588 L
DO
5544 4615 mt 5544  389 L
5544  389 mt 5544  389 L
SO
5717 4615 mt 5717 4588 L
DO
5717 4615 mt 5717  389 L
5717  389 mt 5717  389 L
SO
5858 4615 mt 5858 4588 L
DO
5858 4615 mt 5858  389 L
5858  389 mt 5858  389 L
SO
5978 4615 mt 5978 4588 L
DO
5978 4615 mt 5978  389 L
5978  389 mt 5978  389 L
SO
6081 4615 mt 6081 4588 L
DO
6081 4615 mt 6081  389 L
6081  389 mt 6081  389 L
SO
6173 4615 mt 6173 4588 L
DO
6173 4615 mt 6173  389 L
6173  389 mt 6173  389 L
SO
6255 4615 mt 6255 4588 L
DO
6255 4615 mt 6255  389 L
6255  389 mt 6255  389 L
SO
6255 4615 mt 6255 4561 L
%%IncludeResource: font Helvetica
/Helvetica /ISOLatin1Encoding 120 FMSR

6167 4797 mt 
(10) s
%%IncludeResource: font Helvetica
/Helvetica /ISOLatin1Encoding 80 FMSR

6300 4723 mt 
(2) s
 899 4615 mt  952 4615 L
%%IncludeResource: font Helvetica
/Helvetica /ISOLatin1Encoding 120 FMSR

 698 4659 mt 
(0.1) s
 899 4145 mt  952 4145 L
 698 4189 mt 
(0.2) s
 899 3675 mt  952 3675 L
 698 3719 mt 
(0.3) s
 899 3206 mt  952 3206 L
 698 3250 mt 
(0.4) s
 899 2736 mt  952 2736 L
 698 2780 mt 
(0.5) s
 899 2267 mt  952 2267 L
 698 2311 mt 
(0.6) s
 899 1797 mt  952 1797 L
 698 1841 mt 
(0.7) s
 899 1328 mt  952 1328 L
 698 1372 mt 
(0.8) s
 899  858 mt  952  858 L
 698  902 mt 
(0.9) s
 899  389 mt  952  389 L
 798  433 mt 
(1) s
gs 899 389 5357 4227 MR c np
0 j
gs 2727 4011 123 123 MR c np
0 -48 -48 0 0 48 48 0 2764 4048 5 MP
/c8 { 0.000000 0.000000 0.562500 sr} bdef
c8
DP
gr

c8
gs 4784 2991 123 123 MR c np
0 -48 -48 0 0 48 48 0 4821 3028 5 MP
/c9 { 0.500000 0.000000 0.000000 sr} bdef
c9
DP
gr

c9
gs 2716 4075 123 123 MR c np
0 -48 -48 0 0 48 48 0 2753 4112 5 MP
c8
DP
gr

c8
gs 5217 3033 123 123 MR c np
0 -48 -48 0 0 48 48 0 5254 3070 5 MP
c9
DP
gr

c9
gs 2673 3613 123 123 MR c np
0 -48 -48 0 0 48 48 0 2710 3650 5 MP
c8
DP
gr

c8
gs 2979 3520 123 123 MR c np
0 -48 -48 0 0 48 48 0 3016 3557 5 MP
c9
DP
gr

c9
gs 2712 3467 123 123 MR c np
0 -48 -48 0 0 48 48 0 2749 3504 5 MP
c8
DP
gr

c8
gs 3067 3434 123 123 MR c np
0 -48 -48 0 0 48 48 0 3104 3471 5 MP
c9
DP
gr

c9
gs 2750 3354 123 123 MR c np
0 -48 -48 0 0 48 48 0 2787 3391 5 MP
c8
DP
gr

c8
gs 3077 3329 123 123 MR c np
0 -48 -48 0 0 48 48 0 3114 3366 5 MP
c9
DP
gr

c9
gs 2701 3583 123 123 MR c np
0 -48 -48 0 0 48 48 0 2738 3620 5 MP
c8
DP
gr

c8
gs 3255 3474 123 123 MR c np
0 -48 -48 0 0 48 48 0 3292 3511 5 MP
c9
DP
gr

c9
gs 2690 3718 123 123 MR c np
0 -48 -48 0 0 48 48 0 2727 3755 5 MP
c8
DP
gr

c8
gs 3193 3514 123 123 MR c np
0 -48 -48 0 0 48 48 0 3230 3551 5 MP
c9
DP
gr

c9
gs 2715 3739 123 123 MR c np
0 -48 -48 0 0 48 48 0 2752 3776 5 MP
c8
DP
gr

c8
gs 3594 3418 123 123 MR c np
0 -48 -48 0 0 48 48 0 3631 3455 5 MP
c9
DP
gr

c9
gs 2674 4236 123 123 MR c np
0 -48 -48 0 0 48 48 0 2711 4273 5 MP
c8
DP
gr

c8
gs 4586 3336 123 123 MR c np
0 -48 -48 0 0 48 48 0 4623 3373 5 MP
c9
DP
gr

c9
gs 2743 4114 123 123 MR c np
0 -48 -48 0 0 48 48 0 2780 4151 5 MP
c8
DP
gr

c8
gs 4954 3488 123 123 MR c np
0 -48 -48 0 0 48 48 0 4991 3525 5 MP
c9
DP
gr

c9
gs 2765 3879 123 123 MR c np
0 -48 -48 0 0 48 48 0 2802 3916 5 MP
c8
DP
gr

c8
gs 5214 3011 123 123 MR c np
0 -48 -48 0 0 48 48 0 5251 3048 5 MP
c9
DP
gr

c9
gs 2671 4274 123 123 MR c np
0 -48 -48 0 0 48 48 0 2708 4311 5 MP
c8
DP
gr

c8
gs 5005 3433 123 123 MR c np
0 -48 -48 0 0 48 48 0 5042 3470 5 MP
c9
DP
gr

c9
gs 2717 3770 123 123 MR c np
0 -48 -48 0 0 48 48 0 2754 3807 5 MP
c8
DP
gr

c8
gs 3099 3952 123 123 MR c np
0 -48 -48 0 0 48 48 0 3136 3989 5 MP
c9
DP
gr

c9
gs 2722 4113 123 123 MR c np
0 -48 -48 0 0 48 48 0 2759 4150 5 MP
c8
DP
gr

c8
gs 4723 3266 123 123 MR c np
0 -48 -48 0 0 48 48 0 4760 3303 5 MP
c9
DP
gr

c9
gs 2707 3549 123 123 MR c np
0 -48 -48 0 0 48 48 0 2744 3586 5 MP
c8
DP
gr

c8
gs 3320 3490 123 123 MR c np
0 -48 -48 0 0 48 48 0 3357 3527 5 MP
c9
DP
gr

c9
gs 2709 3833 123 123 MR c np
0 -48 -48 0 0 48 48 0 2746 3870 5 MP
c8
DP
gr

c8
gs 4357 3628 123 123 MR c np
0 -48 -48 0 0 48 48 0 4394 3665 5 MP
c9
DP
gr

c9
gs 2692 3941 123 123 MR c np
0 -48 -48 0 0 48 48 0 2729 3978 5 MP
c8
DP
gr

c8
gs 5118 2986 123 123 MR c np
0 -48 -48 0 0 48 48 0 5155 3023 5 MP
c9
DP
gr

c9
gs 2713 3605 123 123 MR c np
0 -48 -48 0 0 48 48 0 2750 3642 5 MP
c8
DP
gr

c8
gs 5199 3175 123 123 MR c np
0 -48 -48 0 0 48 48 0 5236 3212 5 MP
c9
DP
gr

c9
gs 2732 3466 123 123 MR c np
0 -48 -48 0 0 48 48 0 2769 3503 5 MP
c8
DP
gr

c8
gs 3333 3292 123 123 MR c np
0 -48 -48 0 0 48 48 0 3370 3329 5 MP
c9
DP
gr

c9
gs 2725 3558 123 123 MR c np
0 -48 -48 0 0 48 48 0 2762 3595 5 MP
c8
DP
gr

c8
gs 3283 3940 123 123 MR c np
0 -48 -48 0 0 48 48 0 3320 3977 5 MP
c9
DP
gr

c9
gs 2088 1418 123 123 MR c np
c8
2128 1458 mt 2170 1500 L
2170 1458 mt 2128 1500 L
gr

c8
gs 4991 1981 123 123 MR c np
c9
5031 2021 mt 5073 2063 L
5073 2021 mt 5031 2063 L
gr

c9
gs 1903 1579 123 123 MR c np
c8
1943 1619 mt 1985 1661 L
1985 1619 mt 1943 1661 L
gr

c8
gs 5532 1640 123 123 MR c np
c9
5572 1680 mt 5614 1722 L
5614 1680 mt 5572 1722 L
gr

c9
gs 2128 1160 123 123 MR c np
c8
2168 1200 mt 2210 1242 L
2210 1200 mt 2168 1242 L
gr

c8
gs 3274 1483 123 123 MR c np
c9
3314 1523 mt 3356 1565 L
3356 1523 mt 3314 1565 L
gr

c9
gs 2175 833 123 123 MR c np
c8
2215  873 mt 2257  915 L
2257  873 mt 2215  915 L
gr

c8
gs 3329 2141 123 123 MR c np
c9
3369 2181 mt 3411 2223 L
3411 2181 mt 3369 2223 L
gr

c9
gs 2153 1012 123 123 MR c np
c8
2193 1052 mt 2235 1094 L
2235 1052 mt 2193 1094 L
gr

c8
gs 3372 1914 123 123 MR c np
c9
3412 1954 mt 3454 1996 L
3454 1954 mt 3412 1996 L
gr

c9
gs 2259 1205 123 123 MR c np
c8
2299 1245 mt 2341 1287 L
2341 1245 mt 2299 1287 L
gr

c8
gs 3793 2225 123 123 MR c np
c9
3833 2265 mt 3875 2307 L
3875 2265 mt 3833 2307 L
gr

c9
gs 1917 714 123 123 MR c np
c8
1957  754 mt 1999  796 L
1999  754 mt 1957  796 L
gr

c8
gs 3531 2072 123 123 MR c np
c9
3571 2112 mt 3613 2154 L
3613 2112 mt 3571 2154 L
gr

c9
gs 2072 844 123 123 MR c np
c8
2112  884 mt 2154  926 L
2154  884 mt 2112  926 L
gr

c8
gs 4242 2566 123 123 MR c np
c9
4282 2606 mt 4324 2648 L
4324 2606 mt 4282 2648 L
gr

c9
gs 2139 1775 123 123 MR c np
c8
2179 1815 mt 2221 1857 L
2221 1815 mt 2179 1857 L
gr

c8
gs 4947 2388 123 123 MR c np
c9
4987 2428 mt 5029 2470 L
5029 2428 mt 4987 2470 L
gr

c9
gs 2181 1736 123 123 MR c np
c8
2221 1776 mt 2263 1818 L
2263 1776 mt 2221 1818 L
gr

c8
gs 5518 2127 123 123 MR c np
c9
5558 2167 mt 5600 2209 L
5600 2167 mt 5558 2209 L
gr

c9
gs 1924 1358 123 123 MR c np
c8
1964 1398 mt 2006 1440 L
2006 1398 mt 1964 1440 L
gr

c8
gs 5594 2044 123 123 MR c np
c9
5634 2084 mt 5676 2126 L
5676 2084 mt 5634 2126 L
gr

c9
gs 1930 1460 123 123 MR c np
c8
1970 1500 mt 2012 1542 L
2012 1500 mt 1970 1542 L
gr

c8
gs 5355 2217 123 123 MR c np
c9
5395 2257 mt 5437 2299 L
5437 2257 mt 5395 2299 L
gr

c9
gs 1818 578 123 123 MR c np
c8
1858  618 mt 1900  660 L
1900  618 mt 1858  660 L
gr

c8
gs 3340 2752 123 123 MR c np
c9
3380 2792 mt 3422 2834 L
3422 2792 mt 3380 2834 L
gr

c9
gs 1985 1879 123 123 MR c np
c8
2025 1919 mt 2067 1961 L
2067 1919 mt 2025 1961 L
gr

c8
gs 4934 2363 123 123 MR c np
c9
4974 2403 mt 5016 2445 L
5016 2403 mt 4974 2445 L
gr

c9
gs 2265 472 123 123 MR c np
c8
2305  512 mt 2347  554 L
2347  512 mt 2305  554 L
gr

c8
gs 3616 1878 123 123 MR c np
c9
3656 1918 mt 3698 1960 L
3698 1918 mt 3656 1960 L
gr

c9
gs 2035 1401 123 123 MR c np
c8
2075 1441 mt 2117 1483 L
2117 1441 mt 2075 1483 L
gr

c8
gs 4722 2413 123 123 MR c np
c9
4762 2453 mt 4804 2495 L
4804 2453 mt 4762 2495 L
gr

c9
gs 2123 1194 123 123 MR c np
c8
2163 1234 mt 2205 1276 L
2205 1234 mt 2163 1276 L
gr

c8
gs 5231 2388 123 123 MR c np
c9
5271 2428 mt 5313 2470 L
5313 2428 mt 5271 2470 L
gr

c9
gs 2296 1316 123 123 MR c np
c8
2336 1356 mt 2378 1398 L
2378 1356 mt 2336 1398 L
gr

c8
gs 5747 2547 123 123 MR c np
c9
5787 2587 mt 5829 2629 L
5829 2587 mt 5787 2629 L
gr

c9
gs 2168 862 123 123 MR c np
c8
2208  902 mt 2250  944 L
2250  902 mt 2208  944 L
gr

c8
gs 3406 2156 123 123 MR c np
c9
3446 2196 mt 3488 2238 L
3488 2196 mt 3446 2238 L
gr

c9
gs 2228 764 123 123 MR c np
c8
2268  804 mt 2310  846 L
2310  804 mt 2268  846 L
gr

c8
gs 3701 2074 123 123 MR c np
c9
3741 2114 mt 3783 2156 L
3783 2114 mt 3741 2156 L
gr

c9
gs 2013 595 123 123 MR c np
34 59 -68 0 34 -59 2074 695 4 MP
c8
DP
gr

c8
gs 5000 1499 123 123 MR c np
34 59 -68 0 34 -59 5061 1599 4 MP
c9
DP
gr

c9
gs 1875 681 123 123 MR c np
34 59 -68 0 34 -59 1936 781 4 MP
c8
DP
gr

c8
gs 5513 1429 123 123 MR c np
34 59 -68 0 34 -59 5574 1529 4 MP
c9
DP
gr

c9
gs 2088 481 123 123 MR c np
34 59 -68 0 34 -59 2149 581 4 MP
c8
DP
gr

c8
gs 3293 1229 123 123 MR c np
34 59 -68 0 34 -59 3354 1329 4 MP
c9
DP
gr

c9
gr

c9
gs 2122 345 123 123 MR c np
0 j
34 59 -68 0 34 -59 2183 445 4 MP
c8
DP
gr

c8
gs 899 389 5357 4227 MR c np
0 j
gs 3353 1691 123 123 MR c np
34 59 -68 0 34 -59 3414 1791 4 MP
c9
DP
gr

c9
gs 2003 453 123 123 MR c np
34 59 -68 0 34 -59 2064 553 4 MP
c8
DP
gr

c8
gs 3347 1517 123 123 MR c np
34 59 -68 0 34 -59 3408 1617 4 MP
c9
DP
gr

c9
gs 2217 579 123 123 MR c np
34 59 -68 0 34 -59 2278 679 4 MP
c8
DP
gr

c8
gs 3803 1713 123 123 MR c np
34 59 -68 0 34 -59 3864 1813 4 MP
c9
DP
gr

c9
gs 1724 453 123 123 MR c np
34 59 -68 0 34 -59 1785 553 4 MP
c8
DP
gr

c8
gs 3533 1776 123 123 MR c np
34 59 -68 0 34 -59 3594 1876 4 MP
c9
DP
gr

c9
gs 1899 573 123 123 MR c np
34 59 -68 0 34 -59 1960 673 4 MP
c8
DP
gr

c8
gs 4262 2349 123 123 MR c np
34 59 -68 0 34 -59 4323 2449 4 MP
c9
DP
gr

c9
gs 2108 680 123 123 MR c np
34 59 -68 0 34 -59 2169 780 4 MP
c8
DP
gr

c8
gs 4937 2114 123 123 MR c np
34 59 -68 0 34 -59 4998 2214 4 MP
c9
DP
gr

c9
gs 2210 442 123 123 MR c np
34 59 -68 0 34 -59 2271 542 4 MP
c8
DP
gr

c8
gs 5551 1771 123 123 MR c np
34 59 -68 0 34 -59 5612 1871 4 MP
c9
DP
gr

c9
gs 1705 573 123 123 MR c np
34 59 -68 0 34 -59 1766 673 4 MP
c8
DP
gr

c8
gs 5617 1613 123 123 MR c np
34 59 -68 0 34 -59 5678 1713 4 MP
c9
DP
gr

c9
gs 1651 624 123 123 MR c np
34 59 -68 0 34 -59 1712 724 4 MP
c8
DP
gr

c8
gs 5380 1978 123 123 MR c np
34 59 -68 0 34 -59 5441 2078 4 MP
c9
DP
gr

c9
gs 1369 453 123 123 MR c np
34 59 -68 0 34 -59 1430 553 4 MP
c8
DP
gr

c8
gs 3316 2189 123 123 MR c np
34 59 -68 0 34 -59 3377 2289 4 MP
c9
DP
gr

c9
gs 1662 814 123 123 MR c np
34 59 -68 0 34 -59 1723 914 4 MP
c8
DP
gr

c8
gs 4937 1984 123 123 MR c np
34 59 -68 0 34 -59 4998 2084 4 MP
c9
DP
gr

c9
gr

c9
gs 2222 328 123 123 MR c np
0 j
34 59 -68 0 34 -59 2283 428 4 MP
c8
DP
gr

c8
gs 899 389 5357 4227 MR c np
0 j
gs 3614 1622 123 123 MR c np
34 59 -68 0 34 -59 3675 1722 4 MP
c9
DP
gr

c9
gs 1890 464 123 123 MR c np
34 59 -68 0 34 -59 1951 564 4 MP
c8
DP
gr

c8
gs 4729 2206 123 123 MR c np
34 59 -68 0 34 -59 4790 2306 4 MP
c9
DP
gr

c9
gs 2042 737 123 123 MR c np
34 59 -68 0 34 -59 2103 837 4 MP
c8
DP
gr

c8
gs 5252 2435 123 123 MR c np
34 59 -68 0 34 -59 5313 2535 4 MP
c9
DP
gr

c9
gs 2240 729 123 123 MR c np
34 59 -68 0 34 -59 2301 829 4 MP
c8
DP
gr

c8
gs 5775 2175 123 123 MR c np
34 59 -68 0 34 -59 5836 2275 4 MP
c9
DP
gr

c9
gs 2046 467 123 123 MR c np
34 59 -68 0 34 -59 2107 567 4 MP
c8
DP
gr

c8
gs 3412 1812 123 123 MR c np
34 59 -68 0 34 -59 3473 1912 4 MP
c9
DP
gr

c9
gr

c9
gs 2186 334 123 123 MR c np
0 j
34 59 -68 0 34 -59 2247 434 4 MP
c8
DP
gr

c8
gs 899 389 5357 4227 MR c np
0 j
gs 3716 1654 123 123 MR c np
34 59 -68 0 34 -59 3777 1754 4 MP
c9
DP
gr

c9
gr

c9
gs 2016 328 123 123 MR c np
c8
2047  389 mt 2107  389 L
2077  359 mt 2077  419 L
gr

c8
gs 899 389 5357 4227 MR c np
0 j
gs 4999 1339 123 123 MR c np
c9
5030 1400 mt 5090 1400 L
5060 1370 mt 5060 1430 L
gr

c9
gs 1875 453 123 123 MR c np
c8
1906  514 mt 1966  514 L
1936  484 mt 1936  544 L
gr

c8
gs 5512 1396 123 123 MR c np
c9
5543 1457 mt 5603 1457 L
5573 1427 mt 5573 1487 L
gr

c9
gs 2082 445 123 123 MR c np
c8
2113  506 mt 2173  506 L
2143  476 mt 2143  536 L
gr

c8
gs 3293 1137 123 123 MR c np
c9
3324 1198 mt 3384 1198 L
3354 1168 mt 3354 1228 L
gr

c9
gr

c9
gs 2121 328 123 123 MR c np
c8
2152  389 mt 2212  389 L
2182  359 mt 2182  419 L
gr

c8
gs 899 389 5357 4227 MR c np
0 j
gs 3354 1617 123 123 MR c np
c9
3385 1678 mt 3445 1678 L
3415 1648 mt 3415 1708 L
gr

c9
gs 1999 427 123 123 MR c np
c8
2030  488 mt 2090  488 L
2060  458 mt 2060  518 L
gr

c8
gs 3347 1556 123 123 MR c np
c9
3378 1617 mt 3438 1617 L
3408 1587 mt 3408 1647 L
gr

c9
gr

c9
gs 2216 328 123 123 MR c np
c8
2247  389 mt 2307  389 L
2277  359 mt 2277  419 L
gr

c8
gs 899 389 5357 4227 MR c np
0 j
gs 3803 1556 123 123 MR c np
c9
3834 1617 mt 3894 1617 L
3864 1587 mt 3864 1647 L
gr

c9
gr

c9
gs 1723 328 123 123 MR c np
c8
1754  389 mt 1814  389 L
1784  359 mt 1784  419 L
gr

c8
gs 899 389 5357 4227 MR c np
0 j
gs 3533 1703 123 123 MR c np
c9
3564 1764 mt 3624 1764 L
3594 1734 mt 3594 1794 L
gr

c9
gs 1892 439 123 123 MR c np
c8
1923  500 mt 1983  500 L
1953  470 mt 1953  530 L
gr

c8
gs 4263 2173 123 123 MR c np
c9
4294 2234 mt 4354 2234 L
4324 2204 mt 4324 2264 L
gr

c9
gs 2109 453 123 123 MR c np
c8
2140  514 mt 2200  514 L
2170  484 mt 2170  544 L
gr

c8
gs 4935 2095 123 123 MR c np
c9
4966 2156 mt 5026 2156 L
4996 2126 mt 4996 2186 L
gr

c9
gr

c9
gs 2214 328 123 123 MR c np
c8
2245  389 mt 2305  389 L
2275  359 mt 2275  419 L
gr

c8
gs 899 389 5357 4227 MR c np
0 j
gs 5552 1615 123 123 MR c np
c9
5583 1676 mt 5643 1676 L
5613 1646 mt 5613 1706 L
gr

c9
gr

c9
gs 1706 330 123 123 MR c np
c8
1737  391 mt 1797  391 L
1767  361 mt 1767  421 L
gr

c8
gs 899 389 5357 4227 MR c np
0 j
gs 5617 1594 123 123 MR c np
c9
5648 1655 mt 5708 1655 L
5678 1625 mt 5678 1685 L
gr

c9
gr

c9
gs 1651 328 123 123 MR c np
c8
1682  389 mt 1742  389 L
1712  359 mt 1712  419 L
gr

c8
gs 899 389 5357 4227 MR c np
0 j
gs 5379 2009 123 123 MR c np
c9
5410 2070 mt 5470 2070 L
5440 2040 mt 5440 2100 L
gr

c9
gr

c9
gs 1358 328 123 123 MR c np
c8
1389  389 mt 1449  389 L
1419  359 mt 1419  419 L
gr

c8
gs 899 389 5357 4227 MR c np
0 j
gs 3316 1950 123 123 MR c np
c9
3347 2011 mt 3407 2011 L
3377 1981 mt 3377 2041 L
gr

c9
gs 1660 453 123 123 MR c np
c8
1691  514 mt 1751  514 L
1721  484 mt 1721  544 L
gr

c8
gs 4937 1965 123 123 MR c np
c9
4968 2026 mt 5028 2026 L
4998 1996 mt 4998 2056 L
gr

c9
gr

c9
gs 2224 328 123 123 MR c np
c8
2255  389 mt 2315  389 L
2285  359 mt 2285  419 L
gr

c8
gs 899 389 5357 4227 MR c np
0 j
gs 3614 1633 123 123 MR c np
c9
3645 1694 mt 3705 1694 L
3675 1664 mt 3675 1724 L
gr

c9
gs 1889 453 123 123 MR c np
c8
1920  514 mt 1980  514 L
1950  484 mt 1950  544 L
gr

c8
gs 4729 2212 123 123 MR c np
c9
4760 2273 mt 4820 2273 L
4790 2243 mt 4790 2303 L
gr

c9
gs 2031 453 123 123 MR c np
c8
2062  514 mt 2122  514 L
2092  484 mt 2092  544 L
gr

c8
gs 5253 2335 123 123 MR c np
c9
5284 2396 mt 5344 2396 L
5314 2366 mt 5314 2426 L
gr

c9
gs 2243 446 123 123 MR c np
c8
2274  507 mt 2334  507 L
2304  477 mt 2304  537 L
gr

c8
gs 5775 2058 123 123 MR c np
c9
5806 2119 mt 5866 2119 L
5836 2089 mt 5836 2149 L
gr

c9
gr

c9
gs 2045 328 123 123 MR c np
c8
2076  389 mt 2136  389 L
2106  359 mt 2106  419 L
gr

c8
gs 899 389 5357 4227 MR c np
0 j
gs 3412 1709 123 123 MR c np
c9
3443 1770 mt 3503 1770 L
3473 1740 mt 3473 1800 L
gr

c9
gr

c9
gs 2186 328 123 123 MR c np
c8
2217  389 mt 2277  389 L
2247  359 mt 2247  419 L
gr

c8
gs 899 389 5357 4227 MR c np
0 j
gs 3717 1668 123 123 MR c np
c9
3748 1729 mt 3808 1729 L
3778 1699 mt 3778 1759 L
gr

c9
gr

c9
gs 2016 328 123 123 MR c np
0 j
30 39 -30 39 -30 -39 30 -39 2077 428 5 MP
c8
DP
gr

c8
gs 899 389 5357 4227 MR c np
0 j
gs 4999 1329 123 123 MR c np
30 39 -30 39 -30 -39 30 -39 5060 1429 5 MP
c9
DP
gr

c9
gr

c9
gs 1875 328 123 123 MR c np
0 j
30 39 -30 39 -30 -39 30 -39 1936 428 5 MP
c8
DP
gr

c8
gs 899 389 5357 4227 MR c np
0 j
gs 5512 1391 123 123 MR c np
30 39 -30 39 -30 -39 30 -39 5573 1491 5 MP
c9
DP
gr

c9
gr

c9
gs 2081 328 123 123 MR c np
0 j
30 39 -30 39 -30 -39 30 -39 2142 428 5 MP
c8
DP
gr

c8
gs 899 389 5357 4227 MR c np
0 j
gs 3293 1083 123 123 MR c np
30 39 -30 39 -30 -39 30 -39 3354 1183 5 MP
c9
DP
gr

c9
gr

c9
gs 2121 328 123 123 MR c np
0 j
30 39 -30 39 -30 -39 30 -39 2182 428 5 MP
c8
DP
gr

c8
gs 899 389 5357 4227 MR c np
0 j
gs 3354 1633 123 123 MR c np
30 39 -30 39 -30 -39 30 -39 3415 1733 5 MP
c9
DP
gr

c9
gr

c9
gs 1999 328 123 123 MR c np
0 j
30 39 -30 39 -30 -39 30 -39 2060 428 5 MP
c8
DP
gr

c8
gs 899 389 5357 4227 MR c np
0 j
gs 3347 1556 123 123 MR c np
30 39 -30 39 -30 -39 30 -39 3408 1656 5 MP
c9
DP
gr

c9
gr

c9
gs 2216 328 123 123 MR c np
0 j
30 39 -30 39 -30 -39 30 -39 2277 428 5 MP
c8
DP
gr

c8
gs 899 389 5357 4227 MR c np
0 j
gs 3803 1560 123 123 MR c np
30 39 -30 39 -30 -39 30 -39 3864 1660 5 MP
c9
DP
gr

c9
gr

c9
gs 1723 328 123 123 MR c np
0 j
30 39 -30 39 -30 -39 30 -39 1784 428 5 MP
c8
DP
gr

c8
gs 899 389 5357 4227 MR c np
0 j
gs 3533 1703 123 123 MR c np
30 39 -30 39 -30 -39 30 -39 3594 1803 5 MP
c9
DP
gr

c9
gr

c9
gs 1891 328 123 123 MR c np
0 j
30 39 -30 39 -30 -39 30 -39 1952 428 5 MP
c8
DP
gr

c8
gs 899 389 5357 4227 MR c np
0 j
gs 4263 2144 123 123 MR c np
30 39 -30 39 -30 -39 30 -39 4324 2244 5 MP
c9
DP
gr

c9
gr

c9
gs 2109 328 123 123 MR c np
0 j
30 39 -30 39 -30 -39 30 -39 2170 428 5 MP
c8
DP
gr

c8
gs 899 389 5357 4227 MR c np
0 j
gs 4935 2077 123 123 MR c np
30 39 -30 39 -30 -39 30 -39 4996 2177 5 MP
c9
DP
gr

c9
gr

c9
gs 2214 328 123 123 MR c np
0 j
30 39 -30 39 -30 -39 30 -39 2275 428 5 MP
c8
DP
gr

c8
gs 899 389 5357 4227 MR c np
0 j
gs 5552 1633 123 123 MR c np
30 39 -30 39 -30 -39 30 -39 5613 1733 5 MP
c9
DP
gr

c9
gr

c9
gs 1706 328 123 123 MR c np
0 j
30 39 -30 39 -30 -39 30 -39 1767 428 5 MP
c8
DP
gr

c8
gs 899 389 5357 4227 MR c np
0 j
gs 5617 1631 123 123 MR c np
30 39 -30 39 -30 -39 30 -39 5678 1731 5 MP
c9
DP
gr

c9
gr

c9
gs 1651 328 123 123 MR c np
0 j
30 39 -30 39 -30 -39 30 -39 1712 428 5 MP
c8
DP
gr

c8
gs 899 389 5357 4227 MR c np
0 j
gs 5379 2026 123 123 MR c np
30 39 -30 39 -30 -39 30 -39 5440 2126 5 MP
c9
DP
gr

c9
gr

c9
gs 1357 328 123 123 MR c np
0 j
30 39 -30 39 -30 -39 30 -39 1418 428 5 MP
c8
DP
gr

c8
gs 899 389 5357 4227 MR c np
0 j
gs 3316 1902 123 123 MR c np
30 39 -30 39 -30 -39 30 -39 3377 2002 5 MP
c9
DP
gr

c9
gr

c9
gs 1660 328 123 123 MR c np
0 j
30 39 -30 39 -30 -39 30 -39 1721 428 5 MP
c8
DP
gr

c8
gs 899 389 5357 4227 MR c np
0 j
gs 4937 1965 123 123 MR c np
30 39 -30 39 -30 -39 30 -39 4998 2065 5 MP
c9
DP
gr

c9
gr

c9
gs 2224 328 123 123 MR c np
0 j
30 39 -30 39 -30 -39 30 -39 2285 428 5 MP
c8
DP
gr

c8
gs 899 389 5357 4227 MR c np
0 j
gs 3614 1633 123 123 MR c np
30 39 -30 39 -30 -39 30 -39 3675 1733 5 MP
c9
DP
gr

c9
gr

c9
gs 1889 328 123 123 MR c np
0 j
30 39 -30 39 -30 -39 30 -39 1950 428 5 MP
c8
DP
gr

c8
gs 899 389 5357 4227 MR c np
0 j
gs 4729 2212 123 123 MR c np
30 39 -30 39 -30 -39 30 -39 4790 2312 5 MP
c9
DP
gr

c9
gr

c9
gs 2030 328 123 123 MR c np
0 j
30 39 -30 39 -30 -39 30 -39 2091 428 5 MP
c8
DP
gr

c8
gs 899 389 5357 4227 MR c np
0 j
gs 5253 2317 123 123 MR c np
30 39 -30 39 -30 -39 30 -39 5314 2417 5 MP
c9
DP
gr

c9
gr

c9
gs 2243 328 123 123 MR c np
0 j
30 39 -30 39 -30 -39 30 -39 2304 428 5 MP
c8
DP
gr

c8
gs 899 389 5357 4227 MR c np
0 j
gs 5775 2026 123 123 MR c np
30 39 -30 39 -30 -39 30 -39 5836 2126 5 MP
c9
DP
gr

c9
gr

c9
gs 2045 328 123 123 MR c np
0 j
30 39 -30 39 -30 -39 30 -39 2106 428 5 MP
c8
DP
gr

c8
gs 899 389 5357 4227 MR c np
0 j
gs 3412 1703 123 123 MR c np
30 39 -30 39 -30 -39 30 -39 3473 1803 5 MP
c9
DP
gr

c9
gr

c9
gs 2187 328 123 123 MR c np
0 j
30 39 -30 39 -30 -39 30 -39 2248 428 5 MP
c8
DP
gr

c8
gs 899 389 5357 4227 MR c np
0 j
gs 3717 1702 123 123 MR c np
30 39 -30 39 -30 -39 30 -39 3778 1802 5 MP
c9
DP
gr

c9
gr

c9
0 sg
%%IncludeResource: font Symbol
/Symbol /ISOLatin1Encoding 120 FMSR

3541 4934 mt 
(m) s
%%IncludeResource: font Helvetica
/Helvetica /ISOLatin1Encoding 120 FMSR

 616 2640 mt  -90 rotate
(MCC) s
90 rotate
 870 4670 mt 
( ) s
6227  443 mt 
( ) s
1 sg
0 888 1166 0 0 -888 1042 4481 4 MP
PP
-1166 0 0 888 1166 0 0 -888 1042 4481 5 MP stroke
4 w
DO
SO
6 w
0 sg
1042 4481 mt 2208 4481 L
1042 3593 mt 2208 3593 L
1042 4481 mt 1042 3593 L
2208 4481 mt 2208 3593 L
1042 4481 mt 2208 4481 L
1042 4481 mt 1042 3593 L
1042 4481 mt 2208 4481 L
1042 3593 mt 2208 3593 L
1042 4481 mt 1042 3593 L
2208 4481 mt 2208 3593 L
1510 3741 mt 
(SNR = 0.1) s
gs 1042 3593 1167 889 MR c np
0 j
gs 1220 3625 147 147 MR c np
0 -58 -58 0 0 58 58 0 1264 3669 5 MP
DP
gr

gr

1510 3910 mt 
(SNR = 1) s
gs 1042 3593 1167 889 MR c np
0 j
gs 1220 3794 147 147 MR c np
1268 3842 mt 1318 3892 L
1318 3842 mt 1268 3892 L
gr

gr

1510 4080 mt 
(SNR = 10) s
gs 1042 3593 1167 889 MR c np
0 j
gs 1220 3964 147 147 MR c np
41 71 -82 0 41 -71 1293 4084 4 MP
DP
gr

gr

1510 4249 mt 
(SNR = 100) s
gs 1042 3593 1167 889 MR c np
0 j
gs 1220 4133 147 147 MR c np
1257 4206 mt 1329 4206 L
1293 4170 mt 1293 4242 L
gr

gr

1510 4418 mt 
(SNR = 1000) s
gs 1042 3593 1167 889 MR c np
0 j
gs 1220 4302 147 147 MR c np
36 47 -36 47 -36 -47 36 -47 1293 4422 5 MP
DP
gr

gr


end %%Color Dict

eplot
%%EndObject

epage
end

showpage

%%Trailer
%%EOF
