%!PS-Adobe-2.0 EPSF-1.2
%%Creator: MATLAB, The MathWorks, Inc. Version 8.2.0.701 (R2013b). Operating System: Linux 3.11.0-20-generic #35-Ubuntu SMP Fri May 2 21:32:49 UTC 2014 x86_64.
%%Title: ../img/SIC-minRegDiff.eps
%%CreationDate: 05/23/2014  15:47:46
%%DocumentNeededFonts: Helvetica
%%DocumentProcessColors: Cyan Magenta Yellow Black
%%Extensions: CMYK
%%Pages: 1
%%BoundingBox:    58   196   546   591
%%EndComments

%%BeginProlog
% MathWorks dictionary
/MathWorks 160 dict begin
% definition operators
/bdef {bind def} bind def
/ldef {load def} bind def
/xdef {exch def} bdef
/xstore {exch store} bdef
% operator abbreviations
/c  /clip ldef
/cc /concat ldef
/cp /closepath ldef
/gr /grestore ldef
/gs /gsave ldef
/mt /moveto ldef
/np /newpath ldef
/cm /currentmatrix ldef
/sm /setmatrix ldef
/rm /rmoveto ldef
/rl /rlineto ldef
/s {show newpath} bdef
/sc {setcmykcolor} bdef
/sr /setrgbcolor ldef
/sg /setgray ldef
/w /setlinewidth ldef
/j /setlinejoin ldef
/cap /setlinecap ldef
/rc {rectclip} bdef
/rf {rectfill} bdef
% page state control
/pgsv () def
/bpage {/pgsv save def} bdef
/epage {pgsv restore} bdef
/bplot /gsave ldef
/eplot {stroke grestore} bdef
% orientation switch
/portraitMode 0 def /landscapeMode 1 def /rotateMode 2 def
% coordinate system mappings
/dpi2point 0 def
% font control
/FontSize 0 def
/FMS {/FontSize xstore findfont [FontSize 0 0 FontSize neg 0 0]
  makefont setfont} bdef
/reencode {exch dup where {pop load} {pop StandardEncoding} ifelse
  exch dup 3 1 roll findfont dup length dict begin
  { 1 index /FID ne {def}{pop pop} ifelse } forall
  /Encoding exch def currentdict end definefont pop} bdef
/isroman {findfont /CharStrings get /Agrave known} bdef
/FMSR {3 1 roll 1 index dup isroman {reencode} {pop pop} ifelse
  exch FMS} bdef
/csm {1 dpi2point div -1 dpi2point div scale neg translate
 dup landscapeMode eq {pop -90 rotate}
  {rotateMode eq {90 rotate} if} ifelse} bdef
% line types: solid, dotted, dashed, dotdash
/SO { [] 0 setdash } bdef
/DO { [.5 dpi2point mul 4 dpi2point mul] 0 setdash } bdef
/DA { [6 dpi2point mul] 0 setdash } bdef
/DD { [.5 dpi2point mul 4 dpi2point mul 6 dpi2point mul 4
  dpi2point mul] 0 setdash } bdef
% macros for lines and objects
/L {lineto stroke} bdef
/MP {3 1 roll moveto 1 sub {rlineto} repeat} bdef
/AP {{rlineto} repeat} bdef
/PDlw -1 def
/W {/PDlw currentlinewidth def setlinewidth} def
/PP {closepath eofill} bdef
/DP {closepath stroke} bdef
/MR {4 -2 roll moveto dup  0 exch rlineto exch 0 rlineto
  neg 0 exch rlineto closepath} bdef
/FR {MR stroke} bdef
/PR {MR fill} bdef
/L1i {{currentfile picstr readhexstring pop} image} bdef
/tMatrix matrix def
/MakeOval {newpath tMatrix currentmatrix pop translate scale
0 0 1 0 360 arc tMatrix setmatrix} bdef
/FO {MakeOval stroke} bdef
/PO {MakeOval fill} bdef
/PD {currentlinewidth 2 div 0 360 arc fill
   PDlw -1 eq not {PDlw w /PDlw -1 def} if} def
/FA {newpath tMatrix currentmatrix pop translate scale
  0 0 1 5 -2 roll arc tMatrix setmatrix stroke} bdef
/PA {newpath tMatrix currentmatrix pop	translate 0 0 moveto scale
  0 0 1 5 -2 roll arc closepath tMatrix setmatrix fill} bdef
/FAn {newpath tMatrix currentmatrix pop translate scale
  0 0 1 5 -2 roll arcn tMatrix setmatrix stroke} bdef
/PAn {newpath tMatrix currentmatrix pop translate 0 0 moveto scale
  0 0 1 5 -2 roll arcn closepath tMatrix setmatrix fill} bdef
/vradius 0 def /hradius 0 def /lry 0 def
/lrx 0 def /uly 0 def /ulx 0 def /rad 0 def
/MRR {/vradius xdef /hradius xdef /lry xdef /lrx xdef /uly xdef
  /ulx xdef newpath tMatrix currentmatrix pop ulx hradius add uly
  vradius add translate hradius vradius scale 0 0 1 180 270 arc 
  tMatrix setmatrix lrx hradius sub uly vradius add translate
  hradius vradius scale 0 0 1 270 360 arc tMatrix setmatrix
  lrx hradius sub lry vradius sub translate hradius vradius scale
  0 0 1 0 90 arc tMatrix setmatrix ulx hradius add lry vradius sub
  translate hradius vradius scale 0 0 1 90 180 arc tMatrix setmatrix
  closepath} bdef
/FRR {MRR stroke } bdef
/PRR {MRR fill } bdef
/MlrRR {/lry xdef /lrx xdef /uly xdef /ulx xdef /rad lry uly sub 2 div def
  newpath tMatrix currentmatrix pop ulx rad add uly rad add translate
  rad rad scale 0 0 1 90 270 arc tMatrix setmatrix lrx rad sub lry rad
  sub translate rad rad scale 0 0 1 270 90 arc tMatrix setmatrix
  closepath} bdef
/FlrRR {MlrRR stroke } bdef
/PlrRR {MlrRR fill } bdef
/MtbRR {/lry xdef /lrx xdef /uly xdef /ulx xdef /rad lrx ulx sub 2 div def
  newpath tMatrix currentmatrix pop ulx rad add uly rad add translate
  rad rad scale 0 0 1 180 360 arc tMatrix setmatrix lrx rad sub lry rad
  sub translate rad rad scale 0 0 1 0 180 arc tMatrix setmatrix
  closepath} bdef
/FtbRR {MtbRR stroke } bdef
/PtbRR {MtbRR fill } bdef
/stri 6 array def /dtri 6 array def
/smat 6 array def /dmat 6 array def
/tmat1 6 array def /tmat2 6 array def /dif 3 array def
/asub {/ind2 exch def /ind1 exch def dup dup
  ind1 get exch ind2 get sub exch } bdef
/tri_to_matrix {
  2 0 asub 3 1 asub 4 0 asub 5 1 asub
  dup 0 get exch 1 get 7 -1 roll astore } bdef
/compute_transform {
  dmat dtri tri_to_matrix tmat1 invertmatrix 
  smat stri tri_to_matrix tmat2 concatmatrix } bdef
/ds {stri astore pop} bdef
/dt {dtri astore pop} bdef
/db {2 copy /cols xdef /rows xdef mul dup 3 mul string
  currentfile exch readhexstring pop
  dup 0 3 index getinterval /rbmap xdef
  dup 2 index dup getinterval /gbmap xdef
  1 index dup 2 mul exch getinterval /bbmap xdef pop pop}bdef
/it {gs np dtri aload pop moveto lineto lineto cp c
  cols rows 8 compute_transform 
  rbmap gbmap bbmap true 3 colorimage gr}bdef
/il {newpath moveto lineto stroke}bdef
currentdict end def
%%EndProlog

%%BeginSetup
MathWorks begin

0 cap

end
%%EndSetup

%%Page: 1 1
%%BeginPageSetup
%%PageBoundingBox:    58   196   546   591
MathWorks begin
bpage
%%EndPageSetup

%%BeginObject: obj1
bplot

/dpi2point 12 def
portraitMode 0216 7344 csm

  480   247  5865  4740 MR c np
85 dict begin %Colortable dictionary
/c0 { 0.000000 0.000000 0.000000 sr} bdef
/c1 { 1.000000 1.000000 1.000000 sr} bdef
/c2 { 0.900000 0.000000 0.000000 sr} bdef
/c3 { 0.000000 0.820000 0.000000 sr} bdef
/c4 { 0.000000 0.000000 0.800000 sr} bdef
/c5 { 0.910000 0.820000 0.320000 sr} bdef
/c6 { 1.000000 0.260000 0.820000 sr} bdef
/c7 { 0.000000 0.820000 0.820000 sr} bdef
c0
1 j
1 sg
   0    0 6913 5186 PR
6 w
0 4226 5356 0 0 -4226 899 4615 4 MP
PP
-5356 0 0 4226 5356 0 0 -4226 899 4615 5 MP stroke
4 w
DO
0 sg
 899 4615 mt  899  389 L
 899  389 mt  899  389 L
1434 4615 mt 1434  389 L
1434  389 mt 1434  389 L
1970 4615 mt 1970  389 L
1970  389 mt 1970  389 L
2505 4615 mt 2505  389 L
2505  389 mt 2505  389 L
3041 4615 mt 3041  389 L
3041  389 mt 3041  389 L
3577 4615 mt 3577  389 L
3577  389 mt 3577  389 L
4112 4615 mt 4112  389 L
4112  389 mt 4112  389 L
4648 4615 mt 4648  389 L
4648  389 mt 4648  389 L
5183 4615 mt 5183  389 L
5183  389 mt 5183  389 L
5719 4615 mt 5719  389 L
5719  389 mt 5719  389 L
6255 4615 mt 6255  389 L
6255  389 mt 6255  389 L
 899 4615 mt 6255 4615 L
6255 4615 mt 6255 4615 L
 899 4145 mt 6255 4145 L
6255 4145 mt 6255 4145 L
 899 3675 mt 6255 3675 L
6255 3675 mt 6255 3675 L
 899 3206 mt 6255 3206 L
6255 3206 mt 6255 3206 L
 899 2736 mt 6255 2736 L
6255 2736 mt 6255 2736 L
 899 2267 mt 6255 2267 L
6255 2267 mt 6255 2267 L
 899 1797 mt 6255 1797 L
6255 1797 mt 6255 1797 L
 899 1328 mt 6255 1328 L
6255 1328 mt 6255 1328 L
 899  858 mt 6255  858 L
6255  858 mt 6255  858 L
 899  389 mt 6255  389 L
6255  389 mt 6255  389 L
SO
6 w
 899 4615 mt 6255 4615 L
 899 4615 mt  899  389 L
 899 4615 mt  899 4561 L
%%IncludeResource: font Helvetica
/Helvetica /ISOLatin1Encoding 120 FMSR

 866 4760 mt 
(0) s
1434 4615 mt 1434 4561 L
1351 4760 mt 
(0.1) s
1970 4615 mt 1970 4561 L
1887 4760 mt 
(0.2) s
2505 4615 mt 2505 4561 L
2422 4760 mt 
(0.3) s
3041 4615 mt 3041 4561 L
2958 4760 mt 
(0.4) s
3577 4615 mt 3577 4561 L
3494 4760 mt 
(0.5) s
4112 4615 mt 4112 4561 L
4029 4760 mt 
(0.6) s
4648 4615 mt 4648 4561 L
4565 4760 mt 
(0.7) s
5183 4615 mt 5183 4561 L
5100 4760 mt 
(0.8) s
5719 4615 mt 5719 4561 L
5636 4760 mt 
(0.9) s
6255 4615 mt 6255 4561 L
6222 4760 mt 
(1) s
 899 4615 mt  952 4615 L
 698 4659 mt 
(0.1) s
 899 4145 mt  952 4145 L
 698 4189 mt 
(0.2) s
 899 3675 mt  952 3675 L
 698 3719 mt 
(0.3) s
 899 3206 mt  952 3206 L
 698 3250 mt 
(0.4) s
 899 2736 mt  952 2736 L
 698 2780 mt 
(0.5) s
 899 2267 mt  952 2267 L
 698 2311 mt 
(0.6) s
 899 1797 mt  952 1797 L
 698 1841 mt 
(0.7) s
 899 1328 mt  952 1328 L
 698 1372 mt 
(0.8) s
 899  858 mt  952  858 L
 698  902 mt 
(0.9) s
 899  389 mt  952  389 L
 798  433 mt 
(1) s
gs 899 389 5357 4227 MR c np
0 j
gs 4182 4011 123 123 MR c np
0 -48 -48 0 0 48 48 0 4219 4048 5 MP
/c8 { 0.000000 0.000000 0.562500 sr} bdef
c8
DP
gr

c8
gs 1011 2991 123 123 MR c np
0 -48 -48 0 0 48 48 0 1048 3028 5 MP
/c9 { 0.500000 0.000000 0.000000 sr} bdef
c9
DP
gr

c9
gs 4147 4075 123 123 MR c np
0 -48 -48 0 0 48 48 0 4184 4112 5 MP
c8
DP
gr

c8
gs 937 3033 123 123 MR c np
0 -48 -48 0 0 48 48 0 974 3070 5 MP
c9
DP
gr

c9
gs 4160 3613 123 123 MR c np
0 -48 -48 0 0 48 48 0 4197 3650 5 MP
c8
DP
gr

c8
gs 3170 3520 123 123 MR c np
0 -48 -48 0 0 48 48 0 3207 3557 5 MP
c9
DP
gr

c9
gs 4164 3467 123 123 MR c np
0 -48 -48 0 0 48 48 0 4201 3504 5 MP
c8
DP
gr

c8
gs 2905 3434 123 123 MR c np
0 -48 -48 0 0 48 48 0 2942 3471 5 MP
c9
DP
gr

c9
gs 4185 3354 123 123 MR c np
0 -48 -48 0 0 48 48 0 4222 3391 5 MP
c8
DP
gr

c8
gs 2777 3329 123 123 MR c np
0 -48 -48 0 0 48 48 0 2814 3366 5 MP
c9
DP
gr

c9
gs 4123 3583 123 123 MR c np
0 -48 -48 0 0 48 48 0 4160 3620 5 MP
c8
DP
gr

c8
gs 2453 3474 123 123 MR c np
0 -48 -48 0 0 48 48 0 2490 3511 5 MP
c9
DP
gr

c9
gs 4112 3718 123 123 MR c np
0 -48 -48 0 0 48 48 0 4149 3755 5 MP
c8
DP
gr

c8
gs 2830 3514 123 123 MR c np
0 -48 -48 0 0 48 48 0 2867 3551 5 MP
c9
DP
gr

c9
gs 4156 3739 123 123 MR c np
0 -48 -48 0 0 48 48 0 4193 3776 5 MP
c8
DP
gr

c8
gs 2121 3418 123 123 MR c np
0 -48 -48 0 0 48 48 0 2158 3455 5 MP
c9
DP
gr

c9
gs 4116 4236 123 123 MR c np
0 -48 -48 0 0 48 48 0 4153 4273 5 MP
c8
DP
gr

c8
gs 965 3336 123 123 MR c np
0 -48 -48 0 0 48 48 0 1002 3373 5 MP
c9
DP
gr

c9
gs 4160 4114 123 123 MR c np
0 -48 -48 0 0 48 48 0 4197 4151 5 MP
c8
DP
gr

c8
gs 959 3488 123 123 MR c np
0 -48 -48 0 0 48 48 0 996 3525 5 MP
c9
DP
gr

c9
gs 4146 3879 123 123 MR c np
0 -48 -48 0 0 48 48 0 4183 3916 5 MP
c8
DP
gr

c8
gs 950 3011 123 123 MR c np
0 -48 -48 0 0 48 48 0 987 3048 5 MP
c9
DP
gr

c9
gs 4156 4274 123 123 MR c np
0 -48 -48 0 0 48 48 0 4193 4311 5 MP
c8
DP
gr

c8
gs 989 3433 123 123 MR c np
0 -48 -48 0 0 48 48 0 1026 3470 5 MP
c9
DP
gr

c9
gs 4195 3770 123 123 MR c np
0 -48 -48 0 0 48 48 0 4232 3807 5 MP
c8
DP
gr

c8
gs 2947 3952 123 123 MR c np
0 -48 -48 0 0 48 48 0 2984 3989 5 MP
c9
DP
gr

c9
gs 4134 4113 123 123 MR c np
0 -48 -48 0 0 48 48 0 4171 4150 5 MP
c8
DP
gr

c8
gs 1019 3266 123 123 MR c np
0 -48 -48 0 0 48 48 0 1056 3303 5 MP
c9
DP
gr

c9
gs 4172 3549 123 123 MR c np
0 -48 -48 0 0 48 48 0 4209 3586 5 MP
c8
DP
gr

c8
gs 2585 3490 123 123 MR c np
0 -48 -48 0 0 48 48 0 2622 3527 5 MP
c9
DP
gr

c9
gs 4123 3833 123 123 MR c np
0 -48 -48 0 0 48 48 0 4160 3870 5 MP
c8
DP
gr

c8
gs 1076 3628 123 123 MR c np
0 -48 -48 0 0 48 48 0 1113 3665 5 MP
c9
DP
gr

c9
gs 4196 3941 123 123 MR c np
0 -48 -48 0 0 48 48 0 4233 3978 5 MP
c8
DP
gr

c8
gs 950 2986 123 123 MR c np
0 -48 -48 0 0 48 48 0 987 3023 5 MP
c9
DP
gr

c9
gs 4156 3605 123 123 MR c np
0 -48 -48 0 0 48 48 0 4193 3642 5 MP
c8
DP
gr

c8
gs 957 3175 123 123 MR c np
0 -48 -48 0 0 48 48 0 994 3212 5 MP
c9
DP
gr

c9
gs 4184 3466 123 123 MR c np
0 -48 -48 0 0 48 48 0 4221 3503 5 MP
c8
DP
gr

c8
gs 2444 3292 123 123 MR c np
0 -48 -48 0 0 48 48 0 2481 3329 5 MP
c9
DP
gr

c9
gs 4203 3558 123 123 MR c np
0 -48 -48 0 0 48 48 0 4240 3595 5 MP
c8
DP
gr

c8
gs 2760 3940 123 123 MR c np
0 -48 -48 0 0 48 48 0 2797 3977 5 MP
c9
DP
gr

c9
gs 5282 1418 123 123 MR c np
c8
5322 1458 mt 5364 1500 L
5364 1458 mt 5322 1500 L
gr

c8
gs 937 1981 123 123 MR c np
c9
 977 2021 mt 1019 2063 L
1019 2021 mt  977 2063 L
gr

c9
gs 5275 1579 123 123 MR c np
c8
5315 1619 mt 5357 1661 L
5357 1619 mt 5315 1661 L
gr

c8
gr

c8
gs 896 1640 123 123 MR c np
c9
 936 1680 mt  978 1722 L
 978 1680 mt  936 1722 L
gr

c9
gs 899 389 5357 4227 MR c np
0 j
gs 5179 1160 123 123 MR c np
c8
5219 1200 mt 5261 1242 L
5261 1200 mt 5219 1242 L
gr

c8
gs 2396 1483 123 123 MR c np
c9
2436 1523 mt 2478 1565 L
2478 1523 mt 2436 1565 L
gr

c9
gs 4914 833 123 123 MR c np
c8
4954  873 mt 4996  915 L
4996  873 mt 4954  915 L
gr

c8
gs 2311 2141 123 123 MR c np
c9
2351 2181 mt 2393 2223 L
2393 2181 mt 2351 2223 L
gr

c9
gs 5057 1012 123 123 MR c np
c8
5097 1052 mt 5139 1094 L
5139 1052 mt 5097 1094 L
gr

c8
gs 2045 1914 123 123 MR c np
c9
2085 1954 mt 2127 1996 L
2127 1954 mt 2085 1996 L
gr

c9
gs 4958 1205 123 123 MR c np
c8
4998 1245 mt 5040 1287 L
5040 1245 mt 4998 1287 L
gr

c8
gs 1740 2225 123 123 MR c np
c9
1780 2265 mt 1822 2307 L
1822 2265 mt 1780 2307 L
gr

c9
gs 5136 714 123 123 MR c np
c8
5176  754 mt 5218  796 L
5218  754 mt 5176  796 L
gr

c8
gs 2376 2072 123 123 MR c np
c9
2416 2112 mt 2458 2154 L
2458 2112 mt 2416 2154 L
gr

c9
gs 5358 844 123 123 MR c np
c8
5398  884 mt 5440  926 L
5440  884 mt 5398  926 L
gr

c8
gs 1697 2566 123 123 MR c np
c9
1737 2606 mt 1779 2648 L
1779 2606 mt 1737 2648 L
gr

c9
gs 5382 1775 123 123 MR c np
c8
5422 1815 mt 5464 1857 L
5464 1815 mt 5422 1857 L
gr

c8
gs 902 2388 123 123 MR c np
c9
 942 2428 mt  984 2470 L
 984 2428 mt  942 2470 L
gr

c9
gs 5326 1736 123 123 MR c np
c8
5366 1776 mt 5408 1818 L
5408 1776 mt 5366 1818 L
gr

c8
gr

c8
gs 891 2127 123 123 MR c np
c9
 931 2167 mt  973 2209 L
 973 2167 mt  931 2209 L
gr

c9
gs 899 389 5357 4227 MR c np
0 j
gs 5338 1358 123 123 MR c np
c8
5378 1398 mt 5420 1440 L
5420 1398 mt 5378 1440 L
gr

c8
gs 899 2044 123 123 MR c np
c9
 939 2084 mt  981 2126 L
 981 2084 mt  939 2126 L
gr

c9
gs 5347 1460 123 123 MR c np
c8
5387 1500 mt 5429 1542 L
5429 1500 mt 5387 1542 L
gr

c8
gs 943 2217 123 123 MR c np
c9
 983 2257 mt 1025 2299 L
1025 2257 mt  983 2299 L
gr

c9
gs 5263 578 123 123 MR c np
c8
5303  618 mt 5345  660 L
5345  618 mt 5303  660 L
gr

c8
gs 2381 2752 123 123 MR c np
c9
2421 2792 mt 2463 2834 L
2463 2792 mt 2421 2834 L
gr

c9
gs 5158 1879 123 123 MR c np
c8
5198 1919 mt 5240 1961 L
5240 1919 mt 5198 1961 L
gr

c8
gs 931 2363 123 123 MR c np
c9
 971 2403 mt 1013 2445 L
1013 2403 mt  971 2445 L
gr

c9
gs 4810 472 123 123 MR c np
c8
4850  512 mt 4892  554 L
4892  512 mt 4850  554 L
gr

c8
gs 2155 1878 123 123 MR c np
c9
2195 1918 mt 2237 1960 L
2237 1918 mt 2195 1960 L
gr

c9
gs 5275 1401 123 123 MR c np
c8
5315 1441 mt 5357 1483 L
5357 1441 mt 5315 1483 L
gr

c8
gs 1000 2413 123 123 MR c np
c9
1040 2453 mt 1082 2495 L
1082 2453 mt 1040 2495 L
gr

c9
gs 4810 1194 123 123 MR c np
c8
4850 1234 mt 4892 1276 L
4892 1234 mt 4850 1276 L
gr

c8
gs 922 2388 123 123 MR c np
c9
 962 2428 mt 1004 2470 L
1004 2428 mt  962 2470 L
gr

c9
gs 5086 1316 123 123 MR c np
c8
5126 1356 mt 5168 1398 L
5168 1356 mt 5126 1398 L
gr

c8
gs 909 2547 123 123 MR c np
c9
 949 2587 mt  991 2629 L
 991 2587 mt  949 2629 L
gr

c9
gs 5151 862 123 123 MR c np
c8
5191  902 mt 5233  944 L
5233  902 mt 5191  944 L
gr

c8
gs 2264 2156 123 123 MR c np
c9
2304 2196 mt 2346 2238 L
2346 2196 mt 2304 2238 L
gr

c9
gs 5130 764 123 123 MR c np
c8
5170  804 mt 5212  846 L
5212  804 mt 5170  846 L
gr

c8
gs 2382 2074 123 123 MR c np
c9
2422 2114 mt 2464 2156 L
2464 2114 mt 2422 2156 L
gr

c9
gs 5572 595 123 123 MR c np
34 59 -68 0 34 -59 5633 695 4 MP
c8
DP
gr

c8
gs 936 1499 123 123 MR c np
34 59 -68 0 34 -59 997 1599 4 MP
c9
DP
gr

c9
gs 5549 681 123 123 MR c np
34 59 -68 0 34 -59 5610 781 4 MP
c8
DP
gr

c8
gr

c8
gs 896 1429 123 123 MR c np
0 j
34 59 -68 0 34 -59 957 1529 4 MP
c9
DP
gr

c9
gs 899 389 5357 4227 MR c np
0 j
gs 5310 481 123 123 MR c np
34 59 -68 0 34 -59 5371 581 4 MP
c8
DP
gr

c8
gs 2374 1229 123 123 MR c np
34 59 -68 0 34 -59 2435 1329 4 MP
c9
DP
gr

c9
gr

gs 4978 345 123 123 MR c np
0 j
34 59 -68 0 34 -59 5039 445 4 MP
c8
DP
gr

c8
gs 899 389 5357 4227 MR c np
0 j
gs 2304 1691 123 123 MR c np
34 59 -68 0 34 -59 2365 1791 4 MP
c9
DP
gr

c9
gs 5194 453 123 123 MR c np
34 59 -68 0 34 -59 5255 553 4 MP
c8
DP
gr

c8
gs 2027 1517 123 123 MR c np
34 59 -68 0 34 -59 2088 1617 4 MP
c9
DP
gr

c9
gs 5114 579 123 123 MR c np
34 59 -68 0 34 -59 5175 679 4 MP
c8
DP
gr

c8
gs 1727 1713 123 123 MR c np
34 59 -68 0 34 -59 1788 1813 4 MP
c9
DP
gr

c9
gs 5279 453 123 123 MR c np
34 59 -68 0 34 -59 5340 553 4 MP
c8
DP
gr

c8
gs 2365 1776 123 123 MR c np
34 59 -68 0 34 -59 2426 1876 4 MP
c9
DP
gr

c9
gs 5824 573 123 123 MR c np
34 59 -68 0 34 -59 5885 673 4 MP
c8
DP
gr

c8
gs 1691 2349 123 123 MR c np
34 59 -68 0 34 -59 1752 2449 4 MP
c9
DP
gr

c9
gs 5746 680 123 123 MR c np
34 59 -68 0 34 -59 5807 780 4 MP
c8
DP
gr

c8
gs 902 2114 123 123 MR c np
34 59 -68 0 34 -59 963 2214 4 MP
c9
DP
gr

c9
gs 5514 442 123 123 MR c np
34 59 -68 0 34 -59 5575 542 4 MP
c8
DP
gr

c8
gr

gs 889 1771 123 123 MR c np
0 j
34 59 -68 0 34 -59 950 1871 4 MP
c9
DP
gr

c9
gs 899 389 5357 4227 MR c np
0 j
gs 5743 573 123 123 MR c np
34 59 -68 0 34 -59 5804 673 4 MP
c8
DP
gr

c8
gr

c8
gs 898 1613 123 123 MR c np
0 j
34 59 -68 0 34 -59 959 1713 4 MP
c9
DP
gr

c9
gs 899 389 5357 4227 MR c np
0 j
gs 5826 624 123 123 MR c np
34 59 -68 0 34 -59 5887 724 4 MP
c8
DP
gr

c8
gs 942 1978 123 123 MR c np
34 59 -68 0 34 -59 1003 2078 4 MP
c9
DP
gr

c9
gs 5450 453 123 123 MR c np
34 59 -68 0 34 -59 5511 553 4 MP
c8
DP
gr

c8
gs 2365 2189 123 123 MR c np
34 59 -68 0 34 -59 2426 2289 4 MP
c9
DP
gr

c9
gs 5319 814 123 123 MR c np
34 59 -68 0 34 -59 5380 914 4 MP
c8
DP
gr

c8
gs 930 1984 123 123 MR c np
34 59 -68 0 34 -59 991 2084 4 MP
c9
DP
gr

c9
gr

gs 4943 328 123 123 MR c np
0 j
34 59 -68 0 34 -59 5004 428 4 MP
c8
DP
gr

c8
gs 899 389 5357 4227 MR c np
0 j
gs 2153 1622 123 123 MR c np
34 59 -68 0 34 -59 2214 1722 4 MP
c9
DP
gr

c9
gs 5710 464 123 123 MR c np
34 59 -68 0 34 -59 5771 564 4 MP
c8
DP
gr

c8
gs 999 2206 123 123 MR c np
34 59 -68 0 34 -59 1060 2306 4 MP
c9
DP
gr

c9
gs 4861 737 123 123 MR c np
34 59 -68 0 34 -59 4922 837 4 MP
c8
DP
gr

c8
gs 922 2435 123 123 MR c np
34 59 -68 0 34 -59 983 2535 4 MP
c9
DP
gr

c9
gs 5171 729 123 123 MR c np
34 59 -68 0 34 -59 5232 829 4 MP
c8
DP
gr

c8
gs 908 2175 123 123 MR c np
34 59 -68 0 34 -59 969 2275 4 MP
c9
DP
gr

c9
gs 5276 467 123 123 MR c np
34 59 -68 0 34 -59 5337 567 4 MP
c8
DP
gr

c8
gs 2263 1812 123 123 MR c np
34 59 -68 0 34 -59 2324 1912 4 MP
c9
DP
gr

c9
gr

c9
gs 5252 334 123 123 MR c np
0 j
34 59 -68 0 34 -59 5313 434 4 MP
c8
DP
gr

c8
gs 899 389 5357 4227 MR c np
0 j
gs 2373 1654 123 123 MR c np
34 59 -68 0 34 -59 2434 1754 4 MP
c9
DP
gr

c9
gr

c9
gs 5573 328 123 123 MR c np
c8
5604  389 mt 5664  389 L
5634  359 mt 5634  419 L
gr

c8
gs 899 389 5357 4227 MR c np
0 j
gs 936 1339 123 123 MR c np
c9
 967 1400 mt 1027 1400 L
 997 1370 mt  997 1430 L
gr

c9
gs 5551 453 123 123 MR c np
c8
5582  514 mt 5642  514 L
5612  484 mt 5612  544 L
gr

c8
gr

gs 896 1396 123 123 MR c np
c9
 927 1457 mt  987 1457 L
 957 1427 mt  957 1487 L
gr

c9
gs 899 389 5357 4227 MR c np
0 j
gs 5309 445 123 123 MR c np
c8
5340  506 mt 5400  506 L
5370  476 mt 5370  536 L
gr

c8
gs 2373 1137 123 123 MR c np
c9
2404 1198 mt 2464 1198 L
2434 1168 mt 2434 1228 L
gr

c9
gr

gs 4978 328 123 123 MR c np
c8
5009  389 mt 5069  389 L
5039  359 mt 5039  419 L
gr

c8
gs 899 389 5357 4227 MR c np
0 j
gs 2305 1617 123 123 MR c np
c9
2336 1678 mt 2396 1678 L
2366 1648 mt 2366 1708 L
gr

c9
gs 5205 427 123 123 MR c np
c8
5236  488 mt 5296  488 L
5266  458 mt 5266  518 L
gr

c8
gs 2026 1556 123 123 MR c np
c9
2057 1617 mt 2117 1617 L
2087 1587 mt 2087 1647 L
gr

c9
gr

c9
gs 5117 328 123 123 MR c np
c8
5148  389 mt 5208  389 L
5178  359 mt 5178  419 L
gr

c8
gs 899 389 5357 4227 MR c np
0 j
gs 1727 1556 123 123 MR c np
c9
1758 1617 mt 1818 1617 L
1788 1587 mt 1788 1647 L
gr

c9
gr

c9
gs 5281 328 123 123 MR c np
c8
5312  389 mt 5372  389 L
5342  359 mt 5342  419 L
gr

c8
gs 899 389 5357 4227 MR c np
0 j
gs 2365 1703 123 123 MR c np
c9
2396 1764 mt 2456 1764 L
2426 1734 mt 2426 1794 L
gr

c9
gs 5846 439 123 123 MR c np
c8
5877  500 mt 5937  500 L
5907  470 mt 5907  530 L
gr

c8
gs 1691 2173 123 123 MR c np
c9
1722 2234 mt 1782 2234 L
1752 2204 mt 1752 2264 L
gr

c9
gs 5746 453 123 123 MR c np
c8
5777  514 mt 5837  514 L
5807  484 mt 5807  544 L
gr

c8
gs 902 2095 123 123 MR c np
c9
 933 2156 mt  993 2156 L
 963 2126 mt  963 2186 L
gr

c9
gr

c9
gs 5509 328 123 123 MR c np
c8
5540  389 mt 5600  389 L
5570  359 mt 5570  419 L
gr

c8
gs 899 389 5357 4227 MR c np
0 j
gr

gs 889 1615 123 123 MR c np
c9
 920 1676 mt  980 1676 L
 950 1646 mt  950 1706 L
gr

c9
gs 899 389 5357 4227 MR c np
0 j
gr

gs 5751 330 123 123 MR c np
c8
5782  391 mt 5842  391 L
5812  361 mt 5812  421 L
gr

c8
gs 899 389 5357 4227 MR c np
0 j
gr

gs 898 1594 123 123 MR c np
c9
 929 1655 mt  989 1655 L
 959 1625 mt  959 1685 L
gr

c9
gs 899 389 5357 4227 MR c np
0 j
gr

gs 5831 328 123 123 MR c np
c8
5862  389 mt 5922  389 L
5892  359 mt 5892  419 L
gr

c8
gs 899 389 5357 4227 MR c np
0 j
gs 942 2009 123 123 MR c np
c9
 973 2070 mt 1033 2070 L
1003 2040 mt 1003 2100 L
gr

c9
gr

c9
gs 5447 328 123 123 MR c np
c8
5478  389 mt 5538  389 L
5508  359 mt 5508  419 L
gr

c8
gs 899 389 5357 4227 MR c np
0 j
gs 2364 1950 123 123 MR c np
c9
2395 2011 mt 2455 2011 L
2425 1981 mt 2425 2041 L
gr

c9
gs 5316 453 123 123 MR c np
c8
5347  514 mt 5407  514 L
5377  484 mt 5377  544 L
gr

c8
gs 930 1965 123 123 MR c np
c9
 961 2026 mt 1021 2026 L
 991 1996 mt  991 2056 L
gr

c9
gr

c9
gs 4952 328 123 123 MR c np
c8
4983  389 mt 5043  389 L
5013  359 mt 5013  419 L
gr

c8
gs 899 389 5357 4227 MR c np
0 j
gs 2154 1633 123 123 MR c np
c9
2185 1694 mt 2245 1694 L
2215 1664 mt 2215 1724 L
gr

c9
gs 5713 453 123 123 MR c np
c8
5744  514 mt 5804  514 L
5774  484 mt 5774  544 L
gr

c8
gs 999 2212 123 123 MR c np
c9
1030 2273 mt 1090 2273 L
1060 2243 mt 1060 2303 L
gr

c9
gs 4862 453 123 123 MR c np
c8
4893  514 mt 4953  514 L
4923  484 mt 4923  544 L
gr

c8
gs 922 2335 123 123 MR c np
c9
 953 2396 mt 1013 2396 L
 983 2366 mt  983 2426 L
gr

c9
gs 5171 446 123 123 MR c np
c8
5202  507 mt 5262  507 L
5232  477 mt 5232  537 L
gr

c8
gs 908 2058 123 123 MR c np
c9
 939 2119 mt  999 2119 L
 969 2089 mt  969 2149 L
gr

c9
gr

c9
gs 5278 328 123 123 MR c np
c8
5309  389 mt 5369  389 L
5339  359 mt 5339  419 L
gr

c8
gs 899 389 5357 4227 MR c np
0 j
gs 2263 1709 123 123 MR c np
c9
2294 1770 mt 2354 1770 L
2324 1740 mt 2324 1800 L
gr

c9
gr

c9
gs 5257 328 123 123 MR c np
c8
5288  389 mt 5348  389 L
5318  359 mt 5318  419 L
gr

c8
gs 899 389 5357 4227 MR c np
0 j
gs 2373 1668 123 123 MR c np
c9
2404 1729 mt 2464 1729 L
2434 1699 mt 2434 1759 L
gr

c9
gr

c9
gs 5573 328 123 123 MR c np
0 j
30 39 -30 39 -30 -39 30 -39 5634 428 5 MP
c8
DP
gr

c8
gs 899 389 5357 4227 MR c np
0 j
gs 936 1329 123 123 MR c np
30 39 -30 39 -30 -39 30 -39 997 1429 5 MP
c9
DP
gr

c9
gr

c9
gs 5551 328 123 123 MR c np
0 j
30 39 -30 39 -30 -39 30 -39 5612 428 5 MP
c8
DP
gr

c8
gs 899 389 5357 4227 MR c np
0 j
gr

gs 896 1391 123 123 MR c np
0 j
30 39 -30 39 -30 -39 30 -39 957 1491 5 MP
c9
DP
gr

c9
gs 899 389 5357 4227 MR c np
0 j
gr

gs 5309 328 123 123 MR c np
0 j
30 39 -30 39 -30 -39 30 -39 5370 428 5 MP
c8
DP
gr

c8
gs 899 389 5357 4227 MR c np
0 j
gs 2373 1083 123 123 MR c np
30 39 -30 39 -30 -39 30 -39 2434 1183 5 MP
c9
DP
gr

c9
gr

c9
gs 4978 328 123 123 MR c np
0 j
30 39 -30 39 -30 -39 30 -39 5039 428 5 MP
c8
DP
gr

c8
gs 899 389 5357 4227 MR c np
0 j
gs 2305 1633 123 123 MR c np
30 39 -30 39 -30 -39 30 -39 2366 1733 5 MP
c9
DP
gr

c9
gr

c9
gs 5206 328 123 123 MR c np
0 j
30 39 -30 39 -30 -39 30 -39 5267 428 5 MP
c8
DP
gr

c8
gs 899 389 5357 4227 MR c np
0 j
gs 2026 1556 123 123 MR c np
30 39 -30 39 -30 -39 30 -39 2087 1656 5 MP
c9
DP
gr

c9
gr

c9
gs 5117 328 123 123 MR c np
0 j
30 39 -30 39 -30 -39 30 -39 5178 428 5 MP
c8
DP
gr

c8
gs 899 389 5357 4227 MR c np
0 j
gs 1727 1560 123 123 MR c np
30 39 -30 39 -30 -39 30 -39 1788 1660 5 MP
c9
DP
gr

c9
gr

c9
gs 5281 328 123 123 MR c np
0 j
30 39 -30 39 -30 -39 30 -39 5342 428 5 MP
c8
DP
gr

c8
gs 899 389 5357 4227 MR c np
0 j
gs 2365 1703 123 123 MR c np
30 39 -30 39 -30 -39 30 -39 2426 1803 5 MP
c9
DP
gr

c9
gr

c9
gs 5847 328 123 123 MR c np
0 j
30 39 -30 39 -30 -39 30 -39 5908 428 5 MP
c8
DP
gr

c8
gs 899 389 5357 4227 MR c np
0 j
gs 1691 2144 123 123 MR c np
30 39 -30 39 -30 -39 30 -39 1752 2244 5 MP
c9
DP
gr

c9
gr

c9
gs 5746 328 123 123 MR c np
0 j
30 39 -30 39 -30 -39 30 -39 5807 428 5 MP
c8
DP
gr

c8
gs 899 389 5357 4227 MR c np
0 j
gs 902 2077 123 123 MR c np
30 39 -30 39 -30 -39 30 -39 963 2177 5 MP
c9
DP
gr

c9
gr

c9
gs 5509 328 123 123 MR c np
0 j
30 39 -30 39 -30 -39 30 -39 5570 428 5 MP
c8
DP
gr

c8
gs 899 389 5357 4227 MR c np
0 j
gr

gs 889 1633 123 123 MR c np
0 j
30 39 -30 39 -30 -39 30 -39 950 1733 5 MP
c9
DP
gr

c9
gs 899 389 5357 4227 MR c np
0 j
gr

gs 5751 328 123 123 MR c np
0 j
30 39 -30 39 -30 -39 30 -39 5812 428 5 MP
c8
DP
gr

c8
gs 899 389 5357 4227 MR c np
0 j
gr

gs 898 1631 123 123 MR c np
0 j
30 39 -30 39 -30 -39 30 -39 959 1731 5 MP
c9
DP
gr

c9
gs 899 389 5357 4227 MR c np
0 j
gr

gs 5831 328 123 123 MR c np
0 j
30 39 -30 39 -30 -39 30 -39 5892 428 5 MP
c8
DP
gr

c8
gs 899 389 5357 4227 MR c np
0 j
gs 942 2026 123 123 MR c np
30 39 -30 39 -30 -39 30 -39 1003 2126 5 MP
c9
DP
gr

c9
gr

c9
gs 5447 328 123 123 MR c np
0 j
30 39 -30 39 -30 -39 30 -39 5508 428 5 MP
c8
DP
gr

c8
gs 899 389 5357 4227 MR c np
0 j
gs 2364 1902 123 123 MR c np
30 39 -30 39 -30 -39 30 -39 2425 2002 5 MP
c9
DP
gr

c9
gr

c9
gs 5316 328 123 123 MR c np
0 j
30 39 -30 39 -30 -39 30 -39 5377 428 5 MP
c8
DP
gr

c8
gs 899 389 5357 4227 MR c np
0 j
gs 930 1965 123 123 MR c np
30 39 -30 39 -30 -39 30 -39 991 2065 5 MP
c9
DP
gr

c9
gr

c9
gs 4952 328 123 123 MR c np
0 j
30 39 -30 39 -30 -39 30 -39 5013 428 5 MP
c8
DP
gr

c8
gs 899 389 5357 4227 MR c np
0 j
gs 2154 1633 123 123 MR c np
30 39 -30 39 -30 -39 30 -39 2215 1733 5 MP
c9
DP
gr

c9
gr

c9
gs 5713 328 123 123 MR c np
0 j
30 39 -30 39 -30 -39 30 -39 5774 428 5 MP
c8
DP
gr

c8
gs 899 389 5357 4227 MR c np
0 j
gs 999 2212 123 123 MR c np
30 39 -30 39 -30 -39 30 -39 1060 2312 5 MP
c9
DP
gr

c9
gr

c9
gs 4862 328 123 123 MR c np
0 j
30 39 -30 39 -30 -39 30 -39 4923 428 5 MP
c8
DP
gr

c8
gs 899 389 5357 4227 MR c np
0 j
gs 922 2317 123 123 MR c np
30 39 -30 39 -30 -39 30 -39 983 2417 5 MP
c9
DP
gr

c9
gr

c9
gs 5171 328 123 123 MR c np
0 j
30 39 -30 39 -30 -39 30 -39 5232 428 5 MP
c8
DP
gr

c8
gs 899 389 5357 4227 MR c np
0 j
gs 908 2026 123 123 MR c np
30 39 -30 39 -30 -39 30 -39 969 2126 5 MP
c9
DP
gr

c9
gr

c9
gs 5278 328 123 123 MR c np
0 j
30 39 -30 39 -30 -39 30 -39 5339 428 5 MP
c8
DP
gr

c8
gs 899 389 5357 4227 MR c np
0 j
gs 2263 1703 123 123 MR c np
30 39 -30 39 -30 -39 30 -39 2324 1803 5 MP
c9
DP
gr

c9
gr

c9
gs 5257 328 123 123 MR c np
0 j
30 39 -30 39 -30 -39 30 -39 5318 428 5 MP
c8
DP
gr

c8
gs 899 389 5357 4227 MR c np
0 j
gs 2373 1702 123 123 MR c np
30 39 -30 39 -30 -39 30 -39 2434 1802 5 MP
c9
DP
gr

c9
gr

c9
0 sg
3480 4881 mt 
(r) s
%%IncludeResource: font Helvetica
/Helvetica /ISOLatin1Encoding 96 FMSR

3519 4941 mt 
(min) s
%%IncludeResource: font Helvetica
/Helvetica /ISOLatin1Encoding 120 FMSR

 616 2640 mt  -90 rotate
(MCC) s
90 rotate
 882 4658 mt 
( ) s
6239  431 mt 
( ) s
1 sg
0 772 1163 0 0 -772 5033 4556 4 MP
PP
-1163 0 0 772 1163 0 0 -772 5033 4556 5 MP stroke
4 w
DO
SO
6 w
0 sg
5033 4556 mt 6196 4556 L
5033 3784 mt 6196 3784 L
5033 4556 mt 5033 3784 L
6196 4556 mt 6196 3784 L
5033 4556 mt 6196 4556 L
5033 4556 mt 5033 3784 L
5033 4556 mt 6196 4556 L
5033 3784 mt 6196 3784 L
5033 4556 mt 5033 3784 L
6196 4556 mt 6196 3784 L
5500 3918 mt 
(SNR = 0.1) s
gs 5033 3784 1164 773 MR c np
0 j
gs 5211 3802 147 147 MR c np
0 -58 -58 0 0 58 58 0 5255 3846 5 MP
DP
gr

gr

5500 4065 mt 
(SNR = 1) s
gs 5033 3784 1164 773 MR c np
0 j
gs 5211 3949 147 147 MR c np
5259 3997 mt 5309 4047 L
5309 3997 mt 5259 4047 L
gr

gr

5500 4213 mt 
(SNR = 10) s
gs 5033 3784 1164 773 MR c np
0 j
gs 5211 4097 147 147 MR c np
41 71 -82 0 41 -71 5284 4217 4 MP
DP
gr

gr

5500 4360 mt 
(SNR = 100) s
gs 5033 3784 1164 773 MR c np
0 j
gs 5211 4244 147 147 MR c np
5248 4317 mt 5320 4317 L
5284 4281 mt 5284 4353 L
gr

gr

5500 4507 mt 
(SNR = 1000) s
gs 5033 3784 1164 773 MR c np
0 j
gs 5211 4391 147 147 MR c np
36 47 -36 47 -36 -47 36 -47 5284 4511 5 MP
DP
gr

gr


end %%Color Dict

eplot
%%EndObject

epage
end

showpage

%%Trailer
%%EOF
