%!PS-Adobe-2.0 EPSF-1.2
%%Creator: MATLAB, The MathWorks, Inc. Version 8.3.0.532 (R2014a). Operating System: Linux 3.13.0-35-generic #62-Ubuntu SMP Fri Aug 15 01:58:42 UTC 2014 x86_64.
%%Title: ../img/highkY_MCC.eps
%%CreationDate: 09/11/2014  16:57:59
%%DocumentNeededFonts: Helvetica
%%DocumentProcessColors: Cyan Magenta Yellow Black
%%Extensions: CMYK
%%Pages: 1
%%BoundingBox:    58   214   545   590
%%EndComments

%%BeginProlog
% MathWorks dictionary
/MathWorks 160 dict begin
% definition operators
/bdef {bind def} bind def
/ldef {load def} bind def
/xdef {exch def} bdef
/xstore {exch store} bdef
% operator abbreviations
/c  /clip ldef
/cc /concat ldef
/cp /closepath ldef
/gr /grestore ldef
/gs /gsave ldef
/mt /moveto ldef
/np /newpath ldef
/cm /currentmatrix ldef
/sm /setmatrix ldef
/rm /rmoveto ldef
/rl /rlineto ldef
/s {show newpath} bdef
/sc {setcmykcolor} bdef
/sr /setrgbcolor ldef
/sg /setgray ldef
/w /setlinewidth ldef
/j /setlinejoin ldef
/cap /setlinecap ldef
/rc {rectclip} bdef
/rf {rectfill} bdef
% page state control
/pgsv () def
/bpage {/pgsv save def} bdef
/epage {pgsv restore} bdef
/bplot /gsave ldef
/eplot {stroke grestore} bdef
% orientation switch
/portraitMode 0 def /landscapeMode 1 def /rotateMode 2 def
% coordinate system mappings
/dpi2point 0 def
% font control
/FontSize 0 def
/FMS {/FontSize xstore findfont [FontSize 0 0 FontSize neg 0 0]
  makefont setfont} bdef
/reencode {exch dup where {pop load} {pop StandardEncoding} ifelse
  exch dup 3 1 roll findfont dup length dict begin
  { 1 index /FID ne {def}{pop pop} ifelse } forall
  /Encoding exch def currentdict end definefont pop} bdef
/isroman {findfont /CharStrings get /Agrave known} bdef
/FMSR {3 1 roll 1 index dup isroman {reencode} {pop pop} ifelse
  exch FMS} bdef
/csm {1 dpi2point div -1 dpi2point div scale neg translate
 dup landscapeMode eq {pop -90 rotate}
  {rotateMode eq {90 rotate} if} ifelse} bdef
% line types: solid, dotted, dashed, dotdash
/SO { [] 0 setdash } bdef
/DO { [.5 dpi2point mul 4 dpi2point mul] 0 setdash } bdef
/DA { [6 dpi2point mul] 0 setdash } bdef
/DD { [.5 dpi2point mul 4 dpi2point mul 6 dpi2point mul 4
  dpi2point mul] 0 setdash } bdef
% macros for lines and objects
/L {lineto stroke} bdef
/MP {3 1 roll moveto 1 sub {rlineto} repeat} bdef
/AP {{rlineto} repeat} bdef
/PDlw -1 def
/W {/PDlw currentlinewidth def setlinewidth} def
/PP {closepath eofill} bdef
/DP {closepath stroke} bdef
/MR {4 -2 roll moveto dup  0 exch rlineto exch 0 rlineto
  neg 0 exch rlineto closepath} bdef
/FR {MR stroke} bdef
/PR {MR fill} bdef
/L1i {{currentfile picstr readhexstring pop} image} bdef
/tMatrix matrix def
/MakeOval {newpath tMatrix currentmatrix pop translate scale
0 0 1 0 360 arc tMatrix setmatrix} bdef
/FO {MakeOval stroke} bdef
/PO {MakeOval fill} bdef
/PD {currentlinewidth 2 div 0 360 arc fill
   PDlw -1 eq not {PDlw w /PDlw -1 def} if} def
/FA {newpath tMatrix currentmatrix pop translate scale
  0 0 1 5 -2 roll arc tMatrix setmatrix stroke} bdef
/PA {newpath tMatrix currentmatrix pop	translate 0 0 moveto scale
  0 0 1 5 -2 roll arc closepath tMatrix setmatrix fill} bdef
/FAn {newpath tMatrix currentmatrix pop translate scale
  0 0 1 5 -2 roll arcn tMatrix setmatrix stroke} bdef
/PAn {newpath tMatrix currentmatrix pop translate 0 0 moveto scale
  0 0 1 5 -2 roll arcn closepath tMatrix setmatrix fill} bdef
/vradius 0 def /hradius 0 def /lry 0 def
/lrx 0 def /uly 0 def /ulx 0 def /rad 0 def
/MRR {/vradius xdef /hradius xdef /lry xdef /lrx xdef /uly xdef
  /ulx xdef newpath tMatrix currentmatrix pop ulx hradius add uly
  vradius add translate hradius vradius scale 0 0 1 180 270 arc 
  tMatrix setmatrix lrx hradius sub uly vradius add translate
  hradius vradius scale 0 0 1 270 360 arc tMatrix setmatrix
  lrx hradius sub lry vradius sub translate hradius vradius scale
  0 0 1 0 90 arc tMatrix setmatrix ulx hradius add lry vradius sub
  translate hradius vradius scale 0 0 1 90 180 arc tMatrix setmatrix
  closepath} bdef
/FRR {MRR stroke } bdef
/PRR {MRR fill } bdef
/MlrRR {/lry xdef /lrx xdef /uly xdef /ulx xdef /rad lry uly sub 2 div def
  newpath tMatrix currentmatrix pop ulx rad add uly rad add translate
  rad rad scale 0 0 1 90 270 arc tMatrix setmatrix lrx rad sub lry rad
  sub translate rad rad scale 0 0 1 270 90 arc tMatrix setmatrix
  closepath} bdef
/FlrRR {MlrRR stroke } bdef
/PlrRR {MlrRR fill } bdef
/MtbRR {/lry xdef /lrx xdef /uly xdef /ulx xdef /rad lrx ulx sub 2 div def
  newpath tMatrix currentmatrix pop ulx rad add uly rad add translate
  rad rad scale 0 0 1 180 360 arc tMatrix setmatrix lrx rad sub lry rad
  sub translate rad rad scale 0 0 1 0 180 arc tMatrix setmatrix
  closepath} bdef
/FtbRR {MtbRR stroke } bdef
/PtbRR {MtbRR fill } bdef
/stri 6 array def /dtri 6 array def
/smat 6 array def /dmat 6 array def
/tmat1 6 array def /tmat2 6 array def /dif 3 array def
/asub {/ind2 exch def /ind1 exch def dup dup
  ind1 get exch ind2 get sub exch } bdef
/tri_to_matrix {
  2 0 asub 3 1 asub 4 0 asub 5 1 asub
  dup 0 get exch 1 get 7 -1 roll astore } bdef
/compute_transform {
  dmat dtri tri_to_matrix tmat1 invertmatrix 
  smat stri tri_to_matrix tmat2 concatmatrix } bdef
/ds {stri astore pop} bdef
/dt {dtri astore pop} bdef
/db {2 copy /cols xdef /rows xdef mul dup 3 mul string
  currentfile exch readhexstring pop
  dup 0 3 index getinterval /rbmap xdef
  dup 2 index dup getinterval /gbmap xdef
  1 index dup 2 mul exch getinterval /bbmap xdef pop pop}bdef
/it {gs np dtri aload pop moveto lineto lineto cp c
  cols rows 8 compute_transform 
  rbmap gbmap bbmap true 3 colorimage gr}bdef
/il {newpath moveto lineto stroke}bdef
currentdict end def
%%EndProlog

%%BeginSetup
MathWorks begin

0 cap

end
%%EndSetup

%%Page: 1 1
%%BeginPageSetup
%%PageBoundingBox:    58   214   545   590
MathWorks begin
bpage
%%EndPageSetup

%%BeginObject: obj1
bplot

/dpi2point 12 def
portraitMode 0216 7344 csm

  480   258  5853  4510 MR c np
87 dict begin %Colortable dictionary
/c0 { 0.000000 0.000000 0.000000 sr} bdef
/c1 { 1.000000 1.000000 1.000000 sr} bdef
/c2 { 0.900000 0.000000 0.000000 sr} bdef
/c3 { 0.000000 0.820000 0.000000 sr} bdef
/c4 { 0.000000 0.000000 0.800000 sr} bdef
/c5 { 0.910000 0.820000 0.320000 sr} bdef
/c6 { 1.000000 0.260000 0.820000 sr} bdef
/c7 { 0.000000 0.820000 0.820000 sr} bdef
c0
1 j
1 sg
   0    0 6913 5186 PR
6 w
0 4087 5356 0 0 -4087 899 4475 4 MP
PP
-5356 0 0 4087 5356 0 0 -4087 899 4475 5 MP stroke
4 w
DO
0 sg
 899 4289 mt 6255 4289 L
6255 4289 mt 6255 4289 L
 899 3918 mt 6255 3918 L
6255 3918 mt 6255 3918 L
 899 3547 mt 6255 3547 L
6255 3547 mt 6255 3547 L
 899 3175 mt 6255 3175 L
6255 3175 mt 6255 3175 L
 899 2804 mt 6255 2804 L
6255 2804 mt 6255 2804 L
 899 2433 mt 6255 2433 L
6255 2433 mt 6255 2433 L
 899 2062 mt 6255 2062 L
6255 2062 mt 6255 2062 L
 899 1691 mt 6255 1691 L
6255 1691 mt 6255 1691 L
 899 1320 mt 6255 1320 L
6255 1320 mt 6255 1320 L
 899  949 mt 6255  949 L
6255  949 mt 6255  949 L
 899  578 mt 6255  578 L
6255  578 mt 6255  578 L
SO
6 w
 899 4475 mt 6255 4475 L
 899  388 mt 6255  388 L
 899 4475 mt  899  388 L
6255 4475 mt 6255  388 L
 899 4475 mt 6255 4475 L
 899 4475 mt  899  388 L
1285 4475 mt 1285 4421 L
1285  389 mt 1285  442 L
%%IncludeResource: font Helvetica
/Helvetica /ISOLatin1Encoding 120 FMSR

1202 4620 mt 
(0.1) s
2431 4475 mt 2431 4421 L
2431  389 mt 2431  442 L
2398 4620 mt 
(1) s
3577 4475 mt 3577 4421 L
3577  389 mt 3577  442 L
3511 4620 mt 
(10) s
4722 4475 mt 4722 4421 L
4722  389 mt 4722  442 L
4622 4620 mt 
(100) s
5868 4475 mt 5868 4421 L
5868  389 mt 5868  442 L
5735 4620 mt 
(1000) s
 899 4289 mt  952 4289 L
6255 4289 mt 6201 4289 L
 798 4333 mt 
(0) s
 899 3918 mt  952 3918 L
6255 3918 mt 6201 3918 L
 698 3962 mt 
(0.1) s
 899 3547 mt  952 3547 L
6255 3547 mt 6201 3547 L
 698 3591 mt 
(0.2) s
 899 3175 mt  952 3175 L
6255 3175 mt 6201 3175 L
 698 3219 mt 
(0.3) s
 899 2804 mt  952 2804 L
6255 2804 mt 6201 2804 L
 698 2848 mt 
(0.4) s
 899 2433 mt  952 2433 L
6255 2433 mt 6201 2433 L
 698 2477 mt 
(0.5) s
 899 2062 mt  952 2062 L
6255 2062 mt 6201 2062 L
 698 2106 mt 
(0.6) s
 899 1691 mt  952 1691 L
6255 1691 mt 6201 1691 L
 698 1735 mt 
(0.7) s
 899 1320 mt  952 1320 L
6255 1320 mt 6201 1320 L
 698 1364 mt 
(0.8) s
 899  949 mt  952  949 L
6255  949 mt 6201  949 L
 698  993 mt 
(0.9) s
 899  578 mt  952  578 L
6255  578 mt 6201  578 L
 798  622 mt 
(1) s
 899 4475 mt 6255 4475 L
 899  388 mt 6255  388 L
 899 4475 mt  899  388 L
6255 4475 mt 6255  388 L
gs 899 388 5357 4088 MR c np
DA
/c8 { 0.000000 1.000000 0.000000 sr} bdef
c8
0 -836 976 2185 2 MP stroke
/c9 { 0.000000 0.000000 1.000000 sr} bdef
c9
1131 4289 PD
/c10 { 0.000000 1.000000 1.000000 sr} bdef
c10
0 -737 1285 2432 2 MP stroke
/c11 { 1.000000 0.000000 0.000000 sr} bdef
c11
0 -550 1440 2609 2 MP stroke
0 sg
0 -438 1595 2705 2 MP stroke
c8
0 -297 2121 875 2 MP stroke
c9
0 -413 2276 1589 2 MP stroke
c10
0 -299 2431 877 2 MP stroke
c11
0 -525 2586 1785 2 MP stroke
0 sg
0 -495 2741 2044 2 MP stroke
c8
3267 578 PD
c9
0 -99 3422 677 2 MP stroke
c10
0 -96 3577 674 2 MP stroke
c11
0 -508 3731 1552 2 MP stroke
0 sg
0 -412 3886 1961 2 MP stroke
c8
4412 578 PD
c9
4567 578 PD
c10
4722 578 PD
c11
0 -536 4877 1552 2 MP stroke
0 sg
0 -313 5032 1961 2 MP stroke
c8
5558 578 PD
c9
5713 578 PD
c10
0 -96 5868 674 2 MP stroke
c11
0 -460 6022 1552 2 MP stroke
0 sg
0 -316 6177 1964 2 MP stroke
c8
0 -839 976 3601 2 MP stroke
c9
1131 4289 PD
c10
0 -698 1285 3675 2 MP stroke
c11
0 -531 1440 3508 2 MP stroke
0 sg
0 -459 1595 3475 2 MP stroke
c8
0 -488 2121 1765 2 MP stroke
c9
0 -1475 2276 4289 2 MP stroke
c10
0 -562 2431 1831 2 MP stroke
c11
0 -509 2586 2655 2 MP stroke
0 sg
0 -437 2741 2839 2 MP stroke
c8
0 -99 3267 776 2 MP stroke
c9
0 -99 3422 875 2 MP stroke
c10
0 -444 3577 1418 2 MP stroke
c11
0 -337 3731 2282 2 MP stroke
0 sg
0 -419 3886 2660 2 MP stroke
c8
4412 578 PD
c9
4567 677 PD
c10
0 -575 4722 1549 2 MP stroke
c11
0 -310 4877 2230 2 MP stroke
0 sg
0 -387 5032 2617 2 MP stroke
c8
5558 578 PD
c9
5713 578 PD
c10
0 -545 5868 1589 2 MP stroke
c11
0 -265 6022 2185 2 MP stroke
0 sg
0 -381 6177 2611 2 MP stroke
SO
c8
38 0 957 1349 2 MP stroke
c9
39 0 1111 4289 2 MP stroke
c10
39 0 1266 1695 2 MP stroke
c11
39 0 1421 2059 2 MP stroke
0 sg
38 0 1576 2267 2 MP stroke
c8
39 0 2102 578 2 MP stroke
c9
39 0 2257 1176 2 MP stroke
c10
38 0 2412 578 2 MP stroke
c11
39 0 2566 1260 2 MP stroke
0 sg
39 0 2721 1549 2 MP stroke
c8
38 0 3248 578 2 MP stroke
c9
39 0 3402 578 2 MP stroke
c10
39 0 3557 578 2 MP stroke
c11
39 0 3712 1044 2 MP stroke
0 sg
38 0 3867 1549 2 MP stroke
c8
39 0 4393 578 2 MP stroke
c9
39 0 4548 578 2 MP stroke
c10
38 0 4703 578 2 MP stroke
c11
39 0 4857 1016 2 MP stroke
0 sg
39 0 5012 1648 2 MP stroke
c8
38 0 5539 578 2 MP stroke
c9
39 0 5693 578 2 MP stroke
c10
39 0 5848 578 2 MP stroke
c11
39 0 6003 1092 2 MP stroke
0 sg
38 0 6158 1648 2 MP stroke
c8
38 0 957 3601 2 MP stroke
c9
39 0 1111 4289 2 MP stroke
c10
39 0 1266 3675 2 MP stroke
c11
39 0 1421 3508 2 MP stroke
0 sg
38 0 1576 3475 2 MP stroke
c8
39 0 2102 1765 2 MP stroke
c9
39 0 2257 4289 2 MP stroke
c10
38 0 2412 1831 2 MP stroke
c11
39 0 2566 2655 2 MP stroke
0 sg
39 0 2721 2839 2 MP stroke
c8
38 0 3248 776 2 MP stroke
c9
39 0 3402 875 2 MP stroke
c10
39 0 3557 1418 2 MP stroke
c11
39 0 3712 2282 2 MP stroke
0 sg
38 0 3867 2660 2 MP stroke
c8
39 0 4393 578 2 MP stroke
c9
39 0 4548 677 2 MP stroke
c10
38 0 4703 1549 2 MP stroke
c11
39 0 4857 2230 2 MP stroke
0 sg
39 0 5012 2617 2 MP stroke
c8
38 0 5539 578 2 MP stroke
c9
39 0 5693 578 2 MP stroke
c10
39 0 5848 1589 2 MP stroke
c11
39 0 6003 2185 2 MP stroke
0 sg
38 0 6158 2611 2 MP stroke
c8
-78 0 0 577 78 0 0 -577 937 2762 5 MP stroke
c9
-77 0 77 0 1092 4289 3 MP stroke
c10
-77 0 0 545 77 0 0 -545 1247 2977 5 MP stroke
c11
-77 0 0 368 77 0 0 -368 1402 2977 5 MP stroke
0 sg
-78 0 0 311 78 0 0 -311 1556 3016 5 MP stroke
c8
-77 0 0 402 77 0 0 -402 2083 1277 5 MP stroke
c9
-77 0 0 1225 77 0 0 -1225 2238 2814 5 MP stroke
c10
-78 0 0 392 78 0 0 -392 2392 1269 5 MP stroke
c11
-77 0 0 361 77 0 0 -361 2547 2146 5 MP stroke
0 sg
-77 0 0 358 77 0 0 -358 2702 2402 5 MP stroke
c8
-78 0 0 99 78 0 0 -99 3228 677 5 MP stroke
c9
-77 0 0 99 77 0 0 -99 3383 776 5 MP stroke
c10
-77 0 0 300 77 0 0 -300 3538 974 5 MP stroke
c11
-77 0 0 393 77 0 0 -393 3693 1945 5 MP stroke
0 sg
-78 0 0 280 78 0 0 -280 3847 2241 5 MP stroke
c8
-77 0 77 0 4374 578 3 MP stroke
c9
-77 0 0 99 77 0 0 -99 4529 677 5 MP stroke
c10
-78 0 0 396 78 0 0 -396 4683 974 5 MP stroke
c11
-78 0 0 368 78 0 0 -368 4838 1920 5 MP stroke
0 sg
-77 0 0 269 77 0 0 -269 4993 2230 5 MP stroke
c8
-78 0 78 0 5519 578 3 MP stroke
c9
-77 0 77 0 5674 578 3 MP stroke
c10
-77 0 0 370 77 0 0 -370 5829 1044 5 MP stroke
c11
-77 0 0 368 77 0 0 -368 5984 1920 5 MP stroke
0 sg
-78 0 0 266 78 0 0 -266 6138 2230 5 MP stroke
c8
78 0 937 2486 2 MP stroke
c9
77 0 1092 4289 2 MP stroke
c10
77 0 1247 2709 2 MP stroke
c11
77 0 1402 2813 2 MP stroke
0 sg
78 0 1556 2861 2 MP stroke
c8
77 0 2083 1075 2 MP stroke
c9
77 0 2238 2029 2 MP stroke
c10
78 0 2392 1075 2 MP stroke
c11
77 0 2547 1967 2 MP stroke
0 sg
77 0 2702 2230 2 MP stroke
c8
78 0 3228 677 2 MP stroke
c9
77 0 3383 677 2 MP stroke
c10
77 0 3538 766 2 MP stroke
c11
77 0 3693 1670 2 MP stroke
0 sg
78 0 3847 2067 2 MP stroke
c8
77 0 4374 578 2 MP stroke
c9
77 0 4529 578 2 MP stroke
c10
78 0 4683 766 2 MP stroke
c11
78 0 4838 1665 2 MP stroke
0 sg
77 0 4993 2059 2 MP stroke
c8
78 0 5519 578 2 MP stroke
c9
77 0 5674 578 2 MP stroke
c10
77 0 5829 776 2 MP stroke
c11
77 0 5984 1665 2 MP stroke
0 sg
78 0 6138 2059 2 MP stroke
gs 903 1112 147 2723 MR c np
c8
 940 3761 mt 1012 3761 L
 976 3725 mt  976 3797 L
 940 3656 mt 1012 3656 L
 976 3620 mt  976 3692 L
 940 1289 mt 1012 1289 L
 976 1253 mt  976 1325 L
 940 1277 mt 1012 1277 L
 976 1241 mt  976 1313 L
 940 1185 mt 1012 1185 L
 976 1149 mt  976 1221 L
gr

c8
gs 1212 1535 147 147 MR c np
c10
1249 1608 mt 1321 1608 L
1285 1572 mt 1285 1644 L
gr

c10
gs 1367 1954 147 1777 MR c np
c11
1404 3657 mt 1476 3657 L
1440 3621 mt 1440 3693 L
1404 3643 mt 1476 3643 L
1440 3607 mt 1440 3679 L
1404 3601 mt 1476 3601 L
1440 3565 mt 1440 3637 L
1404 3598 mt 1476 3598 L
1440 3562 mt 1440 3634 L
1404 3589 mt 1476 3589 L
1440 3553 mt 1440 3625 L
1404 3588 mt 1476 3588 L
1440 3552 mt 1440 3624 L
1404 3587 mt 1476 3587 L
1440 3551 mt 1440 3623 L
1404 3579 mt 1476 3579 L
1440 3543 mt 1440 3615 L
1404 3565 mt 1476 3565 L
1440 3529 mt 1440 3601 L
1404 3533 mt 1476 3533 L
1440 3497 mt 1440 3569 L
1404 2042 mt 1476 2042 L
1440 2006 mt 1440 2078 L
1404 2029 mt 1476 2029 L
1440 1993 mt 1440 2065 L
1404 2027 mt 1476 2027 L
1440 1991 mt 1440 2063 L
gr

c11
gs 1522 1969 147 1780 MR c np
0 sg
1559 3675 mt 1631 3675 L
1595 3639 mt 1595 3711 L
1559 3672 mt 1631 3672 L
1595 3636 mt 1595 3708 L
1559 3671 mt 1631 3671 L
1595 3635 mt 1595 3707 L
1559 3661 mt 1631 3661 L
1595 3625 mt 1595 3697 L
1559 3657 mt 1631 3657 L
1595 3621 mt 1595 3693 L
1559 3605 mt 1631 3605 L
1595 3569 mt 1595 3641 L
1559 3601 mt 1631 3601 L
1595 3565 mt 1595 3637 L
1559 3598 mt 1631 3598 L
1595 3562 mt 1595 3634 L
1559 3587 mt 1631 3587 L
1595 3551 mt 1595 3623 L
1559 3579 mt 1631 3579 L
1595 3543 mt 1595 3615 L
1559 3575 mt 1631 3575 L
1595 3539 mt 1595 3611 L
1559 3553 mt 1631 3553 L
1595 3517 mt 1595 3589 L
1559 3542 mt 1631 3542 L
1595 3506 mt 1595 3578 L
1559 3533 mt 1631 3533 L
1595 3497 mt 1595 3569 L
1559 3525 mt 1631 3525 L
1595 3489 mt 1595 3561 L
1559 3514 mt 1631 3514 L
1595 3478 mt 1595 3550 L
1559 3509 mt 1631 3509 L
1595 3473 mt 1595 3545 L
1559 3508 mt 1631 3508 L
1595 3472 mt 1595 3544 L
1559 3498 mt 1631 3498 L
1595 3462 mt 1595 3534 L
1559 3494 mt 1631 3494 L
1595 3458 mt 1595 3530 L
1559 2237 mt 1631 2237 L
1595 2201 mt 1595 2273 L
1559 2204 mt 1631 2204 L
1595 2168 mt 1595 2240 L
1559 2185 mt 1631 2185 L
1595 2149 mt 1595 2221 L
1559 2161 mt 1631 2161 L
1595 2125 mt 1595 2197 L
1559 2116 mt 1631 2116 L
1595 2080 mt 1595 2152 L
1559 2042 mt 1631 2042 L
1595 2006 mt 1595 2078 L
gr

0 sg
gs 2358 1837 147 264 MR c np
c10
2395 2027 mt 2467 2027 L
2431 1991 mt 2431 2063 L
2395 1946 mt 2467 1946 L
2431 1910 mt 2431 1982 L
2395 1932 mt 2467 1932 L
2431 1896 mt 2431 1968 L
2395 1924 mt 2467 1924 L
2431 1888 mt 2431 1960 L
2395 1910 mt 2467 1910 L
2431 1874 mt 2431 1946 L
gr

c10
gs 2668 1430 147 147 MR c np
0 sg
2705 1503 mt 2777 1503 L
2741 1467 mt 2741 1539 L
gr

0 sg
gs 3194 780 147 269 MR c np
c8
3231  975 mt 3303  975 L
3267  939 mt 3267 1011 L
3231  974 mt 3303  974 L
3267  938 mt 3267 1010 L
3231  959 mt 3303  959 L
3267  923 mt 3267  995 L
3231  877 mt 3303  877 L
3267  841 mt 3267  913 L
3231  875 mt 3303  875 L
3267  839 mt 3267  911 L
3231  869 mt 3303  869 L
3267  833 mt 3267  905 L
3231  853 mt 3303  853 L
3267  817 mt 3267  889 L
gr

c8
gs 3349 902 147 147 MR c np
c9
3386  975 mt 3458  975 L
3422  939 mt 3422 1011 L
gr

c9
gs 3504 1353 147 310 MR c np
c10
3541 1589 mt 3613 1589 L
3577 1553 mt 3577 1625 L
3541 1577 mt 3613 1577 L
3577 1541 mt 3577 1613 L
3541 1549 mt 3613 1549 L
3577 1513 mt 3577 1585 L
3541 1533 mt 3613 1533 L
3577 1497 mt 3577 1569 L
3541 1496 mt 3613 1496 L
3577 1460 mt 3577 1532 L
3541 1485 mt 3613 1485 L
3577 1449 mt 3577 1521 L
3541 1483 mt 3613 1483 L
3577 1447 mt 3577 1519 L
3541 1463 mt 3613 1463 L
3577 1427 mt 3577 1499 L
3541 1456 mt 3613 1456 L
3577 1420 mt 3577 1492 L
3541 1426 mt 3613 1426 L
3577 1390 mt 3577 1462 L
gr

c10
gs 3658 886 147 147 MR c np
c11
3695  959 mt 3767  959 L
3731  923 mt 3731  995 L
gr

c11
gs 4339 601 147 150 MR c np
c8
4376  677 mt 4448  677 L
4412  641 mt 4412  713 L
4376  674 mt 4448  674 L
4412  638 mt 4412  710 L
gr

c8
gs 4649 1516 147 166 MR c np
c10
4686 1608 mt 4758 1608 L
4722 1572 mt 4722 1644 L
4686 1589 mt 4758 1589 L
4722 1553 mt 4722 1625 L
gr

c10
gs 4804 780 147 147 MR c np
c11
4841  853 mt 4913  853 L
4877  817 mt 4877  889 L
gr

c11
gs 4959 1476 147 147 MR c np
0 sg
4996 1549 mt 5068 1549 L
5032 1513 mt 5032 1585 L
gr

0 sg
gs 5795 1527 147 212 MR c np
c10
5832 1665 mt 5904 1665 L
5868 1629 mt 5868 1701 L
5832 1611 mt 5904 1611 L
5868 1575 mt 5868 1647 L
5832 1608 mt 5904 1608 L
5868 1572 mt 5868 1644 L
5832 1600 mt 5904 1600 L
5868 1564 mt 5868 1636 L
gr

c10
gs 6104 1476 147 147 MR c np
0 sg
6141 1549 mt 6213 1549 L
6177 1513 mt 6177 1585 L
gr

0 sg
gr

3450 4716 mt 
(SNR) s
 616 2570 mt  -90 rotate
(MCC) s
90 rotate
 870 4530 mt 
( ) s
6227  442 mt 
( ) s
gs 899 388 5357 4088 MR c np
DA
5356 0 899 4289 2 MP stroke
SO
gr

1 sg
0 792 1157 0 0 -792 2833 4309 4 MP
PP
-1157 0 0 792 1157 0 0 -792 2833 4309 5 MP stroke
4 w
DO
SO
6 w
0 sg
2833 4309 mt 3990 4309 L
2833 3517 mt 3990 3517 L
2833 4309 mt 2833 3517 L
3990 4309 mt 3990 3517 L
2833 4309 mt 3990 4309 L
2833 4309 mt 2833 3517 L
2833 4309 mt 3990 4309 L
2833 3517 mt 3990 3517 L
2833 4309 mt 2833 3517 L
3990 4309 mt 3990 3517 L
3301 3655 mt 
(Elastic net) s
gs 2833 3517 1158 793 MR c np
360 0 2905 3613 2 MP stroke
gr

3301 3805 mt 
(LASSO) s
gs 2833 3517 1158 793 MR c np
c11
360 0 2905 3763 2 MP stroke
gr

c11
0 sg
3301 3956 mt 
(Bolasso) s
gs 2833 3517 1158 793 MR c np
c10
360 0 2905 3913 2 MP stroke
gr

c10
0 sg
3301 4106 mt 
(RNI) s
gs 2833 3517 1158 793 MR c np
c9
360 0 2905 4063 2 MP stroke
gr

c9
0 sg
3301 4256 mt 
(LSCO) s
gs 2833 3517 1158 793 MR c np
c8
360 0 2905 4213 2 MP stroke
gr

c8

end %%Color Dict

eplot
%%EndObject

epage
end

showpage

%%Trailer
%%EOF
