%!PS-Adobe-2.0 EPSF-1.2
%%Creator: MATLAB, The MathWorks, Inc. Version 8.3.0.532 (R2014a). Operating System: Linux 3.13.0-35-generic #62-Ubuntu SMP Fri Aug 15 01:58:42 UTC 2014 x86_64.
%%Title: ../img/Lorenz_experimental_performance.eps
%%CreationDate: 09/13/2014  17:50:35
%%DocumentNeededFonts: Helvetica
%%DocumentProcessColors: Cyan Magenta Yellow Black
%%Extensions: CMYK
%%Pages: 1
%%BoundingBox:    46   195   550   591
%%EndComments

%%BeginProlog
% MathWorks dictionary
/MathWorks 160 dict begin
% definition operators
/bdef {bind def} bind def
/ldef {load def} bind def
/xdef {exch def} bdef
/xstore {exch store} bdef
% operator abbreviations
/c  /clip ldef
/cc /concat ldef
/cp /closepath ldef
/gr /grestore ldef
/gs /gsave ldef
/mt /moveto ldef
/np /newpath ldef
/cm /currentmatrix ldef
/sm /setmatrix ldef
/rm /rmoveto ldef
/rl /rlineto ldef
/s {show newpath} bdef
/sc {setcmykcolor} bdef
/sr /setrgbcolor ldef
/sg /setgray ldef
/w /setlinewidth ldef
/j /setlinejoin ldef
/cap /setlinecap ldef
/rc {rectclip} bdef
/rf {rectfill} bdef
% page state control
/pgsv () def
/bpage {/pgsv save def} bdef
/epage {pgsv restore} bdef
/bplot /gsave ldef
/eplot {stroke grestore} bdef
% orientation switch
/portraitMode 0 def /landscapeMode 1 def /rotateMode 2 def
% coordinate system mappings
/dpi2point 0 def
% font control
/FontSize 0 def
/FMS {/FontSize xstore findfont [FontSize 0 0 FontSize neg 0 0]
  makefont setfont} bdef
/reencode {exch dup where {pop load} {pop StandardEncoding} ifelse
  exch dup 3 1 roll findfont dup length dict begin
  { 1 index /FID ne {def}{pop pop} ifelse } forall
  /Encoding exch def currentdict end definefont pop} bdef
/isroman {findfont /CharStrings get /Agrave known} bdef
/FMSR {3 1 roll 1 index dup isroman {reencode} {pop pop} ifelse
  exch FMS} bdef
/csm {1 dpi2point div -1 dpi2point div scale neg translate
 dup landscapeMode eq {pop -90 rotate}
  {rotateMode eq {90 rotate} if} ifelse} bdef
% line types: solid, dotted, dashed, dotdash
/SO { [] 0 setdash } bdef
/DO { [.5 dpi2point mul 4 dpi2point mul] 0 setdash } bdef
/DA { [6 dpi2point mul] 0 setdash } bdef
/DD { [.5 dpi2point mul 4 dpi2point mul 6 dpi2point mul 4
  dpi2point mul] 0 setdash } bdef
% macros for lines and objects
/L {lineto stroke} bdef
/MP {3 1 roll moveto 1 sub {rlineto} repeat} bdef
/AP {{rlineto} repeat} bdef
/PDlw -1 def
/W {/PDlw currentlinewidth def setlinewidth} def
/PP {closepath eofill} bdef
/DP {closepath stroke} bdef
/MR {4 -2 roll moveto dup  0 exch rlineto exch 0 rlineto
  neg 0 exch rlineto closepath} bdef
/FR {MR stroke} bdef
/PR {MR fill} bdef
/L1i {{currentfile picstr readhexstring pop} image} bdef
/tMatrix matrix def
/MakeOval {newpath tMatrix currentmatrix pop translate scale
0 0 1 0 360 arc tMatrix setmatrix} bdef
/FO {MakeOval stroke} bdef
/PO {MakeOval fill} bdef
/PD {currentlinewidth 2 div 0 360 arc fill
   PDlw -1 eq not {PDlw w /PDlw -1 def} if} def
/FA {newpath tMatrix currentmatrix pop translate scale
  0 0 1 5 -2 roll arc tMatrix setmatrix stroke} bdef
/PA {newpath tMatrix currentmatrix pop	translate 0 0 moveto scale
  0 0 1 5 -2 roll arc closepath tMatrix setmatrix fill} bdef
/FAn {newpath tMatrix currentmatrix pop translate scale
  0 0 1 5 -2 roll arcn tMatrix setmatrix stroke} bdef
/PAn {newpath tMatrix currentmatrix pop translate 0 0 moveto scale
  0 0 1 5 -2 roll arcn closepath tMatrix setmatrix fill} bdef
/vradius 0 def /hradius 0 def /lry 0 def
/lrx 0 def /uly 0 def /ulx 0 def /rad 0 def
/MRR {/vradius xdef /hradius xdef /lry xdef /lrx xdef /uly xdef
  /ulx xdef newpath tMatrix currentmatrix pop ulx hradius add uly
  vradius add translate hradius vradius scale 0 0 1 180 270 arc 
  tMatrix setmatrix lrx hradius sub uly vradius add translate
  hradius vradius scale 0 0 1 270 360 arc tMatrix setmatrix
  lrx hradius sub lry vradius sub translate hradius vradius scale
  0 0 1 0 90 arc tMatrix setmatrix ulx hradius add lry vradius sub
  translate hradius vradius scale 0 0 1 90 180 arc tMatrix setmatrix
  closepath} bdef
/FRR {MRR stroke } bdef
/PRR {MRR fill } bdef
/MlrRR {/lry xdef /lrx xdef /uly xdef /ulx xdef /rad lry uly sub 2 div def
  newpath tMatrix currentmatrix pop ulx rad add uly rad add translate
  rad rad scale 0 0 1 90 270 arc tMatrix setmatrix lrx rad sub lry rad
  sub translate rad rad scale 0 0 1 270 90 arc tMatrix setmatrix
  closepath} bdef
/FlrRR {MlrRR stroke } bdef
/PlrRR {MlrRR fill } bdef
/MtbRR {/lry xdef /lrx xdef /uly xdef /ulx xdef /rad lrx ulx sub 2 div def
  newpath tMatrix currentmatrix pop ulx rad add uly rad add translate
  rad rad scale 0 0 1 180 360 arc tMatrix setmatrix lrx rad sub lry rad
  sub translate rad rad scale 0 0 1 0 180 arc tMatrix setmatrix
  closepath} bdef
/FtbRR {MtbRR stroke } bdef
/PtbRR {MtbRR fill } bdef
/stri 6 array def /dtri 6 array def
/smat 6 array def /dmat 6 array def
/tmat1 6 array def /tmat2 6 array def /dif 3 array def
/asub {/ind2 exch def /ind1 exch def dup dup
  ind1 get exch ind2 get sub exch } bdef
/tri_to_matrix {
  2 0 asub 3 1 asub 4 0 asub 5 1 asub
  dup 0 get exch 1 get 7 -1 roll astore } bdef
/compute_transform {
  dmat dtri tri_to_matrix tmat1 invertmatrix 
  smat stri tri_to_matrix tmat2 concatmatrix } bdef
/ds {stri astore pop} bdef
/dt {dtri astore pop} bdef
/db {2 copy /cols xdef /rows xdef mul dup 3 mul string
  currentfile exch readhexstring pop
  dup 0 3 index getinterval /rbmap xdef
  dup 2 index dup getinterval /gbmap xdef
  1 index dup 2 mul exch getinterval /bbmap xdef pop pop}bdef
/it {gs np dtri aload pop moveto lineto lineto cp c
  cols rows 8 compute_transform 
  rbmap gbmap bbmap true 3 colorimage gr}bdef
/il {newpath moveto lineto stroke}bdef
currentdict end def
%%EndProlog

%%BeginSetup
MathWorks begin

0 cap

end
%%EndSetup

%%Page: 1 1
%%BeginPageSetup
%%PageBoundingBox:    46   195   550   591
MathWorks begin
bpage
%%EndPageSetup

%%BeginObject: obj1
bplot

/dpi2point 12 def
portraitMode 0216 7344 csm

  343   247  6050  4747 MR c np
76 dict begin %Colortable dictionary
/c0 { 0.000000 0.000000 0.000000 sr} bdef
/c1 { 1.000000 1.000000 1.000000 sr} bdef
/c2 { 0.900000 0.000000 0.000000 sr} bdef
/c3 { 0.000000 0.820000 0.000000 sr} bdef
/c4 { 0.000000 0.000000 0.800000 sr} bdef
/c5 { 0.910000 0.820000 0.320000 sr} bdef
/c6 { 1.000000 0.260000 0.820000 sr} bdef
/c7 { 0.000000 0.820000 0.820000 sr} bdef
c0
1 j
1 sg
   0    0 6913 5186 PR
6 w
0 4226 5356 0 0 -4226 899 4615 4 MP
PP
-5356 0 0 4226 5356 0 0 -4226 899 4615 5 MP stroke
4 w
DO
SO
6 w
0 sg
 899 4615 mt 6255 4615 L
 899  389 mt 6255  389 L
 899 4615 mt  899  389 L
6255 4615 mt 6255  389 L
 899 4615 mt 6255 4615 L
 899 4615 mt  899  389 L
 899 4615 mt  899 4588 L
 899  389 mt  899  415 L
 899 4615 mt  899 4561 L
 899  389 mt  899  442 L
%%IncludeResource: font Helvetica
/Helvetica /ISOLatin1Encoding 120 FMSR

 787 4797 mt 
(10) s
%%IncludeResource: font Helvetica
/Helvetica /ISOLatin1Encoding 80 FMSR

 920 4723 mt 
(-6) s
1167 4615 mt 1167 4588 L
1167  389 mt 1167  415 L
1324 4615 mt 1324 4588 L
1324  389 mt 1324  415 L
1436 4615 mt 1436 4588 L
1436  389 mt 1436  415 L
1522 4615 mt 1522 4588 L
1522  389 mt 1522  415 L
1593 4615 mt 1593 4588 L
1593  389 mt 1593  415 L
1653 4615 mt 1653 4588 L
1653  389 mt 1653  415 L
1705 4615 mt 1705 4588 L
1705  389 mt 1705  415 L
1750 4615 mt 1750 4588 L
1750  389 mt 1750  415 L
1791 4615 mt 1791 4588 L
1791  389 mt 1791  415 L
1791 4615 mt 1791 4561 L
1791  389 mt 1791  442 L
%%IncludeResource: font Helvetica
/Helvetica /ISOLatin1Encoding 120 FMSR

1679 4797 mt 
(10) s
%%IncludeResource: font Helvetica
/Helvetica /ISOLatin1Encoding 80 FMSR

1812 4723 mt 
(-5) s
2060 4615 mt 2060 4588 L
2060  389 mt 2060  415 L
2217 4615 mt 2217 4588 L
2217  389 mt 2217  415 L
2329 4615 mt 2329 4588 L
2329  389 mt 2329  415 L
2415 4615 mt 2415 4588 L
2415  389 mt 2415  415 L
2486 4615 mt 2486 4588 L
2486  389 mt 2486  415 L
2546 4615 mt 2546 4588 L
2546  389 mt 2546  415 L
2597 4615 mt 2597 4588 L
2597  389 mt 2597  415 L
2643 4615 mt 2643 4588 L
2643  389 mt 2643  415 L
2684 4615 mt 2684 4588 L
2684  389 mt 2684  415 L
2684 4615 mt 2684 4561 L
2684  389 mt 2684  442 L
%%IncludeResource: font Helvetica
/Helvetica /ISOLatin1Encoding 120 FMSR

2572 4797 mt 
(10) s
%%IncludeResource: font Helvetica
/Helvetica /ISOLatin1Encoding 80 FMSR

2705 4723 mt 
(-4) s
2953 4615 mt 2953 4588 L
2953  389 mt 2953  415 L
3110 4615 mt 3110 4588 L
3110  389 mt 3110  415 L
3221 4615 mt 3221 4588 L
3221  389 mt 3221  415 L
3308 4615 mt 3308 4588 L
3308  389 mt 3308  415 L
3378 4615 mt 3378 4588 L
3378  389 mt 3378  415 L
3438 4615 mt 3438 4588 L
3438  389 mt 3438  415 L
3490 4615 mt 3490 4588 L
3490  389 mt 3490  415 L
3536 4615 mt 3536 4588 L
3536  389 mt 3536  415 L
3577 4615 mt 3577 4588 L
3577  389 mt 3577  415 L
3577 4615 mt 3577 4561 L
3577  389 mt 3577  442 L
%%IncludeResource: font Helvetica
/Helvetica /ISOLatin1Encoding 120 FMSR

3465 4797 mt 
(10) s
%%IncludeResource: font Helvetica
/Helvetica /ISOLatin1Encoding 80 FMSR

3598 4723 mt 
(-3) s
3845 4615 mt 3845 4588 L
3845  389 mt 3845  415 L
4002 4615 mt 4002 4588 L
4002  389 mt 4002  415 L
4114 4615 mt 4114 4588 L
4114  389 mt 4114  415 L
4200 4615 mt 4200 4588 L
4200  389 mt 4200  415 L
4271 4615 mt 4271 4588 L
4271  389 mt 4271  415 L
4331 4615 mt 4331 4588 L
4331  389 mt 4331  415 L
4383 4615 mt 4383 4588 L
4383  389 mt 4383  415 L
4428 4615 mt 4428 4588 L
4428  389 mt 4428  415 L
4469 4615 mt 4469 4588 L
4469  389 mt 4469  415 L
4469 4615 mt 4469 4561 L
4469  389 mt 4469  442 L
%%IncludeResource: font Helvetica
/Helvetica /ISOLatin1Encoding 120 FMSR

4357 4797 mt 
(10) s
%%IncludeResource: font Helvetica
/Helvetica /ISOLatin1Encoding 80 FMSR

4490 4723 mt 
(-2) s
4738 4615 mt 4738 4588 L
4738  389 mt 4738  415 L
4895 4615 mt 4895 4588 L
4895  389 mt 4895  415 L
5007 4615 mt 5007 4588 L
5007  389 mt 5007  415 L
5093 4615 mt 5093 4588 L
5093  389 mt 5093  415 L
5164 4615 mt 5164 4588 L
5164  389 mt 5164  415 L
5224 4615 mt 5224 4588 L
5224  389 mt 5224  415 L
5275 4615 mt 5275 4588 L
5275  389 mt 5275  415 L
5321 4615 mt 5321 4588 L
5321  389 mt 5321  415 L
5362 4615 mt 5362 4588 L
5362  389 mt 5362  415 L
5362 4615 mt 5362 4561 L
5362  389 mt 5362  442 L
%%IncludeResource: font Helvetica
/Helvetica /ISOLatin1Encoding 120 FMSR

5250 4797 mt 
(10) s
%%IncludeResource: font Helvetica
/Helvetica /ISOLatin1Encoding 80 FMSR

5383 4723 mt 
(-1) s
5631 4615 mt 5631 4588 L
5631  389 mt 5631  415 L
5788 4615 mt 5788 4588 L
5788  389 mt 5788  415 L
5899 4615 mt 5899 4588 L
5899  389 mt 5899  415 L
5986 4615 mt 5986 4588 L
5986  389 mt 5986  415 L
6056 4615 mt 6056 4588 L
6056  389 mt 6056  415 L
6116 4615 mt 6116 4588 L
6116  389 mt 6116  415 L
6168 4615 mt 6168 4588 L
6168  389 mt 6168  415 L
6214 4615 mt 6214 4588 L
6214  389 mt 6214  415 L
6255 4615 mt 6255 4588 L
6255  389 mt 6255  415 L
6255 4615 mt 6255 4561 L
6255  389 mt 6255  442 L
%%IncludeResource: font Helvetica
/Helvetica /ISOLatin1Encoding 120 FMSR

6167 4797 mt 
(10) s
%%IncludeResource: font Helvetica
/Helvetica /ISOLatin1Encoding 80 FMSR

6300 4723 mt 
(0) s
 899 4615 mt  952 4615 L
6255 4615 mt 6201 4615 L
%%IncludeResource: font Helvetica
/Helvetica /ISOLatin1Encoding 120 FMSR

 561 4659 mt 
(-0.15) s
 899 4145 mt  952 4145 L
6255 4145 mt 6201 4145 L
 628 4189 mt 
(-0.1) s
 899 3675 mt  952 3675 L
6255 3675 mt 6201 3675 L
 561 3719 mt 
(-0.05) s
 899 3206 mt  952 3206 L
6255 3206 mt 6201 3206 L
 798 3250 mt 
(0) s
 899 2736 mt  952 2736 L
6255 2736 mt 6201 2736 L
 631 2780 mt 
(0.05) s
 899 2267 mt  952 2267 L
6255 2267 mt 6201 2267 L
 698 2311 mt 
(0.1) s
 899 1797 mt  952 1797 L
6255 1797 mt 6201 1797 L
 631 1841 mt 
(0.15) s
 899 1328 mt  952 1328 L
6255 1328 mt 6201 1328 L
 698 1372 mt 
(0.2) s
 899  858 mt  952  858 L
6255  858 mt 6201  858 L
 631  902 mt 
(0.25) s
 899  389 mt  952  389 L
6255  389 mt 6201  389 L
 698  433 mt 
(0.3) s
 899 4615 mt 6255 4615 L
 899  389 mt 6255  389 L
 899 4615 mt  899  389 L
6255 4615 mt 6255  389 L
/c8 { 0.000000 0.000000 1.000000 sr} bdef
c8
55 678 54 -1131 54 1525 54 -546 54 0 54 0 54 -484 54 0 
54 222 55 205 54 190 54 507 54 -226 54 0 54 -202 54 -183 
54 -40 54 -416 54 277 55 138 54 536 54 -129 54 269 54 407 
54 137 54 -259 54 -241 54 433 54 0 55 -114 54 -264 54 151 
54 472 54 -103 54 251 54 -181 54 -293 54 -380 54 186 55 -301 
54 -121 54 -326 54 200 54 -344 54 0 54 0 54 61 54 -396 
54 0 55 0 54 -429 54 0 54 223 54 0 54 0 54 -485 
54 0 54 0 54 231 55 0 54 262 54 0 54 0 54 0 
54 0 54 0 54 0 54 0 54 306 55 0 54 0 54 0 
54 0 54 0 54 0 54 0 54 0 54 0 54 0 55 0 
54 0 54 0 54 0 54 0 54 0 54 0 54 0 54 0 
54 0 55 0 54 0 54 0 54 0 54 0 54 0 54 0 
54 0 54 0 54 0 899 2933 100 MP stroke
/c9 { 0.000000 0.500000 0.000000 sr} bdef
c9
55 678 54 285 54 0 54 0 54 0 54 0 54 0 54 0 
54 0 55 0 54 223 54 517 54 0 54 146 54 0 54 0 
54 0 54 -263 54 0 55 -317 54 158 54 -872 54 448 54 281 
54 403 54 -197 54 261 54 -832 54 0 55 133 54 133 54 -136 
54 133 54 133 54 -125 54 147 54 17 54 283 54 144 55 34 
54 -262 54 -113 54 -1520 54 309 54 327 54 -137 54 176 54 0 
54 -141 55 190 54 -144 54 -747 54 0 54 -412 54 190 54 -265 
54 208 54 -546 54 204 55 231 54 0 54 0 54 0 54 0 
54 273 54 341 54 0 54 0 54 0 55 0 54 0 54 0 
54 0 54 0 54 -654 54 0 54 0 54 0 54 0 55 0 
54 0 54 0 54 0 54 0 54 0 54 0 54 0 54 0 
54 0 55 0 54 0 54 0 54 0 54 0 54 0 54 0 
54 0 54 0 54 0 899 3883 100 MP stroke
/c10 { 1.000000 0.000000 0.000000 sr} bdef
c10
55 979 54 0 54 0 54 -484 54 0 54 0 54 222 54 205 
54 368 55 630 54 -224 54 0 54 -351 54 -232 54 -148 54 0 
54 270 54 135 54 267 55 -120 54 411 54 139 54 -521 54 -243 
54 23 54 0 54 610 54 -272 54 161 55 165 54 0 54 523 
54 380 54 137 54 -111 54 -301 54 -465 54 -315 54 -330 55 -346 
54 462 54 -774 54 0 54 0 54 0 54 0 54 0 54 254 
54 285 55 0 54 0 54 0 54 -454 54 0 54 0 54 320 
54 0 54 0 54 381 55 0 54 0 54 0 54 0 54 -535 
54 0 54 0 54 0 54 0 54 0 55 0 54 0 54 0 
54 0 54 0 54 0 54 0 54 0 54 0 54 0 55 0 
54 0 54 0 54 0 54 0 54 0 54 0 54 0 54 0 
54 0 55 0 54 0 54 0 54 0 54 0 54 0 54 0 
54 0 54 0 54 0 899 2558 100 MP stroke
/c11 { 0.000000 0.750000 0.750000 sr} bdef
c11
55 0 54 0 54 0 54 0 54 0 54 0 54 0 54 0 
54 0 55 0 54 0 54 0 54 0 54 0 54 0 54 0 
54 0 54 0 54 0 55 0 54 0 54 0 54 0 54 0 
54 0 54 0 54 0 54 0 54 0 55 0 54 0 54 0 
54 0 54 0 54 0 54 0 54 0 54 0 54 0 55 0 
54 0 54 0 54 0 54 0 54 0 54 0 54 0 54 0 
54 0 55 0 54 0 54 0 54 0 54 0 54 0 54 0 
54 0 54 0 54 0 55 0 54 0 54 0 54 0 54 0 
54 0 54 0 54 0 54 0 54 0 55 0 54 0 54 0 
54 0 54 0 54 0 54 0 54 0 54 0 54 0 55 0 
54 0 54 0 54 0 54 0 54 0 54 0 54 0 54 0 
54 0 55 0 54 0 54 0 54 0 54 0 54 0 54 0 
54 0 54 0 54 0 899 3206 100 MP stroke
0 sg
%%IncludeResource: font Symbol
/Symbol /ISOLatin1Encoding 120 FMSR

3546 4934 mt 
(z) s
%%IncludeResource: font Helvetica
/Helvetica /ISOLatin1Encoding 120 FMSR

 479 2640 mt  -90 rotate
(MCC) s
90 rotate
 882 4658 mt 
( ) s
6239  431 mt 
( ) s
1 sg
0 626 1059 0 0 -626 959 1075 4 MP
PP
-1059 0 0 626 1059 0 0 -626 959 1075 5 MP stroke
4 w
DO
SO
6 w
0 sg
 959 1075 mt 2018 1075 L
 959  449 mt 2018  449 L
 959 1075 mt  959  449 L
2018 1075 mt 2018  449 L
 959 1075 mt 2018 1075 L
 959 1075 mt  959  449 L
 959 1075 mt 2018 1075 L
 959  449 mt 2018  449 L
 959 1075 mt  959  449 L
2018 1075 mt 2018  449 L
1418  584 mt 
(LASSO) s
c8
353 0 1029 541 2 MP stroke
0 sg
1418  731 mt 
(LSCO) s
c9
353 0 1029 688 2 MP stroke
0 sg
1418  878 mt 
(Elastic net) s
c10
353 0 1029 835 2 MP stroke
0 sg
1418 1025 mt 
(RNI) s
c11
353 0 1029 982 2 MP stroke

end %%Color Dict

eplot
%%EndObject

epage
end

showpage

%%Trailer
%%EOF
