%!PS-Adobe-2.0 EPSF-1.2
%%Creator: MATLAB, The MathWorks, Inc. Version 8.3.0.532 (R2014a). Operating System: Linux 3.13.0-35-generic #62-Ubuntu SMP Fri Aug 15 01:58:42 UTC 2014 x86_64.
%%Title: ../img/lowkY_MCC.eps
%%CreationDate: 09/11/2014  16:58:00
%%DocumentNeededFonts: Helvetica
%%DocumentProcessColors: Cyan Magenta Yellow Black
%%Extensions: CMYK
%%Pages: 1
%%BoundingBox:    58   214   545   590
%%EndComments

%%BeginProlog
% MathWorks dictionary
/MathWorks 160 dict begin
% definition operators
/bdef {bind def} bind def
/ldef {load def} bind def
/xdef {exch def} bdef
/xstore {exch store} bdef
% operator abbreviations
/c  /clip ldef
/cc /concat ldef
/cp /closepath ldef
/gr /grestore ldef
/gs /gsave ldef
/mt /moveto ldef
/np /newpath ldef
/cm /currentmatrix ldef
/sm /setmatrix ldef
/rm /rmoveto ldef
/rl /rlineto ldef
/s {show newpath} bdef
/sc {setcmykcolor} bdef
/sr /setrgbcolor ldef
/sg /setgray ldef
/w /setlinewidth ldef
/j /setlinejoin ldef
/cap /setlinecap ldef
/rc {rectclip} bdef
/rf {rectfill} bdef
% page state control
/pgsv () def
/bpage {/pgsv save def} bdef
/epage {pgsv restore} bdef
/bplot /gsave ldef
/eplot {stroke grestore} bdef
% orientation switch
/portraitMode 0 def /landscapeMode 1 def /rotateMode 2 def
% coordinate system mappings
/dpi2point 0 def
% font control
/FontSize 0 def
/FMS {/FontSize xstore findfont [FontSize 0 0 FontSize neg 0 0]
  makefont setfont} bdef
/reencode {exch dup where {pop load} {pop StandardEncoding} ifelse
  exch dup 3 1 roll findfont dup length dict begin
  { 1 index /FID ne {def}{pop pop} ifelse } forall
  /Encoding exch def currentdict end definefont pop} bdef
/isroman {findfont /CharStrings get /Agrave known} bdef
/FMSR {3 1 roll 1 index dup isroman {reencode} {pop pop} ifelse
  exch FMS} bdef
/csm {1 dpi2point div -1 dpi2point div scale neg translate
 dup landscapeMode eq {pop -90 rotate}
  {rotateMode eq {90 rotate} if} ifelse} bdef
% line types: solid, dotted, dashed, dotdash
/SO { [] 0 setdash } bdef
/DO { [.5 dpi2point mul 4 dpi2point mul] 0 setdash } bdef
/DA { [6 dpi2point mul] 0 setdash } bdef
/DD { [.5 dpi2point mul 4 dpi2point mul 6 dpi2point mul 4
  dpi2point mul] 0 setdash } bdef
% macros for lines and objects
/L {lineto stroke} bdef
/MP {3 1 roll moveto 1 sub {rlineto} repeat} bdef
/AP {{rlineto} repeat} bdef
/PDlw -1 def
/W {/PDlw currentlinewidth def setlinewidth} def
/PP {closepath eofill} bdef
/DP {closepath stroke} bdef
/MR {4 -2 roll moveto dup  0 exch rlineto exch 0 rlineto
  neg 0 exch rlineto closepath} bdef
/FR {MR stroke} bdef
/PR {MR fill} bdef
/L1i {{currentfile picstr readhexstring pop} image} bdef
/tMatrix matrix def
/MakeOval {newpath tMatrix currentmatrix pop translate scale
0 0 1 0 360 arc tMatrix setmatrix} bdef
/FO {MakeOval stroke} bdef
/PO {MakeOval fill} bdef
/PD {currentlinewidth 2 div 0 360 arc fill
   PDlw -1 eq not {PDlw w /PDlw -1 def} if} def
/FA {newpath tMatrix currentmatrix pop translate scale
  0 0 1 5 -2 roll arc tMatrix setmatrix stroke} bdef
/PA {newpath tMatrix currentmatrix pop	translate 0 0 moveto scale
  0 0 1 5 -2 roll arc closepath tMatrix setmatrix fill} bdef
/FAn {newpath tMatrix currentmatrix pop translate scale
  0 0 1 5 -2 roll arcn tMatrix setmatrix stroke} bdef
/PAn {newpath tMatrix currentmatrix pop translate 0 0 moveto scale
  0 0 1 5 -2 roll arcn closepath tMatrix setmatrix fill} bdef
/vradius 0 def /hradius 0 def /lry 0 def
/lrx 0 def /uly 0 def /ulx 0 def /rad 0 def
/MRR {/vradius xdef /hradius xdef /lry xdef /lrx xdef /uly xdef
  /ulx xdef newpath tMatrix currentmatrix pop ulx hradius add uly
  vradius add translate hradius vradius scale 0 0 1 180 270 arc 
  tMatrix setmatrix lrx hradius sub uly vradius add translate
  hradius vradius scale 0 0 1 270 360 arc tMatrix setmatrix
  lrx hradius sub lry vradius sub translate hradius vradius scale
  0 0 1 0 90 arc tMatrix setmatrix ulx hradius add lry vradius sub
  translate hradius vradius scale 0 0 1 90 180 arc tMatrix setmatrix
  closepath} bdef
/FRR {MRR stroke } bdef
/PRR {MRR fill } bdef
/MlrRR {/lry xdef /lrx xdef /uly xdef /ulx xdef /rad lry uly sub 2 div def
  newpath tMatrix currentmatrix pop ulx rad add uly rad add translate
  rad rad scale 0 0 1 90 270 arc tMatrix setmatrix lrx rad sub lry rad
  sub translate rad rad scale 0 0 1 270 90 arc tMatrix setmatrix
  closepath} bdef
/FlrRR {MlrRR stroke } bdef
/PlrRR {MlrRR fill } bdef
/MtbRR {/lry xdef /lrx xdef /uly xdef /ulx xdef /rad lrx ulx sub 2 div def
  newpath tMatrix currentmatrix pop ulx rad add uly rad add translate
  rad rad scale 0 0 1 180 360 arc tMatrix setmatrix lrx rad sub lry rad
  sub translate rad rad scale 0 0 1 0 180 arc tMatrix setmatrix
  closepath} bdef
/FtbRR {MtbRR stroke } bdef
/PtbRR {MtbRR fill } bdef
/stri 6 array def /dtri 6 array def
/smat 6 array def /dmat 6 array def
/tmat1 6 array def /tmat2 6 array def /dif 3 array def
/asub {/ind2 exch def /ind1 exch def dup dup
  ind1 get exch ind2 get sub exch } bdef
/tri_to_matrix {
  2 0 asub 3 1 asub 4 0 asub 5 1 asub
  dup 0 get exch 1 get 7 -1 roll astore } bdef
/compute_transform {
  dmat dtri tri_to_matrix tmat1 invertmatrix 
  smat stri tri_to_matrix tmat2 concatmatrix } bdef
/ds {stri astore pop} bdef
/dt {dtri astore pop} bdef
/db {2 copy /cols xdef /rows xdef mul dup 3 mul string
  currentfile exch readhexstring pop
  dup 0 3 index getinterval /rbmap xdef
  dup 2 index dup getinterval /gbmap xdef
  1 index dup 2 mul exch getinterval /bbmap xdef pop pop}bdef
/it {gs np dtri aload pop moveto lineto lineto cp c
  cols rows 8 compute_transform 
  rbmap gbmap bbmap true 3 colorimage gr}bdef
/il {newpath moveto lineto stroke}bdef
currentdict end def
%%EndProlog

%%BeginSetup
MathWorks begin

0 cap

end
%%EndSetup

%%Page: 1 1
%%BeginPageSetup
%%PageBoundingBox:    58   214   545   590
MathWorks begin
bpage
%%EndPageSetup

%%BeginObject: obj1
bplot

/dpi2point 12 def
portraitMode 0216 7344 csm

  480   258  5853  4510 MR c np
87 dict begin %Colortable dictionary
/c0 { 0.000000 0.000000 0.000000 sr} bdef
/c1 { 1.000000 1.000000 1.000000 sr} bdef
/c2 { 0.900000 0.000000 0.000000 sr} bdef
/c3 { 0.000000 0.820000 0.000000 sr} bdef
/c4 { 0.000000 0.000000 0.800000 sr} bdef
/c5 { 0.910000 0.820000 0.320000 sr} bdef
/c6 { 1.000000 0.260000 0.820000 sr} bdef
/c7 { 0.000000 0.820000 0.820000 sr} bdef
c0
1 j
1 sg
   0    0 6913 5186 PR
6 w
0 4087 5356 0 0 -4087 899 4475 4 MP
PP
-5356 0 0 4087 5356 0 0 -4087 899 4475 5 MP stroke
4 w
DO
0 sg
 899 4289 mt 6255 4289 L
6255 4289 mt 6255 4289 L
 899 3918 mt 6255 3918 L
6255 3918 mt 6255 3918 L
 899 3547 mt 6255 3547 L
6255 3547 mt 6255 3547 L
 899 3175 mt 6255 3175 L
6255 3175 mt 6255 3175 L
 899 2804 mt 6255 2804 L
6255 2804 mt 6255 2804 L
 899 2433 mt 6255 2433 L
6255 2433 mt 6255 2433 L
 899 2062 mt 6255 2062 L
6255 2062 mt 6255 2062 L
 899 1691 mt 6255 1691 L
6255 1691 mt 6255 1691 L
 899 1320 mt 6255 1320 L
6255 1320 mt 6255 1320 L
 899  949 mt 6255  949 L
6255  949 mt 6255  949 L
 899  578 mt 6255  578 L
6255  578 mt 6255  578 L
SO
6 w
 899 4475 mt 6255 4475 L
 899  388 mt 6255  388 L
 899 4475 mt  899  388 L
6255 4475 mt 6255  388 L
 899 4475 mt 6255 4475 L
 899 4475 mt  899  388 L
1285 4475 mt 1285 4421 L
1285  389 mt 1285  442 L
%%IncludeResource: font Helvetica
/Helvetica /ISOLatin1Encoding 120 FMSR

1202 4620 mt 
(0.1) s
2431 4475 mt 2431 4421 L
2431  389 mt 2431  442 L
2398 4620 mt 
(1) s
3577 4475 mt 3577 4421 L
3577  389 mt 3577  442 L
3511 4620 mt 
(10) s
4722 4475 mt 4722 4421 L
4722  389 mt 4722  442 L
4622 4620 mt 
(100) s
5868 4475 mt 5868 4421 L
5868  389 mt 5868  442 L
5735 4620 mt 
(1000) s
 899 4289 mt  952 4289 L
6255 4289 mt 6201 4289 L
 798 4333 mt 
(0) s
 899 3918 mt  952 3918 L
6255 3918 mt 6201 3918 L
 698 3962 mt 
(0.1) s
 899 3547 mt  952 3547 L
6255 3547 mt 6201 3547 L
 698 3591 mt 
(0.2) s
 899 3175 mt  952 3175 L
6255 3175 mt 6201 3175 L
 698 3219 mt 
(0.3) s
 899 2804 mt  952 2804 L
6255 2804 mt 6201 2804 L
 698 2848 mt 
(0.4) s
 899 2433 mt  952 2433 L
6255 2433 mt 6201 2433 L
 698 2477 mt 
(0.5) s
 899 2062 mt  952 2062 L
6255 2062 mt 6201 2062 L
 698 2106 mt 
(0.6) s
 899 1691 mt  952 1691 L
6255 1691 mt 6201 1691 L
 698 1735 mt 
(0.7) s
 899 1320 mt  952 1320 L
6255 1320 mt 6201 1320 L
 698 1364 mt 
(0.8) s
 899  949 mt  952  949 L
6255  949 mt 6201  949 L
 698  993 mt 
(0.9) s
 899  578 mt  952  578 L
6255  578 mt 6201  578 L
 798  622 mt 
(1) s
 899 4475 mt 6255 4475 L
 899  388 mt 6255  388 L
 899 4475 mt  899  388 L
6255 4475 mt 6255  388 L
gs 899 388 5357 4088 MR c np
DA
/c8 { 0.000000 1.000000 0.000000 sr} bdef
c8
0 -711 976 3025 2 MP stroke
/c9 { 0.000000 0.000000 1.000000 sr} bdef
c9
1131 4289 PD
/c10 { 0.000000 1.000000 1.000000 sr} bdef
c10
0 -493 1285 3158 2 MP stroke
/c11 { 1.000000 0.000000 0.000000 sr} bdef
c11
0 -747 1440 2789 2 MP stroke
0 sg
0 -791 1595 2789 2 MP stroke
c8
0 -297 2121 875 2 MP stroke
c9
0 -948 2276 2977 2 MP stroke
c10
0 -610 2431 1589 2 MP stroke
c11
0 -396 2586 974 2 MP stroke
0 sg
0 -397 2741 975 2 MP stroke
c8
0 -96 3267 674 2 MP stroke
c9
0 -99 3422 776 2 MP stroke
c10
0 -297 3577 875 2 MP stroke
c11
0 -99 3731 677 2 MP stroke
0 sg
0 -99 3886 677 2 MP stroke
c8
4412 578 PD
c9
4567 578 PD
c10
0 -96 4722 674 2 MP stroke
c11
4877 578 PD
0 sg
5032 578 PD
c8
5558 578 PD
c9
5713 578 PD
c10
5868 578 PD
c11
6022 578 PD
0 sg
6177 578 PD
c8
0 -663 976 4163 2 MP stroke
c9
1131 4289 PD
c10
0 -498 1285 3994 2 MP stroke
c11
0 -764 1440 4073 2 MP stroke
0 sg
0 -757 1595 4073 2 MP stroke
c8
0 -722 2121 2116 2 MP stroke
c9
2276 4289 PD
c10
0 -654 2431 2683 2 MP stroke
c11
0 -546 2586 1942 2 MP stroke
0 sg
0 -633 2741 2059 2 MP stroke
c8
0 -101 3267 877 2 MP stroke
c9
0 -100 3422 975 2 MP stroke
c10
0 -431 3577 1616 2 MP stroke
c11
0 -101 3731 877 2 MP stroke
0 sg
0 -101 3886 877 2 MP stroke
c8
4412 677 PD
c9
0 -99 4567 776 2 MP stroke
c10
0 -301 4722 1176 2 MP stroke
c11
4877 677 PD
0 sg
5032 677 PD
c8
5558 578 PD
c9
5713 578 PD
c10
0 -99 5868 776 2 MP stroke
c11
6022 578 PD
0 sg
6177 578 PD
SO
c8
38 0 957 2314 2 MP stroke
c9
39 0 1111 4289 2 MP stroke
c10
39 0 1266 2665 2 MP stroke
c11
39 0 1421 2042 2 MP stroke
0 sg
38 0 1576 1998 2 MP stroke
c8
39 0 2102 578 2 MP stroke
c9
39 0 2257 2029 2 MP stroke
c10
38 0 2412 979 2 MP stroke
c11
39 0 2566 578 2 MP stroke
0 sg
39 0 2721 578 2 MP stroke
c8
38 0 3248 578 2 MP stroke
c9
39 0 3402 677 2 MP stroke
c10
39 0 3557 578 2 MP stroke
c11
39 0 3712 578 2 MP stroke
0 sg
38 0 3867 578 2 MP stroke
c8
39 0 4393 578 2 MP stroke
c9
39 0 4548 578 2 MP stroke
c10
38 0 4703 578 2 MP stroke
c11
39 0 4857 578 2 MP stroke
0 sg
39 0 5012 578 2 MP stroke
c8
38 0 5539 578 2 MP stroke
c9
39 0 5693 578 2 MP stroke
c10
39 0 5848 578 2 MP stroke
c11
39 0 6003 578 2 MP stroke
0 sg
38 0 6158 578 2 MP stroke
c8
38 0 957 4163 2 MP stroke
c9
39 0 1111 4289 2 MP stroke
c10
39 0 1266 3994 2 MP stroke
c11
39 0 1421 4073 2 MP stroke
0 sg
38 0 1576 4073 2 MP stroke
c8
39 0 2102 2116 2 MP stroke
c9
39 0 2257 4289 2 MP stroke
c10
38 0 2412 2683 2 MP stroke
c11
39 0 2566 1942 2 MP stroke
0 sg
39 0 2721 2059 2 MP stroke
c8
38 0 3248 877 2 MP stroke
c9
39 0 3402 975 2 MP stroke
c10
39 0 3557 1616 2 MP stroke
c11
39 0 3712 877 2 MP stroke
0 sg
38 0 3867 877 2 MP stroke
c8
39 0 4393 677 2 MP stroke
c9
39 0 4548 776 2 MP stroke
c10
38 0 4703 1176 2 MP stroke
c11
39 0 4857 677 2 MP stroke
0 sg
39 0 5012 677 2 MP stroke
c8
38 0 5539 578 2 MP stroke
c9
39 0 5693 578 2 MP stroke
c10
39 0 5848 776 2 MP stroke
c11
39 0 6003 578 2 MP stroke
0 sg
38 0 6158 578 2 MP stroke
c8
-78 0 0 475 78 0 0 -475 937 3500 5 MP stroke
c9
-77 0 77 0 1092 4289 3 MP stroke
c10
-77 0 0 338 77 0 0 -338 1247 3496 5 MP stroke
c11
-77 0 0 520 77 0 0 -520 1402 3309 5 MP stroke
0 sg
-78 0 0 527 78 0 0 -527 1556 3316 5 MP stroke
c8
-77 0 0 519 77 0 0 -519 2083 1394 5 MP stroke
c9
-77 0 0 1312 77 0 0 -1312 2238 4289 5 MP stroke
c10
-78 0 0 440 78 0 0 -440 2392 2029 5 MP stroke
c11
-77 0 0 422 77 0 0 -422 2547 1396 5 MP stroke
0 sg
-77 0 0 451 77 0 0 -451 2702 1426 5 MP stroke
c8
-78 0 0 102 78 0 0 -102 3228 776 5 MP stroke
c9
-77 0 0 99 77 0 0 -99 3383 875 5 MP stroke
c10
-77 0 0 310 77 0 0 -310 3538 1185 5 MP stroke
c11
-77 0 0 99 77 0 0 -99 3693 776 5 MP stroke
0 sg
-78 0 0 99 78 0 0 -99 3847 776 5 MP stroke
c8
-77 0 0 99 77 0 0 -99 4374 677 5 MP stroke
c9
-77 0 0 99 77 0 0 -99 4529 677 5 MP stroke
c10
-78 0 0 201 78 0 0 -201 4683 875 5 MP stroke
c11
-78 0 0 99 78 0 0 -99 4838 677 5 MP stroke
0 sg
-77 0 0 99 77 0 0 -99 4993 677 5 MP stroke
c8
-78 0 78 0 5519 578 3 MP stroke
c9
-77 0 77 0 5674 578 3 MP stroke
c10
-77 0 0 99 77 0 0 -99 5829 677 5 MP stroke
c11
-77 0 77 0 5984 578 3 MP stroke
0 sg
-78 0 78 0 6138 578 3 MP stroke
c8
78 0 937 3285 2 MP stroke
c9
77 0 1092 4289 2 MP stroke
c10
77 0 1247 3370 2 MP stroke
c11
77 0 1402 3029 2 MP stroke
0 sg
78 0 1556 3042 2 MP stroke
c8
77 0 2083 1176 2 MP stroke
c9
77 0 2238 3643 2 MP stroke
c10
78 0 2392 1804 2 MP stroke
c11
77 0 2547 1176 2 MP stroke
0 sg
77 0 2702 1183 2 MP stroke
c8
78 0 3228 677 2 MP stroke
c9
77 0 3383 776 2 MP stroke
c10
77 0 3538 1075 2 MP stroke
c11
77 0 3693 677 2 MP stroke
0 sg
78 0 3847 677 2 MP stroke
c8
77 0 4374 578 2 MP stroke
c9
77 0 4529 578 2 MP stroke
c10
78 0 4683 776 2 MP stroke
c11
78 0 4838 578 2 MP stroke
0 sg
77 0 4993 578 2 MP stroke
c8
78 0 5519 578 2 MP stroke
c9
77 0 5674 578 2 MP stroke
c10
77 0 5829 578 2 MP stroke
c11
77 0 5984 578 2 MP stroke
0 sg
78 0 6138 578 2 MP stroke
gs 903 2008 147 2355 MR c np
c8
 940 4289 mt 1012 4289 L
 976 4253 mt  976 4325 L
 940 2310 mt 1012 2310 L
 976 2274 mt  976 2346 L
 940 2309 mt 1012 2309 L
 976 2273 mt  976 2345 L
 940 2282 mt 1012 2282 L
 976 2246 mt  976 2318 L
 940 2268 mt 1012 2268 L
 976 2232 mt  976 2304 L
 940 2267 mt 1012 2267 L
 976 2231 mt  976 2303 L
 940 2265 mt 1012 2265 L
 976 2229 mt  976 2301 L
 940 2170 mt 1012 2170 L
 976 2134 mt  976 2206 L
 940 2146 mt 1012 2146 L
 976 2110 mt  976 2182 L
 940 2138 mt 1012 2138 L
 976 2102 mt  976 2174 L
 940 2088 mt 1012 2088 L
 976 2052 mt  976 2124 L
 940 2081 mt 1012 2081 L
 976 2045 mt  976 2117 L
gr

c8
gs 1212 2194 147 2100 MR c np
c10
1249 4220 mt 1321 4220 L
1285 4184 mt 1285 4256 L
1249 4190 mt 1321 4190 L
1285 4154 mt 1285 4226 L
1249 4165 mt 1321 4165 L
1285 4129 mt 1285 4201 L
1249 4163 mt 1321 4163 L
1285 4127 mt 1285 4199 L
1249 4098 mt 1321 4098 L
1285 4062 mt 1285 4134 L
1249 4073 mt 1321 4073 L
1285 4037 mt 1285 4109 L
1249 2628 mt 1321 2628 L
1285 2592 mt 1285 2664 L
1249 2577 mt 1321 2577 L
1285 2541 mt 1285 2613 L
1249 2571 mt 1321 2571 L
1285 2535 mt 1285 2607 L
1249 2567 mt 1321 2567 L
1285 2531 mt 1285 2603 L
1249 2549 mt 1321 2549 L
1285 2513 mt 1285 2585 L
1249 2539 mt 1321 2539 L
1285 2503 mt 1285 2575 L
1249 2525 mt 1321 2525 L
1285 2489 mt 1285 2561 L
1249 2432 mt 1321 2432 L
1285 2396 mt 1285 2468 L
1249 2419 mt 1321 2419 L
1285 2383 mt 1285 2455 L
1249 2393 mt 1321 2393 L
1285 2357 mt 1285 2429 L
1249 2360 mt 1321 2360 L
1285 2324 mt 1285 2396 L
1249 2292 mt 1321 2292 L
1285 2256 mt 1285 2328 L
1249 2267 mt 1321 2267 L
1285 2231 mt 1285 2303 L
gr

c10
gs 1367 1721 147 304 MR c np
c11
1404 1951 mt 1476 1951 L
1440 1915 mt 1440 1987 L
1404 1946 mt 1476 1946 L
1440 1910 mt 1440 1982 L
1404 1932 mt 1476 1932 L
1440 1896 mt 1440 1968 L
1404 1915 mt 1476 1915 L
1440 1879 mt 1440 1951 L
1404 1831 mt 1476 1831 L
1440 1795 mt 1440 1867 L
1404 1794 mt 1476 1794 L
1440 1758 mt 1440 1830 L
gr

c11
gs 1522 1645 147 375 MR c np
0 sg
1559 1946 mt 1631 1946 L
1595 1910 mt 1595 1982 L
1559 1932 mt 1631 1932 L
1595 1896 mt 1595 1968 L
1559 1915 mt 1631 1915 L
1595 1879 mt 1595 1951 L
1559 1794 mt 1631 1794 L
1595 1758 mt 1595 1830 L
1559 1718 mt 1631 1718 L
1595 1682 mt 1595 1754 L
gr

0 sg
gs 2358 2623 147 428 MR c np
c10
2395 2977 mt 2467 2977 L
2431 2941 mt 2431 3013 L
2395 2923 mt 2467 2923 L
2431 2887 mt 2431 2959 L
2395 2861 mt 2467 2861 L
2431 2825 mt 2431 2897 L
2395 2823 mt 2467 2823 L
2431 2787 mt 2431 2859 L
2395 2814 mt 2467 2814 L
2431 2778 mt 2431 2850 L
2395 2709 mt 2467 2709 L
2431 2673 mt 2431 2745 L
2395 2706 mt 2467 2706 L
2431 2670 mt 2431 2742 L
2395 2699 mt 2467 2699 L
2431 2663 mt 2431 2735 L
2395 2696 mt 2467 2696 L
2431 2660 mt 2431 2732 L
gr

c10
gs 2513 1986 147 205 MR c np
c11
2550 2117 mt 2622 2117 L
2586 2081 mt 2586 2153 L
2550 2116 mt 2622 2116 L
2586 2080 mt 2586 2152 L
2550 2059 mt 2622 2059 L
2586 2023 mt 2586 2095 L
gr

c11
gs 2668 2043 147 177 MR c np
0 sg
2705 2146 mt 2777 2146 L
2741 2110 mt 2741 2182 L
2705 2116 mt 2777 2116 L
2741 2080 mt 2741 2152 L
gr

0 sg
gs 3194 863 147 286 MR c np
c8
3231 1075 mt 3303 1075 L
3267 1039 mt 3267 1111 L
3231 1044 mt 3303 1044 L
3267 1008 mt 3267 1080 L
3231  975 mt 3303  975 L
3267  939 mt 3267 1011 L
3231  974 mt 3303  974 L
3267  938 mt 3267 1010 L
3231  959 mt 3303  959 L
3267  923 mt 3267  995 L
3231  936 mt 3303  936 L
3267  900 mt 3267  972 L
gr

c8
gs 3349 1002 147 147 MR c np
c9
3386 1075 mt 3458 1075 L
3422 1039 mt 3422 1111 L
gr

c9
gs 3504 1578 147 577 MR c np
c10
3541 2081 mt 3613 2081 L
3577 2045 mt 3577 2117 L
3541 2027 mt 3613 2027 L
3577 1991 mt 3577 2063 L
3541 1942 mt 3613 1942 L
3577 1906 mt 3577 1978 L
3541 1915 mt 3613 1915 L
3577 1879 mt 3577 1951 L
3541 1881 mt 3613 1881 L
3577 1845 mt 3577 1917 L
3541 1829 mt 3613 1829 L
3577 1793 mt 3577 1865 L
3541 1816 mt 3613 1816 L
3577 1780 mt 3577 1852 L
3541 1804 mt 3613 1804 L
3577 1768 mt 3577 1840 L
3541 1794 mt 3613 1794 L
3577 1758 mt 3577 1830 L
3541 1723 mt 3613 1723 L
3577 1687 mt 3577 1759 L
3541 1718 mt 3613 1718 L
3577 1682 mt 3577 1754 L
3541 1717 mt 3613 1717 L
3577 1681 mt 3577 1753 L
3541 1703 mt 3613 1703 L
3577 1667 mt 3577 1739 L
3541 1695 mt 3613 1695 L
3577 1659 mt 3577 1731 L
3541 1692 mt 3613 1692 L
3577 1656 mt 3577 1728 L
3541 1651 mt 3613 1651 L
3577 1615 mt 3577 1687 L
gr

c10
gs 3658 863 147 286 MR c np
c11
3695 1075 mt 3767 1075 L
3731 1039 mt 3731 1111 L
3695 1065 mt 3767 1065 L
3731 1029 mt 3731 1101 L
3695  979 mt 3767  979 L
3731  943 mt 3731 1015 L
3695  975 mt 3767  975 L
3731  939 mt 3731 1011 L
3695  974 mt 3767  974 L
3731  938 mt 3731 1010 L
3695  959 mt 3767  959 L
3731  923 mt 3731  995 L
3695  936 mt 3767  936 L
3731  900 mt 3731  972 L
gr

c11
gs 3813 886 147 263 MR c np
0 sg
3850 1075 mt 3922 1075 L
3886 1039 mt 3886 1111 L
3850 1044 mt 3922 1044 L
3886 1008 mt 3886 1080 L
3850  975 mt 3922  975 L
3886  939 mt 3886 1011 L
3850  974 mt 3922  974 L
3886  938 mt 3886 1010 L
3850  959 mt 3922  959 L
3886  923 mt 3886  995 L
gr

0 sg
gs 4649 1110 147 447 MR c np
c10
4686 1483 mt 4758 1483 L
4722 1447 mt 4722 1519 L
4686 1304 mt 4758 1304 L
4722 1268 mt 4722 1340 L
4686 1289 mt 4758 1289 L
4722 1253 mt 4722 1325 L
4686 1279 mt 4758 1279 L
4722 1243 mt 4722 1315 L
4686 1277 mt 4758 1277 L
4722 1241 mt 4722 1313 L
4686 1260 mt 4758 1260 L
4722 1224 mt 4722 1296 L
4686 1235 mt 4758 1235 L
4722 1199 mt 4722 1271 L
4686 1203 mt 4758 1203 L
4722 1167 mt 4722 1239 L
4686 1185 mt 4758 1185 L
4722 1149 mt 4722 1221 L
4686 1183 mt 4758 1183 L
4722 1147 mt 4722 1219 L
gr

c10
gs 5795 780 147 369 MR c np
5832 1075 mt 5904 1075 L
5868 1039 mt 5868 1111 L
5832 1065 mt 5904 1065 L
5868 1029 mt 5868 1101 L
5832  979 mt 5904  979 L
5868  943 mt 5868 1015 L
5832  975 mt 5904  975 L
5868  939 mt 5868 1011 L
5832  974 mt 5904  974 L
5868  938 mt 5868 1010 L
5832  959 mt 5904  959 L
5868  923 mt 5868  995 L
5832  877 mt 5904  877 L
5868  841 mt 5868  913 L
5832  875 mt 5904  875 L
5868  839 mt 5868  911 L
5832  869 mt 5904  869 L
5868  833 mt 5868  905 L
5832  853 mt 5904  853 L
5868  817 mt 5868  889 L
gr

gr

c10
0 sg
3450 4716 mt 
(SNR) s
 616 2570 mt  -90 rotate
(MCC) s
90 rotate
 870 4530 mt 
( ) s
6227  442 mt 
( ) s
gs 899 388 5357 4088 MR c np
DA
5356 0 899 4289 2 MP stroke
SO
gr

1 sg
0 792 1157 0 0 -792 4619 2947 4 MP
PP
-1157 0 0 792 1157 0 0 -792 4619 2947 5 MP stroke
4 w
DO
SO
6 w
0 sg
4619 2947 mt 5776 2947 L
4619 2155 mt 5776 2155 L
4619 2947 mt 4619 2155 L
5776 2947 mt 5776 2155 L
4619 2947 mt 5776 2947 L
4619 2947 mt 4619 2155 L
4619 2947 mt 5776 2947 L
4619 2155 mt 5776 2155 L
4619 2947 mt 4619 2155 L
5776 2947 mt 5776 2155 L
5087 2293 mt 
(Elastic net) s
gs 4619 2155 1158 793 MR c np
360 0 4691 2251 2 MP stroke
gr

5087 2443 mt 
(LASSO) s
gs 4619 2155 1158 793 MR c np
c11
360 0 4691 2401 2 MP stroke
gr

c11
0 sg
5087 2594 mt 
(Bolasso) s
gs 4619 2155 1158 793 MR c np
c10
360 0 4691 2551 2 MP stroke
gr

c10
0 sg
5087 2744 mt 
(RNI) s
gs 4619 2155 1158 793 MR c np
c9
360 0 4691 2701 2 MP stroke
gr

c9
0 sg
5087 2894 mt 
(LSCO) s
gs 4619 2155 1158 793 MR c np
c8
360 0 4691 2851 2 MP stroke
gr

c8

end %%Color Dict

eplot
%%EndObject

epage
end

showpage

%%Trailer
%%EOF
