%!PS-Adobe-2.0 EPSF-1.2
%%Creator: MATLAB, The MathWorks, Inc. Version 8.3.0.532 (R2014a). Operating System: Linux 3.13.0-30-generic #55-Ubuntu SMP Fri Jul 4 21:40:53 UTC 2014 x86_64.
%%Title: ../img/N45GlmnetSIC-minRegDiff.eps
%%CreationDate: 07/15/2014  11:44:41
%%DocumentNeededFonts: Helvetica
%%DocumentProcessColors: Cyan Magenta Yellow Black
%%Extensions: CMYK
%%Pages: 1
%%BoundingBox:    58   196   553   591
%%EndComments

%%BeginProlog
% MathWorks dictionary
/MathWorks 160 dict begin
% definition operators
/bdef {bind def} bind def
/ldef {load def} bind def
/xdef {exch def} bdef
/xstore {exch store} bdef
% operator abbreviations
/c  /clip ldef
/cc /concat ldef
/cp /closepath ldef
/gr /grestore ldef
/gs /gsave ldef
/mt /moveto ldef
/np /newpath ldef
/cm /currentmatrix ldef
/sm /setmatrix ldef
/rm /rmoveto ldef
/rl /rlineto ldef
/s {show newpath} bdef
/sc {setcmykcolor} bdef
/sr /setrgbcolor ldef
/sg /setgray ldef
/w /setlinewidth ldef
/j /setlinejoin ldef
/cap /setlinecap ldef
/rc {rectclip} bdef
/rf {rectfill} bdef
% page state control
/pgsv () def
/bpage {/pgsv save def} bdef
/epage {pgsv restore} bdef
/bplot /gsave ldef
/eplot {stroke grestore} bdef
% orientation switch
/portraitMode 0 def /landscapeMode 1 def /rotateMode 2 def
% coordinate system mappings
/dpi2point 0 def
% font control
/FontSize 0 def
/FMS {/FontSize xstore findfont [FontSize 0 0 FontSize neg 0 0]
  makefont setfont} bdef
/reencode {exch dup where {pop load} {pop StandardEncoding} ifelse
  exch dup 3 1 roll findfont dup length dict begin
  { 1 index /FID ne {def}{pop pop} ifelse } forall
  /Encoding exch def currentdict end definefont pop} bdef
/isroman {findfont /CharStrings get /Agrave known} bdef
/FMSR {3 1 roll 1 index dup isroman {reencode} {pop pop} ifelse
  exch FMS} bdef
/csm {1 dpi2point div -1 dpi2point div scale neg translate
 dup landscapeMode eq {pop -90 rotate}
  {rotateMode eq {90 rotate} if} ifelse} bdef
% line types: solid, dotted, dashed, dotdash
/SO { [] 0 setdash } bdef
/DO { [.5 dpi2point mul 4 dpi2point mul] 0 setdash } bdef
/DA { [6 dpi2point mul] 0 setdash } bdef
/DD { [.5 dpi2point mul 4 dpi2point mul 6 dpi2point mul 4
  dpi2point mul] 0 setdash } bdef
% macros for lines and objects
/L {lineto stroke} bdef
/MP {3 1 roll moveto 1 sub {rlineto} repeat} bdef
/AP {{rlineto} repeat} bdef
/PDlw -1 def
/W {/PDlw currentlinewidth def setlinewidth} def
/PP {closepath eofill} bdef
/DP {closepath stroke} bdef
/MR {4 -2 roll moveto dup  0 exch rlineto exch 0 rlineto
  neg 0 exch rlineto closepath} bdef
/FR {MR stroke} bdef
/PR {MR fill} bdef
/L1i {{currentfile picstr readhexstring pop} image} bdef
/tMatrix matrix def
/MakeOval {newpath tMatrix currentmatrix pop translate scale
0 0 1 0 360 arc tMatrix setmatrix} bdef
/FO {MakeOval stroke} bdef
/PO {MakeOval fill} bdef
/PD {currentlinewidth 2 div 0 360 arc fill
   PDlw -1 eq not {PDlw w /PDlw -1 def} if} def
/FA {newpath tMatrix currentmatrix pop translate scale
  0 0 1 5 -2 roll arc tMatrix setmatrix stroke} bdef
/PA {newpath tMatrix currentmatrix pop	translate 0 0 moveto scale
  0 0 1 5 -2 roll arc closepath tMatrix setmatrix fill} bdef
/FAn {newpath tMatrix currentmatrix pop translate scale
  0 0 1 5 -2 roll arcn tMatrix setmatrix stroke} bdef
/PAn {newpath tMatrix currentmatrix pop translate 0 0 moveto scale
  0 0 1 5 -2 roll arcn closepath tMatrix setmatrix fill} bdef
/vradius 0 def /hradius 0 def /lry 0 def
/lrx 0 def /uly 0 def /ulx 0 def /rad 0 def
/MRR {/vradius xdef /hradius xdef /lry xdef /lrx xdef /uly xdef
  /ulx xdef newpath tMatrix currentmatrix pop ulx hradius add uly
  vradius add translate hradius vradius scale 0 0 1 180 270 arc 
  tMatrix setmatrix lrx hradius sub uly vradius add translate
  hradius vradius scale 0 0 1 270 360 arc tMatrix setmatrix
  lrx hradius sub lry vradius sub translate hradius vradius scale
  0 0 1 0 90 arc tMatrix setmatrix ulx hradius add lry vradius sub
  translate hradius vradius scale 0 0 1 90 180 arc tMatrix setmatrix
  closepath} bdef
/FRR {MRR stroke } bdef
/PRR {MRR fill } bdef
/MlrRR {/lry xdef /lrx xdef /uly xdef /ulx xdef /rad lry uly sub 2 div def
  newpath tMatrix currentmatrix pop ulx rad add uly rad add translate
  rad rad scale 0 0 1 90 270 arc tMatrix setmatrix lrx rad sub lry rad
  sub translate rad rad scale 0 0 1 270 90 arc tMatrix setmatrix
  closepath} bdef
/FlrRR {MlrRR stroke } bdef
/PlrRR {MlrRR fill } bdef
/MtbRR {/lry xdef /lrx xdef /uly xdef /ulx xdef /rad lrx ulx sub 2 div def
  newpath tMatrix currentmatrix pop ulx rad add uly rad add translate
  rad rad scale 0 0 1 180 360 arc tMatrix setmatrix lrx rad sub lry rad
  sub translate rad rad scale 0 0 1 0 180 arc tMatrix setmatrix
  closepath} bdef
/FtbRR {MtbRR stroke } bdef
/PtbRR {MtbRR fill } bdef
/stri 6 array def /dtri 6 array def
/smat 6 array def /dmat 6 array def
/tmat1 6 array def /tmat2 6 array def /dif 3 array def
/asub {/ind2 exch def /ind1 exch def dup dup
  ind1 get exch ind2 get sub exch } bdef
/tri_to_matrix {
  2 0 asub 3 1 asub 4 0 asub 5 1 asub
  dup 0 get exch 1 get 7 -1 roll astore } bdef
/compute_transform {
  dmat dtri tri_to_matrix tmat1 invertmatrix 
  smat stri tri_to_matrix tmat2 concatmatrix } bdef
/ds {stri astore pop} bdef
/dt {dtri astore pop} bdef
/db {2 copy /cols xdef /rows xdef mul dup 3 mul string
  currentfile exch readhexstring pop
  dup 0 3 index getinterval /rbmap xdef
  dup 2 index dup getinterval /gbmap xdef
  1 index dup 2 mul exch getinterval /bbmap xdef pop pop}bdef
/it {gs np dtri aload pop moveto lineto lineto cp c
  cols rows 8 compute_transform 
  rbmap gbmap bbmap true 3 colorimage gr}bdef
/il {newpath moveto lineto stroke}bdef
currentdict end def
%%EndProlog

%%BeginSetup
MathWorks begin

0 cap

end
%%EndSetup

%%Page: 1 1
%%BeginPageSetup
%%PageBoundingBox:    58   196   553   591
MathWorks begin
bpage
%%EndPageSetup

%%BeginObject: obj1
bplot

/dpi2point 12 def
portraitMode 0216 7344 csm

  480   247  5941  4740 MR c np
85 dict begin %Colortable dictionary
/c0 { 0.000000 0.000000 0.000000 sr} bdef
/c1 { 1.000000 1.000000 1.000000 sr} bdef
/c2 { 0.900000 0.000000 0.000000 sr} bdef
/c3 { 0.000000 0.820000 0.000000 sr} bdef
/c4 { 0.000000 0.000000 0.800000 sr} bdef
/c5 { 0.910000 0.820000 0.320000 sr} bdef
/c6 { 1.000000 0.260000 0.820000 sr} bdef
/c7 { 0.000000 0.820000 0.820000 sr} bdef
c0
1 j
1 sg
   0    0 6913 5186 PR
6 w
0 4226 5356 0 0 -4226 899 4615 4 MP
PP
-5356 0 0 4226 5356 0 0 -4226 899 4615 5 MP stroke
4 w
DO
0 sg
 899 4615 mt  899  389 L
 899  389 mt  899  389 L
1791 4615 mt 1791  389 L
1791  389 mt 1791  389 L
2684 4615 mt 2684  389 L
2684  389 mt 2684  389 L
3577 4615 mt 3577  389 L
3577  389 mt 3577  389 L
4469 4615 mt 4469  389 L
4469  389 mt 4469  389 L
5362 4615 mt 5362  389 L
5362  389 mt 5362  389 L
6255 4615 mt 6255  389 L
6255  389 mt 6255  389 L
 899 4615 mt 6255 4615 L
6255 4615 mt 6255 4615 L
 899 4192 mt 6255 4192 L
6255 4192 mt 6255 4192 L
 899 3769 mt 6255 3769 L
6255 3769 mt 6255 3769 L
 899 3347 mt 6255 3347 L
6255 3347 mt 6255 3347 L
 899 2924 mt 6255 2924 L
6255 2924 mt 6255 2924 L
 899 2502 mt 6255 2502 L
6255 2502 mt 6255 2502 L
 899 2079 mt 6255 2079 L
6255 2079 mt 6255 2079 L
 899 1656 mt 6255 1656 L
6255 1656 mt 6255 1656 L
 899 1234 mt 6255 1234 L
6255 1234 mt 6255 1234 L
 899  811 mt 6255  811 L
6255  811 mt 6255  811 L
 899  389 mt 6255  389 L
6255  389 mt 6255  389 L
SO
6 w
 899 4615 mt 6255 4615 L
 899 4615 mt  899  389 L
 899 4615 mt  899 4561 L
%%IncludeResource: font Helvetica
/Helvetica /ISOLatin1Encoding 120 FMSR

 866 4760 mt 
(0) s
1791 4615 mt 1791 4561 L
1675 4760 mt 
(0.02) s
2684 4615 mt 2684 4561 L
2568 4760 mt 
(0.04) s
3577 4615 mt 3577 4561 L
3461 4760 mt 
(0.06) s
4469 4615 mt 4469 4561 L
4353 4760 mt 
(0.08) s
5362 4615 mt 5362 4561 L
5279 4760 mt 
(0.1) s
6255 4615 mt 6255 4561 L
6139 4760 mt 
(0.12) s
 899 4615 mt  952 4615 L
 798 4659 mt 
(0) s
 899 4192 mt  952 4192 L
 698 4236 mt 
(0.1) s
 899 3769 mt  952 3769 L
 698 3813 mt 
(0.2) s
 899 3347 mt  952 3347 L
 698 3391 mt 
(0.3) s
 899 2924 mt  952 2924 L
 698 2968 mt 
(0.4) s
 899 2502 mt  952 2502 L
 698 2546 mt 
(0.5) s
 899 2079 mt  952 2079 L
 698 2123 mt 
(0.6) s
 899 1656 mt  952 1656 L
 698 1700 mt 
(0.7) s
 899 1234 mt  952 1234 L
 698 1278 mt 
(0.8) s
 899  811 mt  952  811 L
 698  855 mt 
(0.9) s
 899  389 mt  952  389 L
 798  433 mt 
(1) s
gs 899 389 5357 4227 MR c np
0 j
gs 5337 1160 123 123 MR c np
0 -48 -48 0 0 48 48 0 5374 1197 5 MP
/c8 { 0.000000 0.000000 0.562500 sr} bdef
c8
DP
gr

c8
gs 3285 1079 123 123 MR c np
0 -48 -48 0 0 48 48 0 3322 1116 5 MP
DP
gr

gs 3043 1230 123 123 MR c np
0 -48 -48 0 0 48 48 0 3080 1267 5 MP
DP
gr

gs 5110 1279 123 123 MR c np
0 -48 -48 0 0 48 48 0 5147 1316 5 MP
DP
gr

gs 2678 1160 123 123 MR c np
0 -48 -48 0 0 48 48 0 2715 1197 5 MP
DP
gr

gs 4973 1585 123 123 MR c np
0 -48 -48 0 0 48 48 0 5010 1622 5 MP
DP
gr

gs 3668 970 123 123 MR c np
0 -48 -48 0 0 48 48 0 3705 1007 5 MP
DP
gr

gs 2837 1428 123 123 MR c np
0 -48 -48 0 0 48 48 0 2874 1465 5 MP
DP
gr

gs 2333 1551 123 123 MR c np
0 -48 -48 0 0 48 48 0 2370 1588 5 MP
DP
gr

gs 1068 3115 123 123 MR c np
0 -48 -48 0 0 48 48 0 1105 3152 5 MP
/c9 { 0.500000 0.000000 0.000000 sr} bdef
c9
DP
gr

c9
gs 2247 1657 123 123 MR c np
0 -48 -48 0 0 48 48 0 2284 1694 5 MP
c8
DP
gr

c8
gs 1070 2987 123 123 MR c np
0 -48 -48 0 0 48 48 0 1107 3024 5 MP
c9
DP
gr

c9
gs 958 3142 123 123 MR c np
0 -48 -48 0 0 48 48 0 995 3179 5 MP
DP
gr

gs 985 3373 123 123 MR c np
0 -48 -48 0 0 48 48 0 1022 3410 5 MP
DP
gr

gs 951 3269 123 123 MR c np
0 -48 -48 0 0 48 48 0 988 3306 5 MP
DP
gr

gs 943 3095 123 123 MR c np
0 -48 -48 0 0 48 48 0 980 3132 5 MP
DP
gr

gs 947 3146 123 123 MR c np
0 -48 -48 0 0 48 48 0 984 3183 5 MP
DP
gr

gs 957 2967 123 123 MR c np
0 -48 -48 0 0 48 48 0 994 3004 5 MP
DP
gr

gs 974 3163 123 123 MR c np
0 -48 -48 0 0 48 48 0 1011 3200 5 MP
DP
gr

gs 975 3500 123 123 MR c np
0 -48 -48 0 0 48 48 0 1012 3537 5 MP
DP
gr

gs 5337 867 123 123 MR c np
c8
5377  907 mt 5419  949 L
5419  907 mt 5377  949 L
gr

c8
gs 3285 625 123 123 MR c np
3325  665 mt 3367  707 L
3367  665 mt 3325  707 L
gr

gs 3043 786 123 123 MR c np
3083  826 mt 3125  868 L
3125  826 mt 3083  868 L
gr

gs 5110 952 123 123 MR c np
5150  992 mt 5192 1034 L
5192  992 mt 5150 1034 L
gr

gs 2678 854 123 123 MR c np
2718  894 mt 2760  936 L
2760  894 mt 2718  936 L
gr

gs 4973 1101 123 123 MR c np
5013 1141 mt 5055 1183 L
5055 1141 mt 5013 1183 L
gr

gs 3668 711 123 123 MR c np
3708  751 mt 3750  793 L
3750  751 mt 3708  793 L
gr

gs 2837 895 123 123 MR c np
2877  935 mt 2919  977 L
2919  935 mt 2877  977 L
gr

gs 2333 984 123 123 MR c np
2373 1024 mt 2415 1066 L
2415 1024 mt 2373 1066 L
gr

gs 1068 2370 123 123 MR c np
c9
1108 2410 mt 1150 2452 L
1150 2410 mt 1108 2452 L
gr

c9
gs 2247 1006 123 123 MR c np
c8
2287 1046 mt 2329 1088 L
2329 1046 mt 2287 1088 L
gr

c8
gs 1070 2250 123 123 MR c np
c9
1110 2290 mt 1152 2332 L
1152 2290 mt 1110 2332 L
gr

c9
gs 958 2546 123 123 MR c np
 998 2586 mt 1040 2628 L
1040 2586 mt  998 2628 L
gr

gs 985 2702 123 123 MR c np
1025 2742 mt 1067 2784 L
1067 2742 mt 1025 2784 L
gr

gs 951 2518 123 123 MR c np
 991 2558 mt 1033 2600 L
1033 2558 mt  991 2600 L
gr

gs 943 2691 123 123 MR c np
 983 2731 mt 1025 2773 L
1025 2731 mt  983 2773 L
gr

gs 947 2586 123 123 MR c np
 987 2626 mt 1029 2668 L
1029 2626 mt  987 2668 L
gr

gs 957 2630 123 123 MR c np
 997 2670 mt 1039 2712 L
1039 2670 mt  997 2712 L
gr

gs 974 2310 123 123 MR c np
1014 2350 mt 1056 2392 L
1056 2350 mt 1014 2392 L
gr

gs 975 2802 123 123 MR c np
1015 2842 mt 1057 2884 L
1057 2842 mt 1015 2884 L
gr

gs 5337 714 123 123 MR c np
34 59 -68 0 34 -59 5398 814 4 MP
c8
DP
gr

c8
gs 3285 558 123 123 MR c np
34 59 -68 0 34 -59 3346 658 4 MP
DP
gr

gs 3043 643 123 123 MR c np
34 59 -68 0 34 -59 3104 743 4 MP
DP
gr

gs 5110 786 123 123 MR c np
34 59 -68 0 34 -59 5171 886 4 MP
DP
gr

gs 2678 683 123 123 MR c np
34 59 -68 0 34 -59 2739 783 4 MP
DP
gr

gs 4973 975 123 123 MR c np
34 59 -68 0 34 -59 5034 1075 4 MP
DP
gr

gs 3668 641 123 123 MR c np
34 59 -68 0 34 -59 3729 741 4 MP
DP
gr

gs 2837 751 123 123 MR c np
34 59 -68 0 34 -59 2898 851 4 MP
DP
gr

gs 2333 783 123 123 MR c np
34 59 -68 0 34 -59 2394 883 4 MP
DP
gr

gs 1068 1583 123 123 MR c np
34 59 -68 0 34 -59 1129 1683 4 MP
c9
DP
gr

c9
gs 2247 776 123 123 MR c np
34 59 -68 0 34 -59 2308 876 4 MP
c8
DP
gr

c8
gs 1070 1601 123 123 MR c np
34 59 -68 0 34 -59 1131 1701 4 MP
c9
DP
gr

c9
gs 958 1820 123 123 MR c np
34 59 -68 0 34 -59 1019 1920 4 MP
DP
gr

gs 985 1961 123 123 MR c np
34 59 -68 0 34 -59 1046 2061 4 MP
DP
gr

gs 951 1654 123 123 MR c np
34 59 -68 0 34 -59 1012 1754 4 MP
DP
gr

gs 943 2100 123 123 MR c np
34 59 -68 0 34 -59 1004 2200 4 MP
DP
gr

gs 947 1947 123 123 MR c np
34 59 -68 0 34 -59 1008 2047 4 MP
DP
gr

gs 957 2047 123 123 MR c np
34 59 -68 0 34 -59 1018 2147 4 MP
DP
gr

gs 974 1473 123 123 MR c np
34 59 -68 0 34 -59 1035 1573 4 MP
DP
gr

gs 975 1794 123 123 MR c np
34 59 -68 0 34 -59 1036 1894 4 MP
DP
gr

gs 5337 680 123 123 MR c np
c8
5368  741 mt 5428  741 L
5398  711 mt 5398  771 L
gr

c8
gs 3285 535 123 123 MR c np
3316  596 mt 3376  596 L
3346  566 mt 3346  626 L
gr

gs 3043 573 123 123 MR c np
3074  634 mt 3134  634 L
3104  604 mt 3104  664 L
gr

gs 5110 760 123 123 MR c np
5141  821 mt 5201  821 L
5171  791 mt 5171  851 L
gr

gs 2678 615 123 123 MR c np
2709  676 mt 2769  676 L
2739  646 mt 2739  706 L
gr

gs 4973 897 123 123 MR c np
5004  958 mt 5064  958 L
5034  928 mt 5034  988 L
gr

gs 3668 625 123 123 MR c np
3699  686 mt 3759  686 L
3729  656 mt 3729  716 L
gr

gs 2837 678 123 123 MR c np
2868  739 mt 2928  739 L
2898  709 mt 2898  769 L
gr

gs 2333 706 123 123 MR c np
2364  767 mt 2424  767 L
2394  737 mt 2394  797 L
gr

gs 1068 993 123 123 MR c np
c9
1099 1054 mt 1159 1054 L
1129 1024 mt 1129 1084 L
gr

c9
gs 2247 668 123 123 MR c np
c8
2278  729 mt 2338  729 L
2308  699 mt 2308  759 L
gr

c8
gs 1070 1074 123 123 MR c np
c9
1101 1135 mt 1161 1135 L
1131 1105 mt 1131 1165 L
gr

c9
gs 958 1236 123 123 MR c np
 989 1297 mt 1049 1297 L
1019 1267 mt 1019 1327 L
gr

gs 985 1423 123 123 MR c np
1016 1484 mt 1076 1484 L
1046 1454 mt 1046 1514 L
gr

gs 951 1011 123 123 MR c np
 982 1072 mt 1042 1072 L
1012 1042 mt 1012 1102 L
gr

gs 943 1488 123 123 MR c np
 974 1549 mt 1034 1549 L
1004 1519 mt 1004 1579 L
gr

gs 947 1255 123 123 MR c np
 978 1316 mt 1038 1316 L
1008 1286 mt 1008 1346 L
gr

gs 957 1666 123 123 MR c np
 988 1727 mt 1048 1727 L
1018 1697 mt 1018 1757 L
gr

gs 974 993 123 123 MR c np
1005 1054 mt 1065 1054 L
1035 1024 mt 1035 1084 L
gr

gs 975 1187 123 123 MR c np
1006 1248 mt 1066 1248 L
1036 1218 mt 1036 1278 L
gr

gs 5337 681 123 123 MR c np
30 39 -30 39 -30 -39 30 -39 5398 781 5 MP
c8
DP
gr

c8
gs 3285 517 123 123 MR c np
30 39 -30 39 -30 -39 30 -39 3346 617 5 MP
DP
gr

gs 3043 558 123 123 MR c np
30 39 -30 39 -30 -39 30 -39 3104 658 5 MP
DP
gr

gs 5110 766 123 123 MR c np
30 39 -30 39 -30 -39 30 -39 5171 866 5 MP
DP
gr

gs 2678 561 123 123 MR c np
30 39 -30 39 -30 -39 30 -39 2739 661 5 MP
DP
gr

gs 4973 872 123 123 MR c np
30 39 -30 39 -30 -39 30 -39 5034 972 5 MP
DP
gr

gs 3668 618 123 123 MR c np
30 39 -30 39 -30 -39 30 -39 3729 718 5 MP
DP
gr

gs 2837 647 123 123 MR c np
30 39 -30 39 -30 -39 30 -39 2898 747 5 MP
DP
gr

gs 2333 655 123 123 MR c np
30 39 -30 39 -30 -39 30 -39 2394 755 5 MP
DP
gr

gs 1068 794 123 123 MR c np
30 39 -30 39 -30 -39 30 -39 1129 894 5 MP
c9
DP
gr

c9
gs 2247 608 123 123 MR c np
30 39 -30 39 -30 -39 30 -39 2308 708 5 MP
c8
DP
gr

c8
gs 1070 922 123 123 MR c np
30 39 -30 39 -30 -39 30 -39 1131 1022 5 MP
c9
DP
gr

c9
gs 958 954 123 123 MR c np
30 39 -30 39 -30 -39 30 -39 1019 1054 5 MP
DP
gr

gs 985 1105 123 123 MR c np
30 39 -30 39 -30 -39 30 -39 1046 1205 5 MP
DP
gr

gs 951 806 123 123 MR c np
30 39 -30 39 -30 -39 30 -39 1012 906 5 MP
DP
gr

gs 943 1140 123 123 MR c np
30 39 -30 39 -30 -39 30 -39 1004 1240 5 MP
DP
gr

gs 947 1109 123 123 MR c np
30 39 -30 39 -30 -39 30 -39 1008 1209 5 MP
DP
gr

gs 957 1493 123 123 MR c np
30 39 -30 39 -30 -39 30 -39 1018 1593 5 MP
DP
gr

gs 974 855 123 123 MR c np
30 39 -30 39 -30 -39 30 -39 1035 955 5 MP
DP
gr

gs 975 952 123 123 MR c np
30 39 -30 39 -30 -39 30 -39 1036 1052 5 MP
DP
gr

gs 5337 685 123 123 MR c np
c8
  30   30 5398  746 FO
gr

c8
gs 3285 506 123 123 MR c np
  30   30 3346  567 FO
gr

gs 3043 538 123 123 MR c np
  30   30 3104  599 FO
gr

gs 5110 782 123 123 MR c np
  30   30 5171  843 FO
gr

gs 2678 548 123 123 MR c np
  30   30 2739  609 FO
gr

gs 4973 861 123 123 MR c np
  30   30 5034  922 FO
gr

gs 3668 615 123 123 MR c np
  30   30 3729  676 FO
gr

gs 2837 644 123 123 MR c np
  30   30 2898  705 FO
gr

gs 2333 643 123 123 MR c np
  30   30 2394  704 FO
gr

gs 1068 737 123 123 MR c np
c9
  30   30 1129  798 FO
gr

c9
gs 2247 589 123 123 MR c np
c8
  30   30 2308  650 FO
gr

c8
gs 1070 908 123 123 MR c np
c9
  30   30 1131  969 FO
gr

c9
gs 959 840 123 123 MR c np
  30   30 1020  901 FO
gr

gs 985 979 123 123 MR c np
  30   30 1046 1040 FO
gr

gs 951 714 123 123 MR c np
  30   30 1012  775 FO
gr

gs 944 1018 123 123 MR c np
  30   30 1005 1079 FO
gr

gs 947 1052 123 123 MR c np
  30   30 1008 1113 FO
gr

gs 957 1395 123 123 MR c np
  30   30 1018 1456 FO
gr

gs 974 806 123 123 MR c np
  30   30 1035  867 FO
gr

gs 975 836 123 123 MR c np
  30   30 1036  897 FO
gr

gs 5337 689 123 123 MR c np
c8
5368  750 mt 5428  750 L
5398  720 mt 5398  780 L
5377  729 mt 5419  771 L
5419  729 mt 5377  771 L
gr

c8
gs 3285 500 123 123 MR c np
3316  561 mt 3376  561 L
3346  531 mt 3346  591 L
3325  540 mt 3367  582 L
3367  540 mt 3325  582 L
gr

gs 3043 533 123 123 MR c np
3074  594 mt 3134  594 L
3104  564 mt 3104  624 L
3083  573 mt 3125  615 L
3125  573 mt 3083  615 L
gr

gs 5110 777 123 123 MR c np
5141  838 mt 5201  838 L
5171  808 mt 5171  868 L
5150  817 mt 5192  859 L
5192  817 mt 5150  859 L
gr

gs 2678 538 123 123 MR c np
2709  599 mt 2769  599 L
2739  569 mt 2739  629 L
2718  578 mt 2760  620 L
2760  578 mt 2718  620 L
gr

gs 4973 857 123 123 MR c np
5004  918 mt 5064  918 L
5034  888 mt 5034  948 L
5013  897 mt 5055  939 L
5055  897 mt 5013  939 L
gr

gs 3669 617 123 123 MR c np
3700  678 mt 3760  678 L
3730  648 mt 3730  708 L
3709  657 mt 3751  699 L
3751  657 mt 3709  699 L
gr

gs 2837 637 123 123 MR c np
2868  698 mt 2928  698 L
2898  668 mt 2898  728 L
2877  677 mt 2919  719 L
2919  677 mt 2877  719 L
gr

gs 2333 646 123 123 MR c np
2364  707 mt 2424  707 L
2394  677 mt 2394  737 L
2373  686 mt 2415  728 L
2415  686 mt 2373  728 L
gr

gs 1068 718 123 123 MR c np
c9
1099  779 mt 1159  779 L
1129  749 mt 1129  809 L
1108  758 mt 1150  800 L
1150  758 mt 1108  800 L
gr

c9
gs 2247 574 123 123 MR c np
c8
2278  635 mt 2338  635 L
2308  605 mt 2308  665 L
2287  614 mt 2329  656 L
2329  614 mt 2287  656 L
gr

c8
gs 1070 901 123 123 MR c np
c9
1101  962 mt 1161  962 L
1131  932 mt 1131  992 L
1110  941 mt 1152  983 L
1152  941 mt 1110  983 L
gr

c9
gs 959 747 123 123 MR c np
 990  808 mt 1050  808 L
1020  778 mt 1020  838 L
 999  787 mt 1041  829 L
1041  787 mt  999  829 L
gr

gs 985 939 123 123 MR c np
1016 1000 mt 1076 1000 L
1046  970 mt 1046 1030 L
1025  979 mt 1067 1021 L
1067  979 mt 1025 1021 L
gr

gs 951 665 123 123 MR c np
 982  726 mt 1042  726 L
1012  696 mt 1012  756 L
 991  705 mt 1033  747 L
1033  705 mt  991  747 L
gr

gs 944 960 123 123 MR c np
 975 1021 mt 1035 1021 L
1005  991 mt 1005 1051 L
 984 1000 mt 1026 1042 L
1026 1000 mt  984 1042 L
gr

gs 947 991 123 123 MR c np
 978 1052 mt 1038 1052 L
1008 1022 mt 1008 1082 L
 987 1031 mt 1029 1073 L
1029 1031 mt  987 1073 L
gr

gs 957 1381 123 123 MR c np
 988 1442 mt 1048 1442 L
1018 1412 mt 1018 1472 L
 997 1421 mt 1039 1463 L
1039 1421 mt  997 1463 L
gr

gs 975 781 123 123 MR c np
1006  842 mt 1066  842 L
1036  812 mt 1036  872 L
1015  821 mt 1057  863 L
1057  821 mt 1015  863 L
gr

gs 975 740 123 123 MR c np
1006  801 mt 1066  801 L
1036  771 mt 1036  831 L
1015  780 mt 1057  822 L
1057  780 mt 1015  822 L
gr

gs 5337 689 123 123 MR c np
30 39 -30 39 -30 -39 30 -39 5398 789 5 MP
c8
DP
gr

c8
gs 3285 494 123 123 MR c np
30 39 -30 39 -30 -39 30 -39 3346 594 5 MP
DP
gr

gs 3043 535 123 123 MR c np
30 39 -30 39 -30 -39 30 -39 3104 635 5 MP
DP
gr

gs 5111 776 123 123 MR c np
30 39 -30 39 -30 -39 30 -39 5172 876 5 MP
DP
gr

gs 2678 538 123 123 MR c np
30 39 -30 39 -30 -39 30 -39 2739 638 5 MP
DP
gr

gs 4973 861 123 123 MR c np
30 39 -30 39 -30 -39 30 -39 5034 961 5 MP
DP
gr

gs 3669 617 123 123 MR c np
30 39 -30 39 -30 -39 30 -39 3730 717 5 MP
DP
gr

gs 2837 632 123 123 MR c np
30 39 -30 39 -30 -39 30 -39 2898 732 5 MP
DP
gr

gs 2333 651 123 123 MR c np
30 39 -30 39 -30 -39 30 -39 2394 751 5 MP
DP
gr

gs 1069 713 123 123 MR c np
30 39 -30 39 -30 -39 30 -39 1130 813 5 MP
c9
DP
gr

c9
gs 2246 578 123 123 MR c np
30 39 -30 39 -30 -39 30 -39 2307 678 5 MP
c8
DP
gr

c8
gs 1074 904 123 123 MR c np
30 39 -30 39 -30 -39 30 -39 1135 1004 5 MP
c9
DP
gr

c9
gs 962 714 123 123 MR c np
30 39 -30 39 -30 -39 30 -39 1023 814 5 MP
DP
gr

gs 988 913 123 123 MR c np
30 39 -30 39 -30 -39 30 -39 1049 1013 5 MP
DP
gr

gs 955 663 123 123 MR c np
30 39 -30 39 -30 -39 30 -39 1016 763 5 MP
DP
gr

gs 948 940 123 123 MR c np
30 39 -30 39 -30 -39 30 -39 1009 1040 5 MP
DP
gr

gs 951 994 123 123 MR c np
30 39 -30 39 -30 -39 30 -39 1012 1094 5 MP
DP
gr

gs 963 1370 123 123 MR c np
30 39 -30 39 -30 -39 30 -39 1024 1470 5 MP
DP
gr

gs 978 784 123 123 MR c np
30 39 -30 39 -30 -39 30 -39 1039 884 5 MP
DP
gr

gs 978 722 123 123 MR c np
30 39 -30 39 -30 -39 30 -39 1039 822 5 MP
DP
gr

gs 5338 689 123 123 MR c np
-34 59 -34 -59 68 0 5365 770 4 MP
c8
DP
gr

c8
gs 3287 494 123 123 MR c np
-34 59 -34 -59 68 0 3314 575 4 MP
DP
gr

gs 3046 532 123 123 MR c np
-34 59 -34 -59 68 0 3073 613 4 MP
DP
gr

gs 5113 776 123 123 MR c np
-34 59 -34 -59 68 0 5140 857 4 MP
DP
gr

gs 2680 538 123 123 MR c np
-34 59 -34 -59 68 0 2707 619 4 MP
DP
gr

gs 4975 862 123 123 MR c np
-34 59 -34 -59 68 0 5002 943 4 MP
DP
gr

gs 3672 617 123 123 MR c np
-34 59 -34 -59 68 0 3699 698 4 MP
DP
gr

gs 2840 629 123 123 MR c np
-34 59 -34 -59 68 0 2867 710 4 MP
DP
gr

gs 2337 652 123 123 MR c np
-34 59 -34 -59 68 0 2364 733 4 MP
DP
gr

gs 1088 718 123 123 MR c np
-34 59 -34 -59 68 0 1115 799 4 MP
c9
DP
gr

c9
gs 2247 579 123 123 MR c np
-34 59 -34 -59 68 0 2274 660 4 MP
c8
DP
gr

c8
gs 1106 908 123 123 MR c np
-34 59 -34 -59 68 0 1133 989 4 MP
c9
DP
gr

c9
gs 992 717 123 123 MR c np
-34 59 -34 -59 68 0 1019 798 4 MP
DP
gr

gs 1022 922 123 123 MR c np
-34 59 -34 -59 68 0 1049 1003 4 MP
DP
gr

gs 989 666 123 123 MR c np
-34 59 -34 -59 68 0 1016 747 4 MP
DP
gr

gs 981 943 123 123 MR c np
-34 59 -34 -59 68 0 1008 1024 4 MP
DP
gr

gs 983 1002 123 123 MR c np
-34 59 -34 -59 68 0 1010 1083 4 MP
DP
gr

gs 1010 1370 123 123 MR c np
-34 59 -34 -59 68 0 1037 1451 4 MP
DP
gr

gs 1007 784 123 123 MR c np
-34 59 -34 -59 68 0 1034 865 4 MP
DP
gr

gs 1007 730 123 123 MR c np
-34 59 -34 -59 68 0 1034 811 4 MP
DP
gr

gs 5358 689 123 123 MR c np
-17 -13 6 -21 -18 12 -17 -12 6 21 -17 13 21 0 7 20 
8 -20 21 0 5390 740 11 MP
c8
DP
gr

c8
gs 3306 494 123 123 MR c np
-17 -13 6 -21 -18 12 -17 -12 6 21 -17 13 21 0 7 20 
8 -20 21 0 3338 545 11 MP
DP
gr

gs 3069 533 123 123 MR c np
-17 -13 6 -21 -18 12 -17 -12 6 21 -17 13 21 0 7 20 
8 -20 21 0 3101 584 11 MP
DP
gr

gs 5134 776 123 123 MR c np
-17 -13 6 -21 -18 12 -17 -12 6 21 -17 13 21 0 7 20 
8 -20 21 0 5166 827 11 MP
DP
gr

gs 2711 538 123 123 MR c np
-17 -13 6 -21 -18 12 -17 -12 6 21 -17 13 21 0 7 20 
8 -20 21 0 2743 589 11 MP
DP
gr

gs 5004 867 123 123 MR c np
-17 -13 6 -21 -18 12 -17 -12 6 21 -17 13 21 0 7 20 
8 -20 21 0 5036 918 11 MP
DP
gr

gs 3695 617 123 123 MR c np
-17 -13 6 -21 -18 12 -17 -12 6 21 -17 13 21 0 7 20 
8 -20 21 0 3727 668 11 MP
DP
gr

gs 2869 629 123 123 MR c np
-17 -13 6 -21 -18 12 -17 -12 6 21 -17 13 21 0 7 20 
8 -20 21 0 2901 680 11 MP
DP
gr

gs 2373 652 123 123 MR c np
-17 -13 6 -21 -18 12 -17 -12 6 21 -17 13 21 0 7 20 
8 -20 21 0 2405 703 11 MP
DP
gr

gs 1233 731 123 123 MR c np
-17 -13 6 -21 -18 12 -17 -12 6 21 -17 13 21 0 7 20 
8 -20 21 0 1265 782 11 MP
c9
DP
gr

c9
gs 2273 579 123 123 MR c np
-17 -13 6 -21 -18 12 -17 -12 6 21 -17 13 21 0 7 20 
8 -20 21 0 2305 630 11 MP
c8
DP
gr

c8
gs 1308 911 123 123 MR c np
-17 -13 6 -21 -18 12 -17 -12 6 21 -17 13 21 0 7 20 
8 -20 21 0 1340 962 11 MP
c9
DP
gr

c9
gs 1164 713 123 123 MR c np
-17 -13 6 -21 -18 12 -17 -12 6 21 -17 13 21 0 7 20 
8 -20 21 0 1196 764 11 MP
DP
gr

gs 1218 925 123 123 MR c np
-17 -13 6 -21 -18 12 -17 -12 6 21 -17 13 21 0 7 20 
8 -20 21 0 1250 976 11 MP
DP
gr

gs 1169 666 123 123 MR c np
-17 -13 6 -21 -18 12 -17 -12 6 21 -17 13 21 0 7 20 
8 -20 21 0 1201 717 11 MP
DP
gr

gs 1159 942 123 123 MR c np
-17 -13 6 -21 -18 12 -17 -12 6 21 -17 13 21 0 7 20 
8 -20 21 0 1191 993 11 MP
DP
gr

gs 1167 1005 123 123 MR c np
-17 -13 6 -21 -18 12 -17 -12 6 21 -17 13 21 0 7 20 
8 -20 21 0 1199 1056 11 MP
DP
gr

gs 1253 1369 123 123 MR c np
-17 -13 6 -21 -18 12 -17 -12 6 21 -17 13 21 0 7 20 
8 -20 21 0 1285 1420 11 MP
DP
gr

gs 1173 783 123 123 MR c np
-17 -13 6 -21 -18 12 -17 -12 6 21 -17 13 21 0 7 20 
8 -20 21 0 1205 834 11 MP
DP
gr

gs 1174 736 123 123 MR c np
-17 -13 6 -21 -18 12 -17 -12 6 21 -17 13 21 0 7 20 
8 -20 21 0 1206 787 11 MP
DP
gr

gs 5545 689 123 123 MR c np
-10 -15 10 -15 -17 0 -8 -15 -8 15 -17 0 10 15 -10 15 
17 0 8 15 8 -15 17 0 5581 735 13 MP
c8
DP
gr

c8
gs 3494 494 123 123 MR c np
-10 -15 10 -15 -17 0 -8 -15 -8 15 -17 0 10 15 -10 15 
17 0 8 15 8 -15 17 0 3530 540 13 MP
DP
gr

gs 3266 533 123 123 MR c np
-10 -15 10 -15 -17 0 -8 -15 -8 15 -17 0 10 15 -10 15 
17 0 8 15 8 -15 17 0 3302 579 13 MP
DP
gr

gs 5336 776 123 123 MR c np
-10 -15 10 -15 -17 0 -8 -15 -8 15 -17 0 10 15 -10 15 
17 0 8 15 8 -15 17 0 5372 822 13 MP
DP
gr

gs 3005 538 123 123 MR c np
-10 -15 10 -15 -17 0 -8 -15 -8 15 -17 0 10 15 -10 15 
17 0 8 15 8 -15 17 0 3041 584 13 MP
DP
gr

gs 5288 867 123 123 MR c np
-10 -15 10 -15 -17 0 -8 -15 -8 15 -17 0 10 15 -10 15 
17 0 8 15 8 -15 17 0 5324 913 13 MP
DP
gr

gs 3887 617 123 123 MR c np
-10 -15 10 -15 -17 0 -8 -15 -8 15 -17 0 10 15 -10 15 
17 0 8 15 8 -15 17 0 3923 663 13 MP
DP
gr

gs 3146 629 123 123 MR c np
-10 -15 10 -15 -17 0 -8 -15 -8 15 -17 0 10 15 -10 15 
17 0 8 15 8 -15 17 0 3182 675 13 MP
DP
gr

gs 2681 652 123 123 MR c np
-10 -15 10 -15 -17 0 -8 -15 -8 15 -17 0 10 15 -10 15 
17 0 8 15 8 -15 17 0 2717 698 13 MP
DP
gr

gs 1869 731 123 123 MR c np
-10 -15 10 -15 -17 0 -8 -15 -8 15 -17 0 10 15 -10 15 
17 0 8 15 8 -15 17 0 1905 777 13 MP
c9
DP
gr

c9
gs 2551 579 123 123 MR c np
-10 -15 10 -15 -17 0 -8 -15 -8 15 -17 0 10 15 -10 15 
17 0 8 15 8 -15 17 0 2587 625 13 MP
c8
DP
gr

c8
gs 2100 911 123 123 MR c np
-10 -15 10 -15 -17 0 -8 -15 -8 15 -17 0 10 15 -10 15 
17 0 8 15 8 -15 17 0 2136 957 13 MP
c9
DP
gr

c9
gs 1782 710 123 123 MR c np
-10 -15 10 -15 -17 0 -8 -15 -8 15 -17 0 10 15 -10 15 
17 0 8 15 8 -15 17 0 1818 756 13 MP
DP
gr

gs 1929 925 123 123 MR c np
-10 -15 10 -15 -17 0 -8 -15 -8 15 -17 0 10 15 -10 15 
17 0 8 15 8 -15 17 0 1965 971 13 MP
DP
gr

gs 1785 658 123 123 MR c np
-10 -15 10 -15 -17 0 -8 -15 -8 15 -17 0 10 15 -10 15 
17 0 8 15 8 -15 17 0 1821 704 13 MP
DP
gr

gs 1783 942 123 123 MR c np
-10 -15 10 -15 -17 0 -8 -15 -8 15 -17 0 10 15 -10 15 
17 0 8 15 8 -15 17 0 1819 988 13 MP
DP
gr

gs 1818 1003 123 123 MR c np
-10 -15 10 -15 -17 0 -8 -15 -8 15 -17 0 10 15 -10 15 
17 0 8 15 8 -15 17 0 1854 1049 13 MP
DP
gr

gs 2058 1368 123 123 MR c np
-10 -15 10 -15 -17 0 -8 -15 -8 15 -17 0 10 15 -10 15 
17 0 8 15 8 -15 17 0 2094 1414 13 MP
DP
gr

gs 1794 780 123 123 MR c np
-10 -15 10 -15 -17 0 -8 -15 -8 15 -17 0 10 15 -10 15 
17 0 8 15 8 -15 17 0 1830 826 13 MP
DP
gr

gs 1775 742 123 123 MR c np
-10 -15 10 -15 -17 0 -8 -15 -8 15 -17 0 10 15 -10 15 
17 0 8 15 8 -15 17 0 1811 788 13 MP
DP
gr

gr

c9
0 sg
3480 4881 mt 
(r) s
%%IncludeResource: font Helvetica
/Helvetica /ISOLatin1Encoding 96 FMSR

3519 4941 mt 
(min) s
%%IncludeResource: font Helvetica
/Helvetica /ISOLatin1Encoding 120 FMSR

 616 2640 mt  -90 rotate
(MCC) s
90 rotate
 882 4658 mt 
( ) s
6239  431 mt 
( ) s
1 sg
0 1648 1329 0 0 -1648 4866 4556 4 MP
PP
-1329 0 0 1648 1329 0 0 -1648 4866 4556 5 MP stroke
4 w
DO
SO
6 w
0 sg
4866 4556 mt 6195 4556 L
4866 2908 mt 6195 2908 L
4866 4556 mt 4866 2908 L
6195 4556 mt 6195 2908 L
4866 4556 mt 6195 4556 L
4866 4556 mt 4866 2908 L
4866 4556 mt 6195 4556 L
4866 2908 mt 6195 2908 L
4866 4556 mt 4866 2908 L
6195 4556 mt 6195 2908 L
5355 3044 mt 
(SNR = 0.0128) s
gs 4866 2908 1330 1649 MR c np
0 j
gs 5056 2928 147 147 MR c np
0 -58 -58 0 0 58 58 0 5100 2972 5 MP
DP
gr

gr

5355 3190 mt 
(SNR = 0.04046) s
gs 4866 2908 1330 1649 MR c np
0 j
gs 5056 3074 147 147 MR c np
5104 3122 mt 5154 3172 L
5154 3122 mt 5104 3172 L
gr

gr

5355 3336 mt 
(SNR = 0.128) s
gs 4866 2908 1330 1649 MR c np
0 j
gs 5056 3220 147 147 MR c np
41 71 -82 0 41 -71 5129 3340 4 MP
DP
gr

gr

5355 3482 mt 
(SNR = 0.4046) s
gs 4866 2908 1330 1649 MR c np
0 j
gs 5056 3366 147 147 MR c np
5093 3439 mt 5165 3439 L
5129 3403 mt 5129 3475 L
gr

gr

5355 3628 mt 
(SNR = 1.28) s
gs 4866 2908 1330 1649 MR c np
0 j
gs 5056 3512 147 147 MR c np
36 47 -36 47 -36 -47 36 -47 5129 3632 5 MP
DP
gr

gr

5355 3775 mt 
(SNR = 4.046) s
gs 4866 2908 1330 1649 MR c np
0 j
gs 5056 3659 147 147 MR c np
  36   36 5129 3732 FO
gr

gr

5355 3921 mt 
(SNR = 12.8) s
gs 4866 2908 1330 1649 MR c np
0 j
gs 5056 3805 147 147 MR c np
5093 3878 mt 5165 3878 L
5129 3842 mt 5129 3914 L
5104 3853 mt 5154 3903 L
5154 3853 mt 5104 3903 L
gr

gr

5355 4067 mt 
(SNR = 40.46) s
gs 4866 2908 1330 1649 MR c np
0 j
gs 5056 3951 147 147 MR c np
36 47 -36 47 -36 -47 36 -47 5129 4071 5 MP
DP
gr

gr

5355 4213 mt 
(SNR = 128) s
gs 4866 2908 1330 1649 MR c np
0 j
gs 5056 4097 147 147 MR c np
-41 71 -41 -71 82 0 5088 4194 4 MP
DP
gr

gr

5355 4359 mt 
(SNR = 404.6) s
gs 4866 2908 1330 1649 MR c np
0 j
gs 5056 4243 147 147 MR c np
-21 -16 8 -25 -22 15 -21 -15 8 25 -21 16 26 0 8 24 
9 -24 26 0 5094 4304 11 MP
DP
gr

gr

5355 4505 mt 
(SNR = 1280) s
gs 4866 2908 1330 1649 MR c np
0 j
gs 5056 4389 147 147 MR c np
-13 -18 13 -18 -21 0 -10 -18 -10 18 -21 0 13 18 -13 18 
21 0 10 18 10 -18 21 0 5098 4444 13 MP
DP
gr

gr


end %%Color Dict

eplot
%%EndObject

epage
end

showpage

%%Trailer
%%EOF
