%!PS-Adobe-2.0 EPSF-1.2
%%Creator: MATLAB, The MathWorks, Inc. Version 8.3.0.532 (R2014a). Operating System: Linux 3.13.0-30-generic #55-Ubuntu SMP Fri Jul 4 21:40:53 UTC 2014 x86_64.
%%Title: ../img/N45GlmnetSIC-mu.eps
%%CreationDate: 07/15/2014  11:44:42
%%DocumentNeededFonts: Helvetica
%%DocumentProcessColors: Cyan Magenta Yellow Black
%%Extensions: CMYK
%%Pages: 1
%%BoundingBox:    58   195   550   591
%%EndComments

%%BeginProlog
% MathWorks dictionary
/MathWorks 160 dict begin
% definition operators
/bdef {bind def} bind def
/ldef {load def} bind def
/xdef {exch def} bdef
/xstore {exch store} bdef
% operator abbreviations
/c  /clip ldef
/cc /concat ldef
/cp /closepath ldef
/gr /grestore ldef
/gs /gsave ldef
/mt /moveto ldef
/np /newpath ldef
/cm /currentmatrix ldef
/sm /setmatrix ldef
/rm /rmoveto ldef
/rl /rlineto ldef
/s {show newpath} bdef
/sc {setcmykcolor} bdef
/sr /setrgbcolor ldef
/sg /setgray ldef
/w /setlinewidth ldef
/j /setlinejoin ldef
/cap /setlinecap ldef
/rc {rectclip} bdef
/rf {rectfill} bdef
% page state control
/pgsv () def
/bpage {/pgsv save def} bdef
/epage {pgsv restore} bdef
/bplot /gsave ldef
/eplot {stroke grestore} bdef
% orientation switch
/portraitMode 0 def /landscapeMode 1 def /rotateMode 2 def
% coordinate system mappings
/dpi2point 0 def
% font control
/FontSize 0 def
/FMS {/FontSize xstore findfont [FontSize 0 0 FontSize neg 0 0]
  makefont setfont} bdef
/reencode {exch dup where {pop load} {pop StandardEncoding} ifelse
  exch dup 3 1 roll findfont dup length dict begin
  { 1 index /FID ne {def}{pop pop} ifelse } forall
  /Encoding exch def currentdict end definefont pop} bdef
/isroman {findfont /CharStrings get /Agrave known} bdef
/FMSR {3 1 roll 1 index dup isroman {reencode} {pop pop} ifelse
  exch FMS} bdef
/csm {1 dpi2point div -1 dpi2point div scale neg translate
 dup landscapeMode eq {pop -90 rotate}
  {rotateMode eq {90 rotate} if} ifelse} bdef
% line types: solid, dotted, dashed, dotdash
/SO { [] 0 setdash } bdef
/DO { [.5 dpi2point mul 4 dpi2point mul] 0 setdash } bdef
/DA { [6 dpi2point mul] 0 setdash } bdef
/DD { [.5 dpi2point mul 4 dpi2point mul 6 dpi2point mul 4
  dpi2point mul] 0 setdash } bdef
% macros for lines and objects
/L {lineto stroke} bdef
/MP {3 1 roll moveto 1 sub {rlineto} repeat} bdef
/AP {{rlineto} repeat} bdef
/PDlw -1 def
/W {/PDlw currentlinewidth def setlinewidth} def
/PP {closepath eofill} bdef
/DP {closepath stroke} bdef
/MR {4 -2 roll moveto dup  0 exch rlineto exch 0 rlineto
  neg 0 exch rlineto closepath} bdef
/FR {MR stroke} bdef
/PR {MR fill} bdef
/L1i {{currentfile picstr readhexstring pop} image} bdef
/tMatrix matrix def
/MakeOval {newpath tMatrix currentmatrix pop translate scale
0 0 1 0 360 arc tMatrix setmatrix} bdef
/FO {MakeOval stroke} bdef
/PO {MakeOval fill} bdef
/PD {currentlinewidth 2 div 0 360 arc fill
   PDlw -1 eq not {PDlw w /PDlw -1 def} if} def
/FA {newpath tMatrix currentmatrix pop translate scale
  0 0 1 5 -2 roll arc tMatrix setmatrix stroke} bdef
/PA {newpath tMatrix currentmatrix pop	translate 0 0 moveto scale
  0 0 1 5 -2 roll arc closepath tMatrix setmatrix fill} bdef
/FAn {newpath tMatrix currentmatrix pop translate scale
  0 0 1 5 -2 roll arcn tMatrix setmatrix stroke} bdef
/PAn {newpath tMatrix currentmatrix pop translate 0 0 moveto scale
  0 0 1 5 -2 roll arcn closepath tMatrix setmatrix fill} bdef
/vradius 0 def /hradius 0 def /lry 0 def
/lrx 0 def /uly 0 def /ulx 0 def /rad 0 def
/MRR {/vradius xdef /hradius xdef /lry xdef /lrx xdef /uly xdef
  /ulx xdef newpath tMatrix currentmatrix pop ulx hradius add uly
  vradius add translate hradius vradius scale 0 0 1 180 270 arc 
  tMatrix setmatrix lrx hradius sub uly vradius add translate
  hradius vradius scale 0 0 1 270 360 arc tMatrix setmatrix
  lrx hradius sub lry vradius sub translate hradius vradius scale
  0 0 1 0 90 arc tMatrix setmatrix ulx hradius add lry vradius sub
  translate hradius vradius scale 0 0 1 90 180 arc tMatrix setmatrix
  closepath} bdef
/FRR {MRR stroke } bdef
/PRR {MRR fill } bdef
/MlrRR {/lry xdef /lrx xdef /uly xdef /ulx xdef /rad lry uly sub 2 div def
  newpath tMatrix currentmatrix pop ulx rad add uly rad add translate
  rad rad scale 0 0 1 90 270 arc tMatrix setmatrix lrx rad sub lry rad
  sub translate rad rad scale 0 0 1 270 90 arc tMatrix setmatrix
  closepath} bdef
/FlrRR {MlrRR stroke } bdef
/PlrRR {MlrRR fill } bdef
/MtbRR {/lry xdef /lrx xdef /uly xdef /ulx xdef /rad lrx ulx sub 2 div def
  newpath tMatrix currentmatrix pop ulx rad add uly rad add translate
  rad rad scale 0 0 1 180 360 arc tMatrix setmatrix lrx rad sub lry rad
  sub translate rad rad scale 0 0 1 0 180 arc tMatrix setmatrix
  closepath} bdef
/FtbRR {MtbRR stroke } bdef
/PtbRR {MtbRR fill } bdef
/stri 6 array def /dtri 6 array def
/smat 6 array def /dmat 6 array def
/tmat1 6 array def /tmat2 6 array def /dif 3 array def
/asub {/ind2 exch def /ind1 exch def dup dup
  ind1 get exch ind2 get sub exch } bdef
/tri_to_matrix {
  2 0 asub 3 1 asub 4 0 asub 5 1 asub
  dup 0 get exch 1 get 7 -1 roll astore } bdef
/compute_transform {
  dmat dtri tri_to_matrix tmat1 invertmatrix 
  smat stri tri_to_matrix tmat2 concatmatrix } bdef
/ds {stri astore pop} bdef
/dt {dtri astore pop} bdef
/db {2 copy /cols xdef /rows xdef mul dup 3 mul string
  currentfile exch readhexstring pop
  dup 0 3 index getinterval /rbmap xdef
  dup 2 index dup getinterval /gbmap xdef
  1 index dup 2 mul exch getinterval /bbmap xdef pop pop}bdef
/it {gs np dtri aload pop moveto lineto lineto cp c
  cols rows 8 compute_transform 
  rbmap gbmap bbmap true 3 colorimage gr}bdef
/il {newpath moveto lineto stroke}bdef
currentdict end def
%%EndProlog

%%BeginSetup
MathWorks begin

0 cap

end
%%EndSetup

%%Page: 1 1
%%BeginPageSetup
%%PageBoundingBox:    58   195   550   591
MathWorks begin
bpage
%%EndPageSetup

%%BeginObject: obj1
bplot

/dpi2point 12 def
portraitMode 0216 7344 csm

  480   247  5913  4747 MR c np
85 dict begin %Colortable dictionary
/c0 { 0.000000 0.000000 0.000000 sr} bdef
/c1 { 1.000000 1.000000 1.000000 sr} bdef
/c2 { 0.900000 0.000000 0.000000 sr} bdef
/c3 { 0.000000 0.820000 0.000000 sr} bdef
/c4 { 0.000000 0.000000 0.800000 sr} bdef
/c5 { 0.910000 0.820000 0.320000 sr} bdef
/c6 { 1.000000 0.260000 0.820000 sr} bdef
/c7 { 0.000000 0.820000 0.820000 sr} bdef
c0
1 j
1 sg
   0    0 6913 5186 PR
6 w
0 4226 5356 0 0 -4226 899 4615 4 MP
PP
-5356 0 0 4226 5356 0 0 -4226 899 4615 5 MP stroke
4 w
DO
0 sg
 899 4615 mt  899  389 L
 899  389 mt  899  389 L
2684 4615 mt 2684  389 L
2684  389 mt 2684  389 L
4469 4615 mt 4469  389 L
4469  389 mt 4469  389 L
6255 4615 mt 6255  389 L
6255  389 mt 6255  389 L
 899 4615 mt 6255 4615 L
6255 4615 mt 6255 4615 L
 899 4192 mt 6255 4192 L
6255 4192 mt 6255 4192 L
 899 3769 mt 6255 3769 L
6255 3769 mt 6255 3769 L
 899 3347 mt 6255 3347 L
6255 3347 mt 6255 3347 L
 899 2924 mt 6255 2924 L
6255 2924 mt 6255 2924 L
 899 2502 mt 6255 2502 L
6255 2502 mt 6255 2502 L
 899 2079 mt 6255 2079 L
6255 2079 mt 6255 2079 L
 899 1656 mt 6255 1656 L
6255 1656 mt 6255 1656 L
 899 1234 mt 6255 1234 L
6255 1234 mt 6255 1234 L
 899  811 mt 6255  811 L
6255  811 mt 6255  811 L
 899  389 mt 6255  389 L
6255  389 mt 6255  389 L
SO
6 w
 899 4615 mt 6255 4615 L
 899 4615 mt  899  389 L
 899 4615 mt  899 4588 L
DO
 899 4615 mt  899  389 L
 899  389 mt  899  389 L
SO
 899 4615 mt  899 4561 L
%%IncludeResource: font Helvetica
/Helvetica /ISOLatin1Encoding 120 FMSR

 811 4797 mt 
(10) s
%%IncludeResource: font Helvetica
/Helvetica /ISOLatin1Encoding 80 FMSR

 944 4723 mt 
(0) s
1436 4615 mt 1436 4588 L
DO
1436 4615 mt 1436  389 L
1436  389 mt 1436  389 L
SO
1750 4615 mt 1750 4588 L
DO
1750 4615 mt 1750  389 L
1750  389 mt 1750  389 L
SO
1973 4615 mt 1973 4588 L
DO
1973 4615 mt 1973  389 L
1973  389 mt 1973  389 L
SO
2146 4615 mt 2146 4588 L
DO
2146 4615 mt 2146  389 L
2146  389 mt 2146  389 L
SO
2288 4615 mt 2288 4588 L
DO
2288 4615 mt 2288  389 L
2288  389 mt 2288  389 L
SO
2407 4615 mt 2407 4588 L
DO
2407 4615 mt 2407  389 L
2407  389 mt 2407  389 L
SO
2511 4615 mt 2511 4588 L
DO
2511 4615 mt 2511  389 L
2511  389 mt 2511  389 L
SO
2602 4615 mt 2602 4588 L
DO
2602 4615 mt 2602  389 L
2602  389 mt 2602  389 L
SO
2684 4615 mt 2684 4588 L
DO
2684 4615 mt 2684  389 L
2684  389 mt 2684  389 L
SO
2684 4615 mt 2684 4561 L
%%IncludeResource: font Helvetica
/Helvetica /ISOLatin1Encoding 120 FMSR

2596 4797 mt 
(10) s
%%IncludeResource: font Helvetica
/Helvetica /ISOLatin1Encoding 80 FMSR

2729 4723 mt 
(1) s
3221 4615 mt 3221 4588 L
DO
3221 4615 mt 3221  389 L
3221  389 mt 3221  389 L
SO
3536 4615 mt 3536 4588 L
DO
3536 4615 mt 3536  389 L
3536  389 mt 3536  389 L
SO
3759 4615 mt 3759 4588 L
DO
3759 4615 mt 3759  389 L
3759  389 mt 3759  389 L
SO
3932 4615 mt 3932 4588 L
DO
3932 4615 mt 3932  389 L
3932  389 mt 3932  389 L
SO
4073 4615 mt 4073 4588 L
DO
4073 4615 mt 4073  389 L
4073  389 mt 4073  389 L
SO
4193 4615 mt 4193 4588 L
DO
4193 4615 mt 4193  389 L
4193  389 mt 4193  389 L
SO
4296 4615 mt 4296 4588 L
DO
4296 4615 mt 4296  389 L
4296  389 mt 4296  389 L
SO
4387 4615 mt 4387 4588 L
DO
4387 4615 mt 4387  389 L
4387  389 mt 4387  389 L
SO
4469 4615 mt 4469 4588 L
DO
4469 4615 mt 4469  389 L
4469  389 mt 4469  389 L
SO
4469 4615 mt 4469 4561 L
%%IncludeResource: font Helvetica
/Helvetica /ISOLatin1Encoding 120 FMSR

4381 4797 mt 
(10) s
%%IncludeResource: font Helvetica
/Helvetica /ISOLatin1Encoding 80 FMSR

4514 4723 mt 
(2) s
5007 4615 mt 5007 4588 L
DO
5007 4615 mt 5007  389 L
5007  389 mt 5007  389 L
SO
5321 4615 mt 5321 4588 L
DO
5321 4615 mt 5321  389 L
5321  389 mt 5321  389 L
SO
5544 4615 mt 5544 4588 L
DO
5544 4615 mt 5544  389 L
5544  389 mt 5544  389 L
SO
5717 4615 mt 5717 4588 L
DO
5717 4615 mt 5717  389 L
5717  389 mt 5717  389 L
SO
5858 4615 mt 5858 4588 L
DO
5858 4615 mt 5858  389 L
5858  389 mt 5858  389 L
SO
5978 4615 mt 5978 4588 L
DO
5978 4615 mt 5978  389 L
5978  389 mt 5978  389 L
SO
6081 4615 mt 6081 4588 L
DO
6081 4615 mt 6081  389 L
6081  389 mt 6081  389 L
SO
6173 4615 mt 6173 4588 L
DO
6173 4615 mt 6173  389 L
6173  389 mt 6173  389 L
SO
6255 4615 mt 6255 4588 L
DO
6255 4615 mt 6255  389 L
6255  389 mt 6255  389 L
SO
6255 4615 mt 6255 4561 L
%%IncludeResource: font Helvetica
/Helvetica /ISOLatin1Encoding 120 FMSR

6167 4797 mt 
(10) s
%%IncludeResource: font Helvetica
/Helvetica /ISOLatin1Encoding 80 FMSR

6300 4723 mt 
(3) s
 899 4615 mt  952 4615 L
%%IncludeResource: font Helvetica
/Helvetica /ISOLatin1Encoding 120 FMSR

 798 4659 mt 
(0) s
 899 4192 mt  952 4192 L
 698 4236 mt 
(0.1) s
 899 3769 mt  952 3769 L
 698 3813 mt 
(0.2) s
 899 3347 mt  952 3347 L
 698 3391 mt 
(0.3) s
 899 2924 mt  952 2924 L
 698 2968 mt 
(0.4) s
 899 2502 mt  952 2502 L
 698 2546 mt 
(0.5) s
 899 2079 mt  952 2079 L
 698 2123 mt 
(0.6) s
 899 1656 mt  952 1656 L
 698 1700 mt 
(0.7) s
 899 1234 mt  952 1234 L
 698 1278 mt 
(0.8) s
 899  811 mt  952  811 L
 698  855 mt 
(0.9) s
 899  389 mt  952  389 L
 798  433 mt 
(1) s
gs 899 389 5357 4227 MR c np
0 j
gs 2077 1160 123 123 MR c np
0 -48 -48 0 0 48 48 0 2114 1197 5 MP
/c8 { 0.000000 0.000000 0.562500 sr} bdef
c8
DP
gr

c8
gs 2026 1079 123 123 MR c np
0 -48 -48 0 0 48 48 0 2063 1116 5 MP
DP
gr

gs 2058 1230 123 123 MR c np
0 -48 -48 0 0 48 48 0 2095 1267 5 MP
DP
gr

gs 1965 1279 123 123 MR c np
0 -48 -48 0 0 48 48 0 2002 1316 5 MP
DP
gr

gs 1828 1160 123 123 MR c np
0 -48 -48 0 0 48 48 0 1865 1197 5 MP
DP
gr

gs 2145 1585 123 123 MR c np
0 -48 -48 0 0 48 48 0 2182 1622 5 MP
DP
gr

gs 2058 970 123 123 MR c np
0 -48 -48 0 0 48 48 0 2095 1007 5 MP
DP
gr

gs 1959 1428 123 123 MR c np
0 -48 -48 0 0 48 48 0 1996 1465 5 MP
DP
gr

gs 2465 1551 123 123 MR c np
0 -48 -48 0 0 48 48 0 2502 1588 5 MP
DP
gr

gs 3848 3115 123 123 MR c np
0 -48 -48 0 0 48 48 0 3885 3152 5 MP
/c9 { 0.500000 0.000000 0.000000 sr} bdef
c9
DP
gr

c9
gs 2954 1657 123 123 MR c np
0 -48 -48 0 0 48 48 0 2991 1694 5 MP
c8
DP
gr

c8
gs 3177 2987 123 123 MR c np
0 -48 -48 0 0 48 48 0 3214 3024 5 MP
c9
DP
gr

c9
gs 4090 3142 123 123 MR c np
0 -48 -48 0 0 48 48 0 4127 3179 5 MP
DP
gr

gs 4231 3373 123 123 MR c np
0 -48 -48 0 0 48 48 0 4268 3410 5 MP
DP
gr

gs 3805 3269 123 123 MR c np
0 -48 -48 0 0 48 48 0 3842 3306 5 MP
DP
gr

gs 3986 3095 123 123 MR c np
0 -48 -48 0 0 48 48 0 4023 3132 5 MP
DP
gr

gs 3569 3146 123 123 MR c np
0 -48 -48 0 0 48 48 0 3606 3183 5 MP
DP
gr

gs 4458 2967 123 123 MR c np
0 -48 -48 0 0 48 48 0 4495 3004 5 MP
DP
gr

gs 3964 3163 123 123 MR c np
0 -48 -48 0 0 48 48 0 4001 3200 5 MP
DP
gr

gs 4283 3500 123 123 MR c np
0 -48 -48 0 0 48 48 0 4320 3537 5 MP
DP
gr

gs 2077 867 123 123 MR c np
c8
2117  907 mt 2159  949 L
2159  907 mt 2117  949 L
gr

c8
gs 2026 625 123 123 MR c np
2066  665 mt 2108  707 L
2108  665 mt 2066  707 L
gr

gs 2058 786 123 123 MR c np
2098  826 mt 2140  868 L
2140  826 mt 2098  868 L
gr

gs 1965 952 123 123 MR c np
2005  992 mt 2047 1034 L
2047  992 mt 2005 1034 L
gr

gs 1828 854 123 123 MR c np
1868  894 mt 1910  936 L
1910  894 mt 1868  936 L
gr

gs 2145 1101 123 123 MR c np
2185 1141 mt 2227 1183 L
2227 1141 mt 2185 1183 L
gr

gs 2058 711 123 123 MR c np
2098  751 mt 2140  793 L
2140  751 mt 2098  793 L
gr

gs 1959 895 123 123 MR c np
1999  935 mt 2041  977 L
2041  935 mt 1999  977 L
gr

gs 2465 984 123 123 MR c np
2505 1024 mt 2547 1066 L
2547 1024 mt 2505 1066 L
gr

gs 3848 2370 123 123 MR c np
c9
3888 2410 mt 3930 2452 L
3930 2410 mt 3888 2452 L
gr

c9
gs 2954 1006 123 123 MR c np
c8
2994 1046 mt 3036 1088 L
3036 1046 mt 2994 1088 L
gr

c8
gs 3177 2250 123 123 MR c np
c9
3217 2290 mt 3259 2332 L
3259 2290 mt 3217 2332 L
gr

c9
gs 4090 2546 123 123 MR c np
4130 2586 mt 4172 2628 L
4172 2586 mt 4130 2628 L
gr

gs 4231 2702 123 123 MR c np
4271 2742 mt 4313 2784 L
4313 2742 mt 4271 2784 L
gr

gs 3805 2518 123 123 MR c np
3845 2558 mt 3887 2600 L
3887 2558 mt 3845 2600 L
gr

gs 3986 2691 123 123 MR c np
4026 2731 mt 4068 2773 L
4068 2731 mt 4026 2773 L
gr

gs 3569 2586 123 123 MR c np
3609 2626 mt 3651 2668 L
3651 2626 mt 3609 2668 L
gr

gs 4458 2630 123 123 MR c np
4498 2670 mt 4540 2712 L
4540 2670 mt 4498 2712 L
gr

gs 3964 2310 123 123 MR c np
4004 2350 mt 4046 2392 L
4046 2350 mt 4004 2392 L
gr

gs 4283 2802 123 123 MR c np
4323 2842 mt 4365 2884 L
4365 2842 mt 4323 2884 L
gr

gs 2077 714 123 123 MR c np
34 59 -68 0 34 -59 2138 814 4 MP
c8
DP
gr

c8
gs 2026 558 123 123 MR c np
34 59 -68 0 34 -59 2087 658 4 MP
DP
gr

gs 2058 643 123 123 MR c np
34 59 -68 0 34 -59 2119 743 4 MP
DP
gr

gs 1965 786 123 123 MR c np
34 59 -68 0 34 -59 2026 886 4 MP
DP
gr

gs 1828 683 123 123 MR c np
34 59 -68 0 34 -59 1889 783 4 MP
DP
gr

gs 2145 975 123 123 MR c np
34 59 -68 0 34 -59 2206 1075 4 MP
DP
gr

gs 2058 641 123 123 MR c np
34 59 -68 0 34 -59 2119 741 4 MP
DP
gr

gs 1959 751 123 123 MR c np
34 59 -68 0 34 -59 2020 851 4 MP
DP
gr

gs 2465 783 123 123 MR c np
34 59 -68 0 34 -59 2526 883 4 MP
DP
gr

gs 3848 1583 123 123 MR c np
34 59 -68 0 34 -59 3909 1683 4 MP
c9
DP
gr

c9
gs 2954 776 123 123 MR c np
34 59 -68 0 34 -59 3015 876 4 MP
c8
DP
gr

c8
gs 3176 1601 123 123 MR c np
34 59 -68 0 34 -59 3237 1701 4 MP
c9
DP
gr

c9
gs 4090 1820 123 123 MR c np
34 59 -68 0 34 -59 4151 1920 4 MP
DP
gr

gs 4231 1961 123 123 MR c np
34 59 -68 0 34 -59 4292 2061 4 MP
DP
gr

gs 3805 1654 123 123 MR c np
34 59 -68 0 34 -59 3866 1754 4 MP
DP
gr

gs 3986 2100 123 123 MR c np
34 59 -68 0 34 -59 4047 2200 4 MP
DP
gr

gs 3569 1947 123 123 MR c np
34 59 -68 0 34 -59 3630 2047 4 MP
DP
gr

gs 4458 2047 123 123 MR c np
34 59 -68 0 34 -59 4519 2147 4 MP
DP
gr

gs 3964 1473 123 123 MR c np
34 59 -68 0 34 -59 4025 1573 4 MP
DP
gr

gs 4283 1794 123 123 MR c np
34 59 -68 0 34 -59 4344 1894 4 MP
DP
gr

gs 2077 680 123 123 MR c np
c8
2108  741 mt 2168  741 L
2138  711 mt 2138  771 L
gr

c8
gs 2026 535 123 123 MR c np
2057  596 mt 2117  596 L
2087  566 mt 2087  626 L
gr

gs 2058 573 123 123 MR c np
2089  634 mt 2149  634 L
2119  604 mt 2119  664 L
gr

gs 1965 760 123 123 MR c np
1996  821 mt 2056  821 L
2026  791 mt 2026  851 L
gr

gs 1828 615 123 123 MR c np
1859  676 mt 1919  676 L
1889  646 mt 1889  706 L
gr

gs 2145 897 123 123 MR c np
2176  958 mt 2236  958 L
2206  928 mt 2206  988 L
gr

gs 2058 625 123 123 MR c np
2089  686 mt 2149  686 L
2119  656 mt 2119  716 L
gr

gs 1959 678 123 123 MR c np
1990  739 mt 2050  739 L
2020  709 mt 2020  769 L
gr

gs 2465 706 123 123 MR c np
2496  767 mt 2556  767 L
2526  737 mt 2526  797 L
gr

gs 3848 993 123 123 MR c np
c9
3879 1054 mt 3939 1054 L
3909 1024 mt 3909 1084 L
gr

c9
gs 2954 668 123 123 MR c np
c8
2985  729 mt 3045  729 L
3015  699 mt 3015  759 L
gr

c8
gs 3176 1074 123 123 MR c np
c9
3207 1135 mt 3267 1135 L
3237 1105 mt 3237 1165 L
gr

c9
gs 4090 1236 123 123 MR c np
4121 1297 mt 4181 1297 L
4151 1267 mt 4151 1327 L
gr

gs 4231 1423 123 123 MR c np
4262 1484 mt 4322 1484 L
4292 1454 mt 4292 1514 L
gr

gs 3805 1011 123 123 MR c np
3836 1072 mt 3896 1072 L
3866 1042 mt 3866 1102 L
gr

gs 3986 1488 123 123 MR c np
4017 1549 mt 4077 1549 L
4047 1519 mt 4047 1579 L
gr

gs 3569 1255 123 123 MR c np
3600 1316 mt 3660 1316 L
3630 1286 mt 3630 1346 L
gr

gs 4458 1666 123 123 MR c np
4489 1727 mt 4549 1727 L
4519 1697 mt 4519 1757 L
gr

gs 3964 993 123 123 MR c np
3995 1054 mt 4055 1054 L
4025 1024 mt 4025 1084 L
gr

gs 4283 1187 123 123 MR c np
4314 1248 mt 4374 1248 L
4344 1218 mt 4344 1278 L
gr

gs 2077 681 123 123 MR c np
30 39 -30 39 -30 -39 30 -39 2138 781 5 MP
c8
DP
gr

c8
gs 2026 517 123 123 MR c np
30 39 -30 39 -30 -39 30 -39 2087 617 5 MP
DP
gr

gs 2058 558 123 123 MR c np
30 39 -30 39 -30 -39 30 -39 2119 658 5 MP
DP
gr

gs 1965 766 123 123 MR c np
30 39 -30 39 -30 -39 30 -39 2026 866 5 MP
DP
gr

gs 1828 561 123 123 MR c np
30 39 -30 39 -30 -39 30 -39 1889 661 5 MP
DP
gr

gs 2145 872 123 123 MR c np
30 39 -30 39 -30 -39 30 -39 2206 972 5 MP
DP
gr

gs 2058 618 123 123 MR c np
30 39 -30 39 -30 -39 30 -39 2119 718 5 MP
DP
gr

gs 1959 647 123 123 MR c np
30 39 -30 39 -30 -39 30 -39 2020 747 5 MP
DP
gr

gs 2465 655 123 123 MR c np
30 39 -30 39 -30 -39 30 -39 2526 755 5 MP
DP
gr

gs 3848 794 123 123 MR c np
30 39 -30 39 -30 -39 30 -39 3909 894 5 MP
c9
DP
gr

c9
gs 2954 608 123 123 MR c np
30 39 -30 39 -30 -39 30 -39 3015 708 5 MP
c8
DP
gr

c8
gs 3176 922 123 123 MR c np
30 39 -30 39 -30 -39 30 -39 3237 1022 5 MP
c9
DP
gr

c9
gs 4090 954 123 123 MR c np
30 39 -30 39 -30 -39 30 -39 4151 1054 5 MP
DP
gr

gs 4231 1105 123 123 MR c np
30 39 -30 39 -30 -39 30 -39 4292 1205 5 MP
DP
gr

gs 3805 806 123 123 MR c np
30 39 -30 39 -30 -39 30 -39 3866 906 5 MP
DP
gr

gs 3984 1140 123 123 MR c np
30 39 -30 39 -30 -39 30 -39 4045 1240 5 MP
DP
gr

gs 3570 1109 123 123 MR c np
30 39 -30 39 -30 -39 30 -39 3631 1209 5 MP
DP
gr

gs 4458 1493 123 123 MR c np
30 39 -30 39 -30 -39 30 -39 4519 1593 5 MP
DP
gr

gs 3964 855 123 123 MR c np
30 39 -30 39 -30 -39 30 -39 4025 955 5 MP
DP
gr

gs 4283 952 123 123 MR c np
30 39 -30 39 -30 -39 30 -39 4344 1052 5 MP
DP
gr

gs 2077 685 123 123 MR c np
c8
  30   30 2138  746 FO
gr

c8
gs 2026 506 123 123 MR c np
  30   30 2087  567 FO
gr

gs 2058 538 123 123 MR c np
  30   30 2119  599 FO
gr

gs 1965 782 123 123 MR c np
  30   30 2026  843 FO
gr

gs 1828 548 123 123 MR c np
  30   30 1889  609 FO
gr

gs 2145 861 123 123 MR c np
  30   30 2206  922 FO
gr

gs 2058 615 123 123 MR c np
  30   30 2119  676 FO
gr

gs 1959 644 123 123 MR c np
  30   30 2020  705 FO
gr

gs 2465 643 123 123 MR c np
  30   30 2526  704 FO
gr

gs 3849 737 123 123 MR c np
c9
  30   30 3910  798 FO
gr

c9
gs 2954 589 123 123 MR c np
c8
  30   30 3015  650 FO
gr

c8
gs 3175 908 123 123 MR c np
c9
  30   30 3236  969 FO
gr

c9
gs 4090 840 123 123 MR c np
  30   30 4151  901 FO
gr

gs 4230 979 123 123 MR c np
  30   30 4291 1040 FO
gr

gs 3804 714 123 123 MR c np
  30   30 3865  775 FO
gr

gs 3981 1018 123 123 MR c np
  30   30 4042 1079 FO
gr

gs 3576 1052 123 123 MR c np
  30   30 3637 1113 FO
gr

gs 4458 1395 123 123 MR c np
  30   30 4519 1456 FO
gr

gs 3964 806 123 123 MR c np
  30   30 4025  867 FO
gr

gs 4283 836 123 123 MR c np
  30   30 4344  897 FO
gr

gs 2077 689 123 123 MR c np
c8
2108  750 mt 2168  750 L
2138  720 mt 2138  780 L
2117  729 mt 2159  771 L
2159  729 mt 2117  771 L
gr

c8
gs 2026 500 123 123 MR c np
2057  561 mt 2117  561 L
2087  531 mt 2087  591 L
2066  540 mt 2108  582 L
2108  540 mt 2066  582 L
gr

gs 2059 533 123 123 MR c np
2090  594 mt 2150  594 L
2120  564 mt 2120  624 L
2099  573 mt 2141  615 L
2141  573 mt 2099  615 L
gr

gs 1965 777 123 123 MR c np
1996  838 mt 2056  838 L
2026  808 mt 2026  868 L
2005  817 mt 2047  859 L
2047  817 mt 2005  859 L
gr

gs 1828 538 123 123 MR c np
1859  599 mt 1919  599 L
1889  569 mt 1889  629 L
1868  578 mt 1910  620 L
1910  578 mt 1868  620 L
gr

gs 2145 857 123 123 MR c np
2176  918 mt 2236  918 L
2206  888 mt 2206  948 L
2185  897 mt 2227  939 L
2227  897 mt 2185  939 L
gr

gs 2058 617 123 123 MR c np
2089  678 mt 2149  678 L
2119  648 mt 2119  708 L
2098  657 mt 2140  699 L
2140  657 mt 2098  699 L
gr

gs 1959 637 123 123 MR c np
1990  698 mt 2050  698 L
2020  668 mt 2020  728 L
1999  677 mt 2041  719 L
2041  677 mt 1999  719 L
gr

gs 2465 646 123 123 MR c np
2496  707 mt 2556  707 L
2526  677 mt 2526  737 L
2505  686 mt 2547  728 L
2547  686 mt 2505  728 L
gr

gs 3848 718 123 123 MR c np
c9
3879  779 mt 3939  779 L
3909  749 mt 3909  809 L
3888  758 mt 3930  800 L
3930  758 mt 3888  800 L
gr

c9
gs 2954 574 123 123 MR c np
c8
2985  635 mt 3045  635 L
3015  605 mt 3015  665 L
2994  614 mt 3036  656 L
3036  614 mt 2994  656 L
gr

c8
gs 3177 901 123 123 MR c np
c9
3208  962 mt 3268  962 L
3238  932 mt 3238  992 L
3217  941 mt 3259  983 L
3259  941 mt 3217  983 L
gr

c9
gs 4087 747 123 123 MR c np
4118  808 mt 4178  808 L
4148  778 mt 4148  838 L
4127  787 mt 4169  829 L
4169  787 mt 4127  829 L
gr

gs 4228 939 123 123 MR c np
4259 1000 mt 4319 1000 L
4289  970 mt 4289 1030 L
4268  979 mt 4310 1021 L
4310  979 mt 4268 1021 L
gr

gs 3796 665 123 123 MR c np
3827  726 mt 3887  726 L
3857  696 mt 3857  756 L
3836  705 mt 3878  747 L
3878  705 mt 3836  747 L
gr

gs 3987 960 123 123 MR c np
4018 1021 mt 4078 1021 L
4048  991 mt 4048 1051 L
4027 1000 mt 4069 1042 L
4069 1000 mt 4027 1042 L
gr

gs 3607 991 123 123 MR c np
3638 1052 mt 3698 1052 L
3668 1022 mt 3668 1082 L
3647 1031 mt 3689 1073 L
3689 1031 mt 3647 1073 L
gr

gs 4457 1381 123 123 MR c np
4488 1442 mt 4548 1442 L
4518 1412 mt 4518 1472 L
4497 1421 mt 4539 1463 L
4539 1421 mt 4497 1463 L
gr

gs 3964 781 123 123 MR c np
3995  842 mt 4055  842 L
4025  812 mt 4025  872 L
4004  821 mt 4046  863 L
4046  821 mt 4004  863 L
gr

gs 4280 740 123 123 MR c np
4311  801 mt 4371  801 L
4341  771 mt 4341  831 L
4320  780 mt 4362  822 L
4362  780 mt 4320  822 L
gr

gs 2077 689 123 123 MR c np
30 39 -30 39 -30 -39 30 -39 2138 789 5 MP
c8
DP
gr

c8
gs 2026 494 123 123 MR c np
30 39 -30 39 -30 -39 30 -39 2087 594 5 MP
DP
gr

gs 2059 535 123 123 MR c np
30 39 -30 39 -30 -39 30 -39 2120 635 5 MP
DP
gr

gs 1965 776 123 123 MR c np
30 39 -30 39 -30 -39 30 -39 2026 876 5 MP
DP
gr

gs 1828 538 123 123 MR c np
30 39 -30 39 -30 -39 30 -39 1889 638 5 MP
DP
gr

gs 2145 861 123 123 MR c np
30 39 -30 39 -30 -39 30 -39 2206 961 5 MP
DP
gr

gs 2058 617 123 123 MR c np
30 39 -30 39 -30 -39 30 -39 2119 717 5 MP
DP
gr

gs 1959 632 123 123 MR c np
30 39 -30 39 -30 -39 30 -39 2020 732 5 MP
DP
gr

gs 2465 651 123 123 MR c np
30 39 -30 39 -30 -39 30 -39 2526 751 5 MP
DP
gr

gs 3845 713 123 123 MR c np
30 39 -30 39 -30 -39 30 -39 3906 813 5 MP
c9
DP
gr

c9
gs 2953 578 123 123 MR c np
30 39 -30 39 -30 -39 30 -39 3014 678 5 MP
c8
DP
gr

c8
gs 3286 904 123 123 MR c np
30 39 -30 39 -30 -39 30 -39 3347 1004 5 MP
c9
DP
gr

c9
gs 4065 714 123 123 MR c np
30 39 -30 39 -30 -39 30 -39 4126 814 5 MP
DP
gr

gs 4225 913 123 123 MR c np
30 39 -30 39 -30 -39 30 -39 4286 1013 5 MP
DP
gr

gs 3766 663 123 123 MR c np
30 39 -30 39 -30 -39 30 -39 3827 763 5 MP
DP
gr

gs 3998 940 123 123 MR c np
30 39 -30 39 -30 -39 30 -39 4059 1040 5 MP
DP
gr

gs 3720 994 123 123 MR c np
30 39 -30 39 -30 -39 30 -39 3781 1094 5 MP
DP
gr

gs 4443 1370 123 123 MR c np
30 39 -30 39 -30 -39 30 -39 4504 1470 5 MP
DP
gr

gs 3957 784 123 123 MR c np
30 39 -30 39 -30 -39 30 -39 4018 884 5 MP
DP
gr

gs 4255 722 123 123 MR c np
30 39 -30 39 -30 -39 30 -39 4316 822 5 MP
DP
gr

gs 2077 689 123 123 MR c np
-34 59 -34 -59 68 0 2104 770 4 MP
c8
DP
gr

c8
gs 2024 494 123 123 MR c np
-34 59 -34 -59 68 0 2051 575 4 MP
DP
gr

gs 2059 532 123 123 MR c np
-34 59 -34 -59 68 0 2086 613 4 MP
DP
gr

gs 1963 776 123 123 MR c np
-34 59 -34 -59 68 0 1990 857 4 MP
DP
gr

gs 1828 538 123 123 MR c np
-34 59 -34 -59 68 0 1855 619 4 MP
DP
gr

gs 2144 862 123 123 MR c np
-34 59 -34 -59 68 0 2171 943 4 MP
DP
gr

gs 2057 617 123 123 MR c np
-34 59 -34 -59 68 0 2084 698 4 MP
DP
gr

gs 1958 629 123 123 MR c np
-34 59 -34 -59 68 0 1985 710 4 MP
DP
gr

gs 2462 652 123 123 MR c np
-34 59 -34 -59 68 0 2489 733 4 MP
DP
gr

gs 3847 718 123 123 MR c np
-34 59 -34 -59 68 0 3874 799 4 MP
c9
DP
gr

c9
gs 2951 579 123 123 MR c np
-34 59 -34 -59 68 0 2978 660 4 MP
c8
DP
gr

c8
gs 3542 908 123 123 MR c np
-34 59 -34 -59 68 0 3569 989 4 MP
c9
DP
gr

c9
gs 3921 717 123 123 MR c np
-34 59 -34 -59 68 0 3948 798 4 MP
DP
gr

gs 4150 922 123 123 MR c np
-34 59 -34 -59 68 0 4177 1003 4 MP
DP
gr

gs 3859 666 123 123 MR c np
-34 59 -34 -59 68 0 3886 747 4 MP
DP
gr

gs 3970 943 123 123 MR c np
-34 59 -34 -59 68 0 3997 1024 4 MP
DP
gr

gs 3935 1002 123 123 MR c np
-34 59 -34 -59 68 0 3962 1083 4 MP
DP
gr

gs 4320 1370 123 123 MR c np
-34 59 -34 -59 68 0 4347 1451 4 MP
DP
gr

gs 3914 784 123 123 MR c np
-34 59 -34 -59 68 0 3941 865 4 MP
DP
gr

gs 4143 730 123 123 MR c np
-34 59 -34 -59 68 0 4170 811 4 MP
DP
gr

gs 2073 689 123 123 MR c np
-17 -13 6 -21 -18 12 -17 -12 6 21 -17 13 21 0 7 20 
8 -20 21 0 2105 740 11 MP
c8
DP
gr

c8
gs 2012 494 123 123 MR c np
-17 -13 6 -21 -18 12 -17 -12 6 21 -17 13 21 0 7 20 
8 -20 21 0 2044 545 11 MP
DP
gr

gs 2057 533 123 123 MR c np
-17 -13 6 -21 -18 12 -17 -12 6 21 -17 13 21 0 7 20 
8 -20 21 0 2089 584 11 MP
DP
gr

gs 1949 776 123 123 MR c np
-17 -13 6 -21 -18 12 -17 -12 6 21 -17 13 21 0 7 20 
8 -20 21 0 1981 827 11 MP
DP
gr

gs 1821 538 123 123 MR c np
-17 -13 6 -21 -18 12 -17 -12 6 21 -17 13 21 0 7 20 
8 -20 21 0 1853 589 11 MP
DP
gr

gs 2137 867 123 123 MR c np
-17 -13 6 -21 -18 12 -17 -12 6 21 -17 13 21 0 7 20 
8 -20 21 0 2169 918 11 MP
DP
gr

gs 2049 617 123 123 MR c np
-17 -13 6 -21 -18 12 -17 -12 6 21 -17 13 21 0 7 20 
8 -20 21 0 2081 668 11 MP
DP
gr

gs 1951 629 123 123 MR c np
-17 -13 6 -21 -18 12 -17 -12 6 21 -17 13 21 0 7 20 
8 -20 21 0 1983 680 11 MP
DP
gr

gs 2439 652 123 123 MR c np
-17 -13 6 -21 -18 12 -17 -12 6 21 -17 13 21 0 7 20 
8 -20 21 0 2471 703 11 MP
DP
gr

gs 3614 731 123 123 MR c np
-17 -13 6 -21 -18 12 -17 -12 6 21 -17 13 21 0 7 20 
8 -20 21 0 3646 782 11 MP
c9
DP
gr

c9
gs 2932 579 123 123 MR c np
-17 -13 6 -21 -18 12 -17 -12 6 21 -17 13 21 0 7 20 
8 -20 21 0 2964 630 11 MP
c8
DP
gr

c8
gs 3341 911 123 123 MR c np
-17 -13 6 -21 -18 12 -17 -12 6 21 -17 13 21 0 7 20 
8 -20 21 0 3373 962 11 MP
c9
DP
gr

c9
gs 3553 713 123 123 MR c np
-17 -13 6 -21 -18 12 -17 -12 6 21 -17 13 21 0 7 20 
8 -20 21 0 3585 764 11 MP
DP
gr

gs 3712 925 123 123 MR c np
-17 -13 6 -21 -18 12 -17 -12 6 21 -17 13 21 0 7 20 
8 -20 21 0 3744 976 11 MP
DP
gr

gs 3587 666 123 123 MR c np
-17 -13 6 -21 -18 12 -17 -12 6 21 -17 13 21 0 7 20 
8 -20 21 0 3619 717 11 MP
DP
gr

gs 3598 942 123 123 MR c np
-17 -13 6 -21 -18 12 -17 -12 6 21 -17 13 21 0 7 20 
8 -20 21 0 3630 993 11 MP
DP
gr

gs 3558 1005 123 123 MR c np
-17 -13 6 -21 -18 12 -17 -12 6 21 -17 13 21 0 7 20 
8 -20 21 0 3590 1056 11 MP
DP
gr

gs 3588 1369 123 123 MR c np
-17 -13 6 -21 -18 12 -17 -12 6 21 -17 13 21 0 7 20 
8 -20 21 0 3620 1420 11 MP
DP
gr

gs 3642 783 123 123 MR c np
-17 -13 6 -21 -18 12 -17 -12 6 21 -17 13 21 0 7 20 
8 -20 21 0 3674 834 11 MP
DP
gr

gs 3753 736 123 123 MR c np
-17 -13 6 -21 -18 12 -17 -12 6 21 -17 13 21 0 7 20 
8 -20 21 0 3785 787 11 MP
DP
gr

gs 2031 689 123 123 MR c np
-10 -15 10 -15 -17 0 -8 -15 -8 15 -17 0 10 15 -10 15 
17 0 8 15 8 -15 17 0 2067 735 13 MP
c8
DP
gr

c8
gs 1978 494 123 123 MR c np
-10 -15 10 -15 -17 0 -8 -15 -8 15 -17 0 10 15 -10 15 
17 0 8 15 8 -15 17 0 2014 540 13 MP
DP
gr

gs 2036 533 123 123 MR c np
-10 -15 10 -15 -17 0 -8 -15 -8 15 -17 0 10 15 -10 15 
17 0 8 15 8 -15 17 0 2072 579 13 MP
DP
gr

gs 1869 776 123 123 MR c np
-10 -15 10 -15 -17 0 -8 -15 -8 15 -17 0 10 15 -10 15 
17 0 8 15 8 -15 17 0 1905 822 13 MP
DP
gr

gs 1784 538 123 123 MR c np
-10 -15 10 -15 -17 0 -8 -15 -8 15 -17 0 10 15 -10 15 
17 0 8 15 8 -15 17 0 1820 584 13 MP
DP
gr

gs 2066 867 123 123 MR c np
-10 -15 10 -15 -17 0 -8 -15 -8 15 -17 0 10 15 -10 15 
17 0 8 15 8 -15 17 0 2102 913 13 MP
DP
gr

gs 1978 617 123 123 MR c np
-10 -15 10 -15 -17 0 -8 -15 -8 15 -17 0 10 15 -10 15 
17 0 8 15 8 -15 17 0 2014 663 13 MP
DP
gr

gs 1938 629 123 123 MR c np
-10 -15 10 -15 -17 0 -8 -15 -8 15 -17 0 10 15 -10 15 
17 0 8 15 8 -15 17 0 1974 675 13 MP
DP
gr

gs 2258 652 123 123 MR c np
-10 -15 10 -15 -17 0 -8 -15 -8 15 -17 0 10 15 -10 15 
17 0 8 15 8 -15 17 0 2294 698 13 MP
DP
gr

gs 2881 731 123 123 MR c np
-10 -15 10 -15 -17 0 -8 -15 -8 15 -17 0 10 15 -10 15 
17 0 8 15 8 -15 17 0 2917 777 13 MP
c9
DP
gr

c9
gs 2781 579 123 123 MR c np
-10 -15 10 -15 -17 0 -8 -15 -8 15 -17 0 10 15 -10 15 
17 0 8 15 8 -15 17 0 2817 625 13 MP
c8
DP
gr

c8
gs 2707 911 123 123 MR c np
-10 -15 10 -15 -17 0 -8 -15 -8 15 -17 0 10 15 -10 15 
17 0 8 15 8 -15 17 0 2743 957 13 MP
c9
DP
gr

c9
gs 2984 710 123 123 MR c np
-10 -15 10 -15 -17 0 -8 -15 -8 15 -17 0 10 15 -10 15 
17 0 8 15 8 -15 17 0 3020 756 13 MP
DP
gr

gs 3109 925 123 123 MR c np
-10 -15 10 -15 -17 0 -8 -15 -8 15 -17 0 10 15 -10 15 
17 0 8 15 8 -15 17 0 3145 971 13 MP
DP
gr

gs 2873 658 123 123 MR c np
-10 -15 10 -15 -17 0 -8 -15 -8 15 -17 0 10 15 -10 15 
17 0 8 15 8 -15 17 0 2909 704 13 MP
DP
gr

gs 2820 942 123 123 MR c np
-10 -15 10 -15 -17 0 -8 -15 -8 15 -17 0 10 15 -10 15 
17 0 8 15 8 -15 17 0 2856 988 13 MP
DP
gr

gs 2808 1003 123 123 MR c np
-10 -15 10 -15 -17 0 -8 -15 -8 15 -17 0 10 15 -10 15 
17 0 8 15 8 -15 17 0 2844 1049 13 MP
DP
gr

gs 2884 1368 123 123 MR c np
-10 -15 10 -15 -17 0 -8 -15 -8 15 -17 0 10 15 -10 15 
17 0 8 15 8 -15 17 0 2920 1414 13 MP
DP
gr

gs 3144 780 123 123 MR c np
-10 -15 10 -15 -17 0 -8 -15 -8 15 -17 0 10 15 -10 15 
17 0 8 15 8 -15 17 0 3180 826 13 MP
DP
gr

gs 2958 742 123 123 MR c np
-10 -15 10 -15 -17 0 -8 -15 -8 15 -17 0 10 15 -10 15 
17 0 8 15 8 -15 17 0 2994 788 13 MP
DP
gr

gr

c9
0 sg
%%IncludeResource: font Symbol
/Symbol /ISOLatin1Encoding 120 FMSR

3541 4934 mt 
(m) s
%%IncludeResource: font Helvetica
/Helvetica /ISOLatin1Encoding 120 FMSR

 616 2640 mt  -90 rotate
(MCC) s
90 rotate
 882 4658 mt 
( ) s
6239  431 mt 
( ) s
1 sg
0 1648 1329 0 0 -1648 959 4556 4 MP
PP
-1329 0 0 1648 1329 0 0 -1648 959 4556 5 MP stroke
4 w
DO
SO
6 w
0 sg
 959 4556 mt 2288 4556 L
 959 2908 mt 2288 2908 L
 959 4556 mt  959 2908 L
2288 4556 mt 2288 2908 L
 959 4556 mt 2288 4556 L
 959 4556 mt  959 2908 L
 959 4556 mt 2288 4556 L
 959 2908 mt 2288 2908 L
 959 4556 mt  959 2908 L
2288 4556 mt 2288 2908 L
1448 3044 mt 
(SNR = 0.0128) s
gs 959 2908 1330 1649 MR c np
0 j
gs 1149 2928 147 147 MR c np
0 -58 -58 0 0 58 58 0 1193 2972 5 MP
DP
gr

gr

1448 3190 mt 
(SNR = 0.04046) s
gs 959 2908 1330 1649 MR c np
0 j
gs 1149 3074 147 147 MR c np
1197 3122 mt 1247 3172 L
1247 3122 mt 1197 3172 L
gr

gr

1448 3336 mt 
(SNR = 0.128) s
gs 959 2908 1330 1649 MR c np
0 j
gs 1149 3220 147 147 MR c np
41 71 -82 0 41 -71 1222 3340 4 MP
DP
gr

gr

1448 3482 mt 
(SNR = 0.4046) s
gs 959 2908 1330 1649 MR c np
0 j
gs 1149 3366 147 147 MR c np
1186 3439 mt 1258 3439 L
1222 3403 mt 1222 3475 L
gr

gr

1448 3628 mt 
(SNR = 1.28) s
gs 959 2908 1330 1649 MR c np
0 j
gs 1149 3512 147 147 MR c np
36 47 -36 47 -36 -47 36 -47 1222 3632 5 MP
DP
gr

gr

1448 3775 mt 
(SNR = 4.046) s
gs 959 2908 1330 1649 MR c np
0 j
gs 1149 3659 147 147 MR c np
  36   36 1222 3732 FO
gr

gr

1448 3921 mt 
(SNR = 12.8) s
gs 959 2908 1330 1649 MR c np
0 j
gs 1149 3805 147 147 MR c np
1186 3878 mt 1258 3878 L
1222 3842 mt 1222 3914 L
1197 3853 mt 1247 3903 L
1247 3853 mt 1197 3903 L
gr

gr

1448 4067 mt 
(SNR = 40.46) s
gs 959 2908 1330 1649 MR c np
0 j
gs 1149 3951 147 147 MR c np
36 47 -36 47 -36 -47 36 -47 1222 4071 5 MP
DP
gr

gr

1448 4213 mt 
(SNR = 128) s
gs 959 2908 1330 1649 MR c np
0 j
gs 1149 4097 147 147 MR c np
-41 71 -41 -71 82 0 1181 4194 4 MP
DP
gr

gr

1448 4359 mt 
(SNR = 404.6) s
gs 959 2908 1330 1649 MR c np
0 j
gs 1149 4243 147 147 MR c np
-21 -16 8 -25 -22 15 -21 -15 8 25 -21 16 26 0 8 24 
9 -24 26 0 1187 4304 11 MP
DP
gr

gr

1448 4505 mt 
(SNR = 1280) s
gs 959 2908 1330 1649 MR c np
0 j
gs 1149 4389 147 147 MR c np
-13 -18 13 -18 -21 0 -10 -18 -10 18 -21 0 13 18 -13 18 
21 0 10 18 10 -18 21 0 1191 4444 13 MP
DP
gr

gr


end %%Color Dict

eplot
%%EndObject

epage
end

showpage

%%Trailer
%%EOF
