%!PS-Adobe-2.0 EPSF-1.2
%%Creator: MATLAB, The MathWorks, Inc. Version 8.2.0.701 (R2013b). Operating System: Linux 3.11.0-19-generic #33-Ubuntu SMP Tue Mar 11 18:48:34 UTC 2014 x86_64.
%%Title: ../img/performanceHighkYSNR.eps
%%CreationDate: 04/04/2014  13:20:08
%%DocumentNeededFonts: Helvetica
%%DocumentProcessColors: Cyan Magenta Yellow Black
%%Extensions: CMYK
%%Pages: 1
%%BoundingBox:    58   214   546   591
%%EndComments

%%BeginProlog
% MathWorks dictionary
/MathWorks 160 dict begin
% definition operators
/bdef {bind def} bind def
/ldef {load def} bind def
/xdef {exch def} bdef
/xstore {exch store} bdef
% operator abbreviations
/c  /clip ldef
/cc /concat ldef
/cp /closepath ldef
/gr /grestore ldef
/gs /gsave ldef
/mt /moveto ldef
/np /newpath ldef
/cm /currentmatrix ldef
/sm /setmatrix ldef
/rm /rmoveto ldef
/rl /rlineto ldef
/s {show newpath} bdef
/sc {setcmykcolor} bdef
/sr /setrgbcolor ldef
/sg /setgray ldef
/w /setlinewidth ldef
/j /setlinejoin ldef
/cap /setlinecap ldef
/rc {rectclip} bdef
/rf {rectfill} bdef
% page state control
/pgsv () def
/bpage {/pgsv save def} bdef
/epage {pgsv restore} bdef
/bplot /gsave ldef
/eplot {stroke grestore} bdef
% orientation switch
/portraitMode 0 def /landscapeMode 1 def /rotateMode 2 def
% coordinate system mappings
/dpi2point 0 def
% font control
/FontSize 0 def
/FMS {/FontSize xstore findfont [FontSize 0 0 FontSize neg 0 0]
  makefont setfont} bdef
/reencode {exch dup where {pop load} {pop StandardEncoding} ifelse
  exch dup 3 1 roll findfont dup length dict begin
  { 1 index /FID ne {def}{pop pop} ifelse } forall
  /Encoding exch def currentdict end definefont pop} bdef
/isroman {findfont /CharStrings get /Agrave known} bdef
/FMSR {3 1 roll 1 index dup isroman {reencode} {pop pop} ifelse
  exch FMS} bdef
/csm {1 dpi2point div -1 dpi2point div scale neg translate
 dup landscapeMode eq {pop -90 rotate}
  {rotateMode eq {90 rotate} if} ifelse} bdef
% line types: solid, dotted, dashed, dotdash
/SO { [] 0 setdash } bdef
/DO { [.5 dpi2point mul 4 dpi2point mul] 0 setdash } bdef
/DA { [6 dpi2point mul] 0 setdash } bdef
/DD { [.5 dpi2point mul 4 dpi2point mul 6 dpi2point mul 4
  dpi2point mul] 0 setdash } bdef
% macros for lines and objects
/L {lineto stroke} bdef
/MP {3 1 roll moveto 1 sub {rlineto} repeat} bdef
/AP {{rlineto} repeat} bdef
/PDlw -1 def
/W {/PDlw currentlinewidth def setlinewidth} def
/PP {closepath eofill} bdef
/DP {closepath stroke} bdef
/MR {4 -2 roll moveto dup  0 exch rlineto exch 0 rlineto
  neg 0 exch rlineto closepath} bdef
/FR {MR stroke} bdef
/PR {MR fill} bdef
/L1i {{currentfile picstr readhexstring pop} image} bdef
/tMatrix matrix def
/MakeOval {newpath tMatrix currentmatrix pop translate scale
0 0 1 0 360 arc tMatrix setmatrix} bdef
/FO {MakeOval stroke} bdef
/PO {MakeOval fill} bdef
/PD {currentlinewidth 2 div 0 360 arc fill
   PDlw -1 eq not {PDlw w /PDlw -1 def} if} def
/FA {newpath tMatrix currentmatrix pop translate scale
  0 0 1 5 -2 roll arc tMatrix setmatrix stroke} bdef
/PA {newpath tMatrix currentmatrix pop	translate 0 0 moveto scale
  0 0 1 5 -2 roll arc closepath tMatrix setmatrix fill} bdef
/FAn {newpath tMatrix currentmatrix pop translate scale
  0 0 1 5 -2 roll arcn tMatrix setmatrix stroke} bdef
/PAn {newpath tMatrix currentmatrix pop translate 0 0 moveto scale
  0 0 1 5 -2 roll arcn closepath tMatrix setmatrix fill} bdef
/vradius 0 def /hradius 0 def /lry 0 def
/lrx 0 def /uly 0 def /ulx 0 def /rad 0 def
/MRR {/vradius xdef /hradius xdef /lry xdef /lrx xdef /uly xdef
  /ulx xdef newpath tMatrix currentmatrix pop ulx hradius add uly
  vradius add translate hradius vradius scale 0 0 1 180 270 arc 
  tMatrix setmatrix lrx hradius sub uly vradius add translate
  hradius vradius scale 0 0 1 270 360 arc tMatrix setmatrix
  lrx hradius sub lry vradius sub translate hradius vradius scale
  0 0 1 0 90 arc tMatrix setmatrix ulx hradius add lry vradius sub
  translate hradius vradius scale 0 0 1 90 180 arc tMatrix setmatrix
  closepath} bdef
/FRR {MRR stroke } bdef
/PRR {MRR fill } bdef
/MlrRR {/lry xdef /lrx xdef /uly xdef /ulx xdef /rad lry uly sub 2 div def
  newpath tMatrix currentmatrix pop ulx rad add uly rad add translate
  rad rad scale 0 0 1 90 270 arc tMatrix setmatrix lrx rad sub lry rad
  sub translate rad rad scale 0 0 1 270 90 arc tMatrix setmatrix
  closepath} bdef
/FlrRR {MlrRR stroke } bdef
/PlrRR {MlrRR fill } bdef
/MtbRR {/lry xdef /lrx xdef /uly xdef /ulx xdef /rad lrx ulx sub 2 div def
  newpath tMatrix currentmatrix pop ulx rad add uly rad add translate
  rad rad scale 0 0 1 180 360 arc tMatrix setmatrix lrx rad sub lry rad
  sub translate rad rad scale 0 0 1 0 180 arc tMatrix setmatrix
  closepath} bdef
/FtbRR {MtbRR stroke } bdef
/PtbRR {MtbRR fill } bdef
/stri 6 array def /dtri 6 array def
/smat 6 array def /dmat 6 array def
/tmat1 6 array def /tmat2 6 array def /dif 3 array def
/asub {/ind2 exch def /ind1 exch def dup dup
  ind1 get exch ind2 get sub exch } bdef
/tri_to_matrix {
  2 0 asub 3 1 asub 4 0 asub 5 1 asub
  dup 0 get exch 1 get 7 -1 roll astore } bdef
/compute_transform {
  dmat dtri tri_to_matrix tmat1 invertmatrix 
  smat stri tri_to_matrix tmat2 concatmatrix } bdef
/ds {stri astore pop} bdef
/dt {dtri astore pop} bdef
/db {2 copy /cols xdef /rows xdef mul dup 3 mul string
  currentfile exch readhexstring pop
  dup 0 3 index getinterval /rbmap xdef
  dup 2 index dup getinterval /gbmap xdef
  1 index dup 2 mul exch getinterval /bbmap xdef pop pop}bdef
/it {gs np dtri aload pop moveto lineto lineto cp c
  cols rows 8 compute_transform 
  rbmap gbmap bbmap true 3 colorimage gr}bdef
/il {newpath moveto lineto stroke}bdef
currentdict end def
%%EndProlog

%%BeginSetup
MathWorks begin

0 cap

end
%%EndSetup

%%Page: 1 1
%%BeginPageSetup
%%PageBoundingBox:    58   214   546   591
MathWorks begin
bpage
%%EndPageSetup

%%BeginObject: obj1
bplot

/dpi2point 12 def
portraitMode 0216 7344 csm

  480   247  5865  4521 MR c np
86 dict begin %Colortable dictionary
/c0 { 0.000000 0.000000 0.000000 sr} bdef
/c1 { 1.000000 1.000000 1.000000 sr} bdef
/c2 { 0.900000 0.000000 0.000000 sr} bdef
/c3 { 0.000000 0.820000 0.000000 sr} bdef
/c4 { 0.000000 0.000000 0.800000 sr} bdef
/c5 { 0.910000 0.820000 0.320000 sr} bdef
/c6 { 1.000000 0.260000 0.820000 sr} bdef
/c7 { 0.000000 0.820000 0.820000 sr} bdef
c0
1 j
1 sg
   0    0 6913 5186 PR
6 w
0 4087 5356 0 0 -4087 899 4475 4 MP
PP
-5356 0 0 4087 5356 0 0 -4087 899 4475 5 MP stroke
4 w
DO
0 sg
 899 4289 mt 6255 4289 L
6255 4289 mt 6255 4289 L
 899 3917 mt 6255 3917 L
6255 3917 mt 6255 3917 L
 899 3546 mt 6255 3546 L
6255 3546 mt 6255 3546 L
 899 3174 mt 6255 3174 L
6255 3174 mt 6255 3174 L
 899 2803 mt 6255 2803 L
6255 2803 mt 6255 2803 L
 899 2432 mt 6255 2432 L
6255 2432 mt 6255 2432 L
 899 2060 mt 6255 2060 L
6255 2060 mt 6255 2060 L
 899 1689 mt 6255 1689 L
6255 1689 mt 6255 1689 L
 899 1317 mt 6255 1317 L
6255 1317 mt 6255 1317 L
 899  946 mt 6255  946 L
6255  946 mt 6255  946 L
 899  574 mt 6255  574 L
6255  574 mt 6255  574 L
SO
6 w
 899 4475 mt 6255 4475 L
 899  388 mt 6255  388 L
 899 4475 mt  899  388 L
6255 4475 mt 6255  388 L
 899 4475 mt 6255 4475 L
 899 4475 mt  899  388 L
1289 4475 mt 1289 4421 L
1289  389 mt 1289  442 L
%%IncludeResource: font Helvetica
/Helvetica /ISOLatin1Encoding 120 FMSR

1206 4620 mt 
(0.1) s
2433 4475 mt 2433 4421 L
2433  389 mt 2433  442 L
2400 4620 mt 
(1) s
3577 4475 mt 3577 4421 L
3577  389 mt 3577  442 L
3511 4620 mt 
(10) s
4721 4475 mt 4721 4421 L
4721  389 mt 4721  442 L
4621 4620 mt 
(100) s
5865 4475 mt 5865 4421 L
5865  389 mt 5865  442 L
5732 4620 mt 
(1000) s
 899 4289 mt  952 4289 L
6255 4289 mt 6201 4289 L
 798 4333 mt 
(0) s
 899 3917 mt  952 3917 L
6255 3917 mt 6201 3917 L
 698 3961 mt 
(0.1) s
 899 3546 mt  952 3546 L
6255 3546 mt 6201 3546 L
 698 3590 mt 
(0.2) s
 899 3174 mt  952 3174 L
6255 3174 mt 6201 3174 L
 698 3218 mt 
(0.3) s
 899 2803 mt  952 2803 L
6255 2803 mt 6201 2803 L
 698 2847 mt 
(0.4) s
 899 2432 mt  952 2432 L
6255 2432 mt 6201 2432 L
 698 2476 mt 
(0.5) s
 899 2060 mt  952 2060 L
6255 2060 mt 6201 2060 L
 698 2104 mt 
(0.6) s
 899 1689 mt  952 1689 L
6255 1689 mt 6201 1689 L
 698 1733 mt 
(0.7) s
 899 1317 mt  952 1317 L
6255 1317 mt 6201 1317 L
 698 1361 mt 
(0.8) s
 899  946 mt  952  946 L
6255  946 mt 6201  946 L
 698  990 mt 
(0.9) s
 899  574 mt  952  574 L
6255  574 mt 6201  574 L
 798  618 mt 
(1) s
 899 4475 mt 6255 4475 L
 899  388 mt 6255  388 L
 899 4475 mt  899  388 L
6255 4475 mt 6255  388 L
gs 899 389 5357 4087 MR c np
DA
/c8 { 0.000000 0.000000 1.000000 sr} bdef
c8
0 -530 1029 2585 2 MP stroke
/c9 { 0.000000 1.000000 0.000000 sr} bdef
c9
0 -232 1289 2913 2 MP stroke
0 sg
1549 4289 PD
c8
0 -223 2173 896 2 MP stroke
c9
0 -464 2433 1952 2 MP stroke
0 sg
0 -299 2693 2676 2 MP stroke
c8
0 -33 3317 653 2 MP stroke
c9
0 -330 3577 1617 2 MP stroke
0 sg
0 -149 3837 723 2 MP stroke
c8
4461 574 PD
c9
0 -353 4721 1568 2 MP stroke
0 sg
4981 574 PD
c8
5605 574 PD
c9
0 -405 5865 1577 2 MP stroke
0 sg
6125 574 PD
c8
0 -405 1029 3367 2 MP stroke
c9
0 -59 1289 3185 2 MP stroke
0 sg
1549 4289 PD
c8
0 -246 2173 1526 2 MP stroke
c9
0 -215 2433 2492 2 MP stroke
0 sg
0 -262 2693 3235 2 MP stroke
c8
0 -39 3317 740 2 MP stroke
c9
0 -229 3577 2241 2 MP stroke
0 sg
0 -171 3837 1042 2 MP stroke
c8
0 -37 4461 673 2 MP stroke
c9
0 -238 4721 2162 2 MP stroke
0 sg
0 -1 4981 723 2 MP stroke
c8
5605 574 PD
c9
0 -230 5865 2148 2 MP stroke
0 sg
6125 574 PD
SO
c8
65 0 996 2055 2 MP stroke
c9
65 0 1256 2681 2 MP stroke
0 sg
65 0 1516 4289 2 MP stroke
c8
65 0 2140 673 2 MP stroke
c9
65 0 2400 1488 2 MP stroke
0 sg
65 0 2660 2377 2 MP stroke
c8
65 0 3284 620 2 MP stroke
c9
65 0 3544 1287 2 MP stroke
0 sg
65 0 3804 574 2 MP stroke
c8
65 0 4428 574 2 MP stroke
c9
65 0 4688 1215 2 MP stroke
0 sg
65 0 4948 574 2 MP stroke
c8
65 0 5572 574 2 MP stroke
c9
65 0 5832 1172 2 MP stroke
0 sg
65 0 6092 574 2 MP stroke
c8
65 0 996 3367 2 MP stroke
c9
65 0 1256 3185 2 MP stroke
0 sg
65 0 1516 4289 2 MP stroke
c8
65 0 2140 1526 2 MP stroke
c9
65 0 2400 2492 2 MP stroke
0 sg
65 0 2660 3235 2 MP stroke
c8
65 0 3284 740 2 MP stroke
c9
65 0 3544 2241 2 MP stroke
0 sg
65 0 3804 1042 2 MP stroke
c8
65 0 4428 673 2 MP stroke
c9
65 0 4688 2162 2 MP stroke
0 sg
65 0 4948 723 2 MP stroke
c8
65 0 5572 574 2 MP stroke
c9
65 0 5832 2148 2 MP stroke
0 sg
65 0 6092 574 2 MP stroke
c8
-130 0 0 377 130 0 0 -377 964 2962 5 MP stroke
c9
-130 0 0 213 130 0 0 -213 1224 3126 5 MP stroke
0 sg
-130 0 130 0 1484 4289 3 MP stroke
c8
-130 0 0 384 130 0 0 -384 2108 1280 5 MP stroke
c9
-130 0 0 325 130 0 0 -325 2368 2277 5 MP stroke
0 sg
-130 0 0 297 130 0 0 -297 2628 2973 5 MP stroke
c8
-130 0 0 48 130 0 0 -48 3252 701 5 MP stroke
c9
-130 0 0 395 130 0 0 -395 3512 2012 5 MP stroke
0 sg
-130 0 0 148 130 0 0 -148 3772 871 5 MP stroke
c8
-130 0 0 62 130 0 0 -62 4396 636 5 MP stroke
c9
-130 0 0 356 130 0 0 -356 4656 1924 5 MP stroke
0 sg
-130 0 0 148 130 0 0 -148 4916 722 5 MP stroke
c8
-130 0 130 0 5540 574 3 MP stroke
c9
-130 0 0 341 130 0 0 -341 5800 1918 5 MP stroke
0 sg
-130 0 130 0 6060 574 3 MP stroke
c8
130 0 964 2770 2 MP stroke
c9
130 0 1224 3045 2 MP stroke
0 sg
130 0 1484 4289 2 MP stroke
c8
130 0 2108 1127 2 MP stroke
c9
130 0 2368 2019 2 MP stroke
0 sg
130 0 2628 2827 2 MP stroke
c8
130 0 3252 674 2 MP stroke
c9
130 0 3512 1718 2 MP stroke
0 sg
130 0 3772 723 2 MP stroke
c8
130 0 4396 574 2 MP stroke
c9
130 0 4656 1649 2 MP stroke
0 sg
130 0 4916 574 2 MP stroke
c8
130 0 5540 574 2 MP stroke
c9
130 0 5800 1662 2 MP stroke
0 sg
130 0 6060 574 2 MP stroke
gs 1216 3392 147 156 MR c np
c9
1253 3474 mt 1325 3474 L
1289 3438 mt 1289 3510 L
1253 3465 mt 1325 3465 L
1289 3429 mt 1289 3501 L
gr

c9
gs 2620 2096 147 1427 MR c np
0 sg
2657 3449 mt 2729 3449 L
2693 3413 mt 2693 3485 L
2657 2169 mt 2729 2169 L
2693 2133 mt 2693 2205 L
gr

0 sg
gs 3244 501 147 399 MR c np
c8
3281  826 mt 3353  826 L
3317  790 mt 3317  862 L
3281  806 mt 3353  806 L
3317  770 mt 3317  842 L
3281  776 mt 3353  776 L
3317  740 mt 3317  812 L
3281  578 mt 3353  578 L
3317  542 mt 3317  614 L
3281  574 mt 3353  574 L
3317  538 mt 3317  610 L
gr

c8
gs 3764 1058 147 147 MR c np
0 sg
3801 1131 mt 3873 1131 L
3837 1095 mt 3837 1167 L
gr

0 sg
gr

3450 4716 mt 
(SNR) s
 616 3673 mt  -90 rotate
(SMCC \(for LASSO and LSCO\); FPEL \(for RNI\)) s
90 rotate
 882 4518 mt 
( ) s
6239  431 mt 
( ) s
1 sg
0 480 906 0 0 -480 5290 4416 4 MP
PP
-906 0 0 480 906 0 0 -480 5290 4416 5 MP stroke
4 w
DO
SO
6 w
0 sg
5290 4416 mt 6196 4416 L
5290 3936 mt 6196 3936 L
5290 4416 mt 5290 3936 L
6196 4416 mt 6196 3936 L
5290 4416 mt 6196 4416 L
5290 4416 mt 5290 3936 L
5290 4416 mt 6196 4416 L
5290 3936 mt 6196 3936 L
5290 4416 mt 5290 3936 L
6196 4416 mt 6196 3936 L
5758 4070 mt 
(RNI) s
gs 5290 3936 907 481 MR c np
360 0 5361 4028 2 MP stroke
gr

5758 4219 mt 
(LASSO) s
gs 5290 3936 907 481 MR c np
c9
360 0 5361 4176 2 MP stroke
gr

c9
0 sg
5758 4367 mt 
(LSCO) s
gs 5290 3936 907 481 MR c np
c8
360 0 5361 4323 2 MP stroke
gr

c8

end %%Color Dict

eplot
%%EndObject

epage
end

showpage

%%Trailer
%%EOF
